{
  "ShopId": 1,
  "Items": [
    {
      "ItemId": 1,
      "Price": 739,
      "Name": "Short Sword",
      "Count": -1
    },
    {
      "ItemId": 4,
      "Price": 739,
      "Name": "Club",
      "Count": -1
    },
    {
      "ItemId": 11,
      "Price": 739,
      "Name": "Bone Dagger",
      "Count": -1
    },
    {
      "ItemId": 13,
      "Price": 739,
      "Name": "Short Bow",
      "Count": -1
    },
    {
      "ItemId": 3,
      "Price": 12037,
      "Name": "Broadsword",
      "Count": -1
    },
    {
      "ItemId": 152,
      "Price": 7771,
      "Name": "Heavy Chisel",
      "Count": -1
    },
    {
      "ItemId": 12,
      "Price": 12037,
      "Name": "Knife",
      "Count": -1
    },
    {
      "ItemId": 215,
      "Price": 12037,
      "Name": "Doom Dagger",
      "Count": -1
    },
    {
      "ItemId": 14,
      "Price": 12037,
      "Name": "Bow",
      "Count": -1
    },
    {
      "ItemId": 5,
      "Price": 12037,
      "Name": "Mace",
      "Count": -1
    },
    {
      "ItemId": 153,
      "Price": 17815,
      "Name": "Sickle",
      "Count": -1
    },
    {
      "ItemId": 1333,
      "Price": 52096,
      "Name": "Brandish",
      "Count": -1
    },
    {
      "ItemId": 66,
      "Price": 52096,
      "Name": "Gladius",
      "Count": -1
    },
    {
      "ItemId": 67,
      "Price": 52096,
      "Name": "Orcish Sword",
      "Count": -1
    },
    {
      "ItemId": 122,
      "Price": 52096,
      "Name": "Handmade Sword",
      "Count": -1
    },
    {
      "ItemId": 154,
      "Price": 52096,
      "Name": "Dwarven Mace",
      "Count": -1
    },
    {
      "ItemId": 216,
      "Price": 52096,
      "Name": "Dirk",
      "Count": -1
    },
    {
      "ItemId": 271,
      "Price": 52096,
      "Name": "Hunting Bow",
      "Count": -1
    },
    {
      "ItemId": 2,
      "Price": 130963,
      "Name": "Long Sword",
      "Count": -1
    },
    {
      "ItemId": 218,
      "Price": 130963,
      "Name": "Throwing Knife",
      "Count": -1
    },
    {
      "ItemId": 272,
      "Price": 130963,
      "Name": "Forest Bow",
      "Count": -1
    },
    {
      "ItemId": 15,
      "Price": 130963,
      "Name": "Short Spear",
      "Count": -1
    },
    {
      "ItemId": 5284,
      "Price": 234963,
      "Name": "Zweihander",
      "Count": -1
    }
  ]
}