{
  "ShopId": 1014,
  "Items": [
    {
      "ItemId": 5170,
      "Price": 0,
      "Name": "Mithril Panzer Coat",
      "Count": -1
    },
    {
      "ItemId": 5171,
      "Price": 0,
      "Name": "Brigadine Panzer Coat",
      "Count": -1
    },
    {
      "ItemId": 5172,
      "Price": 0,
      "Name": "Draconic Panzer Coat",
      "Count": -1
    },
    {
      "ItemId": 5173,
      "Price": 0,
      "Name": "Blood Panzer Coat",
      "Count": -1
    },
    {
      "ItemId": 5174,
      "Price": 0,
      "Name": "Ophidian Panzer Coat",
      "Count": -1
    },
    {
      "ItemId": 5175,
      "Price": 0,
      "Name": "Inferno Panzer Coat",
      "Count": -1
    }
  ]
}