{
  "ShopId": 1015,
  "Items": [
    {
      "ItemId": 5287,
      "Price": 0,
      "Name": "Sealed Dark Crystal breastplate",
      "Count": -1
    },
    {
      "ItemId": 5288,
      "Price": 0,
      "Name": "Sealed Dark Crystal Gaiters",
      "Count": -1
    },
    {
      "ItemId": 5289,
      "Price": 0,
      "Name": "Sealed Dark Crystal Helmet",
      "Count": -1
    },
    {
      "ItemId": 5290,
      "Price": 0,
      "Name": "Sealed Dark Crystal Gloves",
      "Count": -1
    },
    {
      "ItemId": 5291,
      "Price": 0,
      "Name": "Sealed Dark Crystal Boots",
      "Count": -1
    },
    {
      "ItemId": 5293,
      "Price": 0,
      "Name": "Sealed Tallum Plate Armor",
      "Count": -1
    },
    {
      "ItemId": 5294,
      "Price": 0,
      "Name": "Sealed Tallum Helmet",
      "Count": -1
    },
    {
      "ItemId": 5295,
      "Price": 0,
      "Name": "Sealed Tallum Gloves",
      "Count": -1
    },
    {
      "ItemId": 5296,
      "Price": 0,
      "Name": "Sealed Tallum Boots",
      "Count": -1
    },
    {
      "ItemId": 5297,
      "Price": 0,
      "Name": "Sealed Dark Crystal Leather Armor",
      "Count": -1
    },
    {
      "ItemId": 5298,
      "Price": 0,
      "Name": "Sealed Dark Crystal Leggings",
      "Count": -1
    },
    {
      "ItemId": 5299,
      "Price": 0,
      "Name": "Sealed Gloves of The Underworld",
      "Count": -1
    },
    {
      "ItemId": 5300,
      "Price": 0,
      "Name": "Sealed Boots of The Underworld",
      "Count": -1
    },
    {
      "ItemId": 5301,
      "Price": 0,
      "Name": "Sealed Tallum Leather Armor",
      "Count": -1
    },
    {
      "ItemId": 5302,
      "Price": 0,
      "Name": "Sealed Gust Bracer",
      "Count": -1
    },
    {
      "ItemId": 5303,
      "Price": 0,
      "Name": "Sealed Gust Boots",
      "Count": -1
    },
    {
      "ItemId": 5304,
      "Price": 0,
      "Name": "Sealed Tallum Tunic",
      "Count": -1
    },
    {
      "ItemId": 5305,
      "Price": 0,
      "Name": "Sealed Tallum Stockings",
      "Count": -1
    },
    {
      "ItemId": 5306,
      "Price": 0,
      "Name": "Sealed Gloves of Black Ore",
      "Count": -1
    },
    {
      "ItemId": 5307,
      "Price": 0,
      "Name": "Sealed Red Flame Boots",
      "Count": -1
    },
    {
      "ItemId": 5308,
      "Price": 0,
      "Name": "Sealed Dark Crystal Robe",
      "Count": -1
    },
    {
      "ItemId": 5309,
      "Price": 0,
      "Name": "Sealed Phoenix Gloves",
      "Count": -1
    },
    {
      "ItemId": 5310,
      "Price": 0,
      "Name": "Sealed Phoenix Boots",
      "Count": -1
    },
    {
      "ItemId": 5311,
      "Price": 0,
      "Name": "Sealed Armor of Nightmare",
      "Count": -1
    },
    {
      "ItemId": 5312,
      "Price": 0,
      "Name": "Sealed Helm of Nightmare",
      "Count": -1
    },
    {
      "ItemId": 5313,
      "Price": 0,
      "Name": "Sealed Gauntlets of Nightmare",
      "Count": -1
    },
    {
      "ItemId": 5314,
      "Price": 0,
      "Name": "Sealed Boots of Nightmare",
      "Count": -1
    },
    {
      "ItemId": 5316,
      "Price": 0,
      "Name": "Sealed Majestic Plate Armor",
      "Count": -1
    },
    {
      "ItemId": 5317,
      "Price": 0,
      "Name": "Sealed Majestic Circlet",
      "Count": -1
    },
    {
      "ItemId": 5318,
      "Price": 0,
      "Name": "Sealed Majestic Gauntlets",
      "Count": -1
    },
    {
      "ItemId": 5319,
      "Price": 0,
      "Name": "Sealed Majestic Boots",
      "Count": -1
    },
    {
      "ItemId": 5320,
      "Price": 0,
      "Name": "Sealed Leather Armor of Nightmare",
      "Count": -1
    },
    {
      "ItemId": 5321,
      "Price": 0,
      "Name": "Sealed Dark Legion Gloves",
      "Count": -1
    },
    {
      "ItemId": 5322,
      "Price": 0,
      "Name": "Sealed Dark Legion Boots",
      "Count": -1
    },
    {
      "ItemId": 5323,
      "Price": 0,
      "Name": "Sealed Majestic Leather Armor",
      "Count": -1
    },
    {
      "ItemId": 5324,
      "Price": 0,
      "Name": "Sealed Gloves of Phantom",
      "Count": -1
    },
    {
      "ItemId": 5325,
      "Price": 0,
      "Name": "Sealed Boots of Phantom",
      "Count": -1
    },
    {
      "ItemId": 5326,
      "Price": 0,
      "Name": "Sealed Nightmare Robe",
      "Count": -1
    },
    {
      "ItemId": 5327,
      "Price": 0,
      "Name": "Sealed Cerberus Gloves",
      "Count": -1
    },
    {
      "ItemId": 5328,
      "Price": 0,
      "Name": "Sealed Cerberus Boots",
      "Count": -1
    },
    {
      "ItemId": 5329,
      "Price": 0,
      "Name": "Sealed Majestic Robe",
      "Count": -1
    },
    {
      "ItemId": 5330,
      "Price": 0,
      "Name": "Sealed Dasparion's Gloves",
      "Count": -1
    },
    {
      "ItemId": 5331,
      "Price": 0,
      "Name": "Sealed Dasparion's Boots",
      "Count": -1
    },
    {
      "ItemId": 5576,
      "Price": 0,
      "Name": "Sound Test Boots",
      "Count": -1
    },
    {
      "ItemId": 5590,
      "Price": 0,
      "Name": "Squeaking Shoes",
      "Count": -1
    },
    {
      "ItemId": 5709,
      "Price": 0,
      "Name": "Sealed Zubei's Gauntlets",
      "Count": -1
    },
    {
      "ItemId": 5710,
      "Price": 0,
      "Name": "Zubei's Gauntlets - Heavy Armor",
      "Count": -1
    },
    {
      "ItemId": 5711,
      "Price": 0,
      "Name": "Zubei's Gauntlets - Light Armor",
      "Count": -1
    },
    {
      "ItemId": 5712,
      "Price": 0,
      "Name": "Zubei's Gauntlets - Robe",
      "Count": -1
    },
    {
      "ItemId": 5713,
      "Price": 0,
      "Name": "Sealed Avadon Gloves",
      "Count": -1
    },
    {
      "ItemId": 5714,
      "Price": 0,
      "Name": "Avadon Gloves - Heavy Armor",
      "Count": -1
    },
    {
      "ItemId": 5715,
      "Price": 0,
      "Name": "Avadon Gloves - Light Armor",
      "Count": -1
    },
    {
      "ItemId": 5716,
      "Price": 0,
      "Name": "Avadon Gloves - Robe",
      "Count": -1
    },
    {
      "ItemId": 5717,
      "Price": 0,
      "Name": "Sealed Blue Wolf Gloves",
      "Count": -1
    },
    {
      "ItemId": 5718,
      "Price": 0,
      "Name": "Blue Wolf Gloves - Heavy Armor",
      "Count": -1
    },
    {
      "ItemId": 5719,
      "Price": 0,
      "Name": "Blue Wolf Gloves - Light Armor",
      "Count": -1
    },
    {
      "ItemId": 5720,
      "Price": 0,
      "Name": "Blue Wolf Gloves - Robe",
      "Count": -1
    },
    {
      "ItemId": 5721,
      "Price": 0,
      "Name": "Sealed Doom Gloves",
      "Count": -1
    },
    {
      "ItemId": 5722,
      "Price": 0,
      "Name": "Doom Gloves - Heavy Armor",
      "Count": -1
    },
    {
      "ItemId": 5723,
      "Price": 0,
      "Name": "Doom Gloves - Light Armor",
      "Count": -1
    },
    {
      "ItemId": 5724,
      "Price": 0,
      "Name": "Doom Gloves - Robe",
      "Count": -1
    },
    {
      "ItemId": 5725,
      "Price": 0,
      "Name": "Sealed Zubei's Boots",
      "Count": -1
    },
    {
      "ItemId": 5726,
      "Price": 0,
      "Name": "Zubei's Boots - Heavy Armor",
      "Count": -1
    },
    {
      "ItemId": 5727,
      "Price": 0,
      "Name": "Zubei's Boots - Light Armor",
      "Count": -1
    },
    {
      "ItemId": 5728,
      "Price": 0,
      "Name": "Zubei's Boots - Robe",
      "Count": -1
    },
    {
      "ItemId": 5729,
      "Price": 0,
      "Name": "Sealed Avadon Boots",
      "Count": -1
    },
    {
      "ItemId": 5730,
      "Price": 0,
      "Name": "Avadon Boots - Heavy Armor",
      "Count": -1
    },
    {
      "ItemId": 5731,
      "Price": 0,
      "Name": "Avadon Boots - Light Armor",
      "Count": -1
    },
    {
      "ItemId": 5732,
      "Price": 0,
      "Name": "Avadon Boots - Robe",
      "Count": -1
    },
    {
      "ItemId": 5733,
      "Price": 0,
      "Name": "Sealed Blue Wolf Boots",
      "Count": -1
    },
    {
      "ItemId": 5734,
      "Price": 0,
      "Name": "Blue Wolf Boots - Heavy Armor",
      "Count": -1
    },
    {
      "ItemId": 5735,
      "Price": 0,
      "Name": "Blue Wolf Boots - Light Armor",
      "Count": -1
    },
    {
      "ItemId": 5736,
      "Price": 0,
      "Name": "Blue Wolf Boots - Robe",
      "Count": -1
    },
    {
      "ItemId": 5737,
      "Price": 0,
      "Name": "Sealed Boots of Doom",
      "Count": -1
    },
    {
      "ItemId": 5738,
      "Price": 0,
      "Name": "Doom Boots - Heavy Armor",
      "Count": -1
    },
    {
      "ItemId": 5739,
      "Price": 0,
      "Name": "Doom Boots - Light Armor",
      "Count": -1
    },
    {
      "ItemId": 5740,
      "Price": 0,
      "Name": "Doom Boots - Robe",
      "Count": -1
    },
    {
      "ItemId": 5765,
      "Price": 0,
      "Name": "Dark Crystal Gloves - Heavy Armor",
      "Count": -1
    },
    {
      "ItemId": 5766,
      "Price": 0,
      "Name": "Dark Crystal Gloves - Light Armor",
      "Count": -1
    },
    {
      "ItemId": 5767,
      "Price": 0,
      "Name": "Dark Crystal Gloves - Robe",
      "Count": -1
    },
    {
      "ItemId": 5768,
      "Price": 0,
      "Name": "Tallum Gloves - Heavy Armor",
      "Count": -1
    },
    {
      "ItemId": 5769,
      "Price": 0,
      "Name": "Tallum Gloves - Light Armor",
      "Count": -1
    },
    {
      "ItemId": 5770,
      "Price": 0,
      "Name": "Tallum Gloves - Robe",
      "Count": -1
    },
    {
      "ItemId": 5771,
      "Price": 0,
      "Name": "Gauntlets of Nightmare - Heavy Armor",
      "Count": -1
    },
    {
      "ItemId": 5772,
      "Price": 0,
      "Name": "Gauntlets of Nightmare - Light Armor",
      "Count": -1
    },
    {
      "ItemId": 5773,
      "Price": 0,
      "Name": "Gauntlets of Nightmare - Robe",
      "Count": -1
    },
    {
      "ItemId": 5774,
      "Price": 0,
      "Name": "Majestic Gauntlets - Heavy Armor",
      "Count": -1
    },
    {
      "ItemId": 5775,
      "Price": 0,
      "Name": "Majestic Gauntlets - Light Armor",
      "Count": -1
    },
    {
      "ItemId": 5776,
      "Price": 0,
      "Name": "Majestic Gauntlets - Robe",
      "Count": -1
    },
    {
      "ItemId": 5777,
      "Price": 0,
      "Name": "Dark Crystal Boots - Heavy Armor",
      "Count": -1
    },
    {
      "ItemId": 5778,
      "Price": 0,
      "Name": "Dark Crystal Boots - Light Armor",
      "Count": -1
    },
    {
      "ItemId": 5779,
      "Price": 0,
      "Name": "Dark Crystal Boots - Robe",
      "Count": -1
    },
    {
      "ItemId": 5780,
      "Price": 0,
      "Name": "Tallum Boots - Heavy Armor",
      "Count": -1
    },
    {
      "ItemId": 5781,
      "Price": 0,
      "Name": "Tallum Boots - Light Armor",
      "Count": -1
    },
    {
      "ItemId": 5782,
      "Price": 0,
      "Name": "Tallum Boots - Robe",
      "Count": -1
    },
    {
      "ItemId": 5783,
      "Price": 0,
      "Name": "Boots of Nightmare - Heavy Armor",
      "Count": -1
    },
    {
      "ItemId": 5784,
      "Price": 0,
      "Name": "Boots of Nightmare - Light Armor",
      "Count": -1
    },
    {
      "ItemId": 5785,
      "Price": 0,
      "Name": "Boots of Nightmare - Robe",
      "Count": -1
    },
    {
      "ItemId": 5786,
      "Price": 0,
      "Name": "Majestic Boots - Heavy Armor",
      "Count": -1
    },
    {
      "ItemId": 5787,
      "Price": 0,
      "Name": "Majestic Boots - Light Armor",
      "Count": -1
    },
    {
      "ItemId": 5788,
      "Price": 0,
      "Name": "Majestic Boots - Robe",
      "Count": -1
    },
    {
      "ItemId": 5808,
      "Price": 0,
      "Name": "Party Mask",
      "Count": -1
    },
    {
      "ItemId": 6323,
      "Price": 0,
      "Name": "Sealed Phoenix Necklace",
      "Count": -1
    },
    {
      "ItemId": 6324,
      "Price": 0,
      "Name": "Sealed Phoenix Earring",
      "Count": -1
    },
    {
      "ItemId": 6325,
      "Price": 0,
      "Name": "Sealed Phoenix Ring",
      "Count": -1
    },
    {
      "ItemId": 6326,
      "Price": 0,
      "Name": "Sealed Majestic Necklace",
      "Count": -1
    },
    {
      "ItemId": 6327,
      "Price": 0,
      "Name": "Sealed Majestic Earring",
      "Count": -1
    },
    {
      "ItemId": 6328,
      "Price": 0,
      "Name": "Sealed Majestic Ring",
      "Count": -1
    }
  ]
}