{
  "ShopId": 107,
  "Items": [
    {
      "ItemId": 2,
      "Price": 136000,
      "Name": "Long Sword",
      "Count": -1
    },
    {
      "ItemId": 218,
      "Price": 136000,
      "Name": "Throwing Knife",
      "Count": -1
    },
    {
      "ItemId": 272,
      "Price": 136000,
      "Name": "Forest Bow",
      "Count": -1
    },
    {
      "ItemId": 15,
      "Price": 136000,
      "Name": "Short Spear",
      "Count": -1
    },
    {
      "ItemId": 68,
      "Price": 244000,
      "Name": "Falchion",
      "Count": -1
    },
    {
      "ItemId": 219,
      "Price": 244000,
      "Name": "Sword Breaker",
      "Count": -1
    },
    {
      "ItemId": 273,
      "Price": 244000,
      "Name": "Composition Bow",
      "Count": -1
    },
    {
      "ItemId": 155,
      "Price": 244000,
      "Name": "Buzdygan",
      "Count": -1
    },
    {
      "ItemId": 87,
      "Price": 244000,
      "Name": "Iron Hammer",
      "Count": -1
    },
    {
      "ItemId": 16,
      "Price": 244000,
      "Name": "Long Spear",
      "Count": -1
    },
    {
      "ItemId": 123,
      "Price": 409000,
      "Name": "Saber",
      "Count": -1
    },
    {
      "ItemId": 7880,
      "Price": 409000,
      "Name": "Steel Sword",
      "Count": -1
    },
    {
      "ItemId": 220,
      "Price": 409000,
      "Name": "Crafted Dagger",
      "Count": -1
    },
    {
      "ItemId": 221,
      "Price": 409000,
      "Name": "Assassin Knife",
      "Count": -1
    },
    {
      "ItemId": 274,
      "Price": 409000,
      "Name": "Strengthened Bow",
      "Count": -1
    },
    {
      "ItemId": 156,
      "Price": 409000,
      "Name": "Hand Axe",
      "Count": -1
    },
    {
      "ItemId": 166,
      "Price": 409000,
      "Name": "Heavy Mace",
      "Count": -1
    },
    {
      "ItemId": 168,
      "Price": 409000,
      "Name": "Work Hammer",
      "Count": -1
    },
    {
      "ItemId": 291,
      "Price": 409000,
      "Name": "Trident",
      "Count": -1
    },
    {
      "ItemId": 69,
      "Price": 644000,
      "Name": "Bastard Sword",
      "Count": -1
    },
    {
      "ItemId": 126,
      "Price": 644000,
      "Name": "Artisan's Sword",
      "Count": -1
    },
    {
      "ItemId": 222,
      "Price": 644000,
      "Name": "Poniard Dagger",
      "Count": -1
    },
    {
      "ItemId": 275,
      "Price": 644000,
      "Name": "Long Bow",
      "Count": -1
    },
    {
      "ItemId": 276,
      "Price": 644000,
      "Name": "Elven Bow",
      "Count": -1
    },
    {
      "ItemId": 277,
      "Price": 644000,
      "Name": "Dark Elven Bow",
      "Count": -1
    },
    {
      "ItemId": 86,
      "Price": 644000,
      "Name": "Tomahawk",
      "Count": -1
    },
    {
      "ItemId": 292,
      "Price": 644000,
      "Name": "Pike",
      "Count": -1
    },
    {
      "ItemId": 295,
      "Price": 644000,
      "Name": "Dwarven Trident",
      "Count": -1
    },
    {
      "ItemId": 124,
      "Price": 967000,
      "Name": "Two-Handed Sword",
      "Count": -1
    },
    {
      "ItemId": 127,
      "Price": 967000,
      "Name": "Crimson Sword",
      "Count": -1
    },
    {
      "ItemId": 130,
      "Price": 967000,
      "Name": "Elven Sword",
      "Count": -1
    },
    {
      "ItemId": 223,
      "Price": 967000,
      "Name": "Kukuri",
      "Count": -1
    },
    {
      "ItemId": 278,
      "Price": 967000,
      "Name": "Gastraphetes",
      "Count": -1
    },
    {
      "ItemId": 157,
      "Price": 967000,
      "Name": "Spiked Club",
      "Count": -1
    },
    {
      "ItemId": 293,
      "Price": 967000,
      "Name": "War Hammer",
      "Count": -1
    },
    {
      "ItemId": 296,
      "Price": 967000,
      "Name": "Dwarven Pike",
      "Count": -1
    },
    {
      "ItemId": 129,
      "Price": 1400000,
      "Name": "Sword of Revolution",
      "Count": -1
    },
    {
      "ItemId": 224,
      "Price": 1400000,
      "Name": "Maingauche",
      "Count": -1
    },
    {
      "ItemId": 1660,
      "Price": 1400000,
      "Name": "Cursed Maingauche",
      "Count": -1
    },
    {
      "ItemId": 279,
      "Price": 1400000,
      "Name": "Strengthened Long Bow",
      "Count": -1
    },
    {
      "ItemId": 158,
      "Price": 1400000,
      "Name": "Tarbar",
      "Count": -1
    },
    {
      "ItemId": 7881,
      "Price": 1400000,
      "Name": "Titan Sword",
      "Count": -1
    },
    {
      "ItemId": 7896,
      "Price": 1400000,
      "Name": "Titan Hammer",
      "Count": -1
    },
    {
      "ItemId": 172,
      "Price": 1400000,
      "Name": "Heavy Bone Club",
      "Count": -1
    },
    {
      "ItemId": 294,
      "Price": 1400000,
      "Name": "War Pick",
      "Count": -1
    },
    {
      "ItemId": 93,
      "Price": 1400000,
      "Name": "Winged Spear",
      "Count": -1
    },
    {
      "ItemId": 256,
      "Price": 136000,
      "Name": "Cestus",
      "Count": -1
    },
    {
      "ItemId": 257,
      "Price": 244000,
      "Name": "Viper's Fang",
      "Count": -1
    },
    {
      "ItemId": 258,
      "Price": 409000,
      "Name": "Bagh-Nakh",
      "Count": -1
    },
    {
      "ItemId": 259,
      "Price": 644000,
      "Name": "Single-Edged Jamadhr",
      "Count": -1
    },
    {
      "ItemId": 260,
      "Price": 967000,
      "Name": "Triple-Edged Jamadhr",
      "Count": -1
    },
    {
      "ItemId": 261,
      "Price": 1400000,
      "Name": "Bich'Hwa",
      "Count": -1
    },
    {
      "ItemId": 5284,
      "Price": 244000,
      "Name": "Zweihander",
      "Count": -1
    },
    {
      "ItemId": 5285,
      "Price": 409000,
      "Name": "Heavy Sword",
      "Count": -1
    }
  ]
}