{
  "ShopId": 108,
  "Items": [
    {
      "ItemId": 176,
      "Price": 136000,
      "Name": "Journeyman's Staff",
      "Count": -1
    },
    {
      "ItemId": 310,
      "Price": 136000,
      "Name": "Relic of The Saints",
      "Count": -1
    },
    {
      "ItemId": 177,
      "Price": 244000,
      "Name": "Mage Staff",
      "Count": -1
    },
    {
      "ItemId": 311,
      "Price": 244000,
      "Name": "Crucifix of Blessing",
      "Count": -1
    },
    {
      "ItemId": 100,
      "Price": 244000,
      "Name": "Voodoo Doll",
      "Count": -1
    },
    {
      "ItemId": 178,
      "Price": 409000,
      "Name": "Bone Staff",
      "Count": -1
    },
    {
      "ItemId": 101,
      "Price": 409000,
      "Name": "Scroll of Wisdom",
      "Count": -1
    },
    {
      "ItemId": 7885,
      "Price": 409000,
      "Name": "Priest Sword",
      "Count": -1
    },
    {
      "ItemId": 312,
      "Price": 409000,
      "Name": "Branch of Life",
      "Count": -1
    },
    {
      "ItemId": 314,
      "Price": 409000,
      "Name": "Proof of Revenge",
      "Count": -1
    },
    {
      "ItemId": 179,
      "Price": 644000,
      "Name": "Mace of Prayer",
      "Count": -1
    },
    {
      "ItemId": 182,
      "Price": 644000,
      "Name": "Doom Hammer",
      "Count": -1
    },
    {
      "ItemId": 183,
      "Price": 644000,
      "Name": "Mystic Staff",
      "Count": -1
    },
    {
      "ItemId": 185,
      "Price": 644000,
      "Name": "Staff of Mana",
      "Count": -1
    },
    {
      "ItemId": 315,
      "Price": 644000,
      "Name": "Divine Tome",
      "Count": -1
    },
    {
      "ItemId": 83,
      "Price": 716000,
      "Name": "Sword of Magic",
      "Count": -1
    },
    {
      "ItemId": 143,
      "Price": 716000,
      "Name": "Sword of Mystic",
      "Count": -1
    },
    {
      "ItemId": 144,
      "Price": 716000,
      "Name": "Sword of Occult",
      "Count": -1
    },
    {
      "ItemId": 238,
      "Price": 967000,
      "Name": "Dagger of Mana",
      "Count": -1
    },
    {
      "ItemId": 239,
      "Price": 967000,
      "Name": "Mystic Knife",
      "Count": -1
    },
    {
      "ItemId": 240,
      "Price": 967000,
      "Name": "Conjurer's Knife",
      "Count": -1
    },
    {
      "ItemId": 241,
      "Price": 967000,
      "Name": "Shilen Knife",
      "Count": -1
    },
    {
      "ItemId": 186,
      "Price": 967000,
      "Name": "Staff of Magic",
      "Count": -1
    },
    {
      "ItemId": 316,
      "Price": 967000,
      "Name": "Blood of Saints",
      "Count": -1
    },
    {
      "ItemId": 317,
      "Price": 967000,
      "Name": "Tome of Blood",
      "Count": -1
    },
    {
      "ItemId": 90,
      "Price": 1400000,
      "Name": "Goat Head Staff",
      "Count": -1
    },
    {
      "ItemId": 7886,
      "Price": 1400000,
      "Name": "Sword of Magic Fog",
      "Count": -1
    },
    {
      "ItemId": 7890,
      "Price": 1400000,
      "Name": "Priest Mace",
      "Count": -1
    },
    {
      "ItemId": 318,
      "Price": 1400000,
      "Name": "Crucifix of Blood",
      "Count": -1
    },
    {
      "ItemId": 321,
      "Price": 1520000,
      "Name": "Demon Fangs",
      "Count": -1
    },
    {
      "ItemId": 17,
      "Price": 1,
      "Name": "Wooden Arrow",
      "Count": -1
    },
    {
      "ItemId": 1341,
      "Price": 3,
      "Name": "Bone Arrow",
      "Count": -1
    },
    {
      "ItemId": 1342,
      "Price": 4,
      "Name": "Fine Steel Arrow",
      "Count": -1
    }
  ]
}