{
  "ShopId": 135390,
  "Items": [
    {
      "ItemId": 6902,
      "Price": 12900,
      "Name": "Pledge Shield",
      "Count": -1
    },
    {
      "ItemId": 1829,
      "Price": 500,
      "Name": "Scroll of Escape: Clan Hall",
      "Count": 5
    },
    {
      "ItemId": 5169,
      "Price": 300,
      "Name": "Deluxe Food for Strider",
      "Count": 5
    }
  ]
}