{
  "ShopId": 140,
  "Items": [
    {
      "ItemId": 1529,
      "Price": 100,
      "Name": "Amulet: Dreaming Spirit",
      "Count": -1
    },
    {
      "ItemId": 1525,
      "Price": 100,
      "Name": "Amulet: Life Drain",
      "Count": -1
    },
    {
      "ItemId": 1527,
      "Price": 100,
      "Name": "Amulet: Venom",
      "Count": -1
    },
    {
      "ItemId": 1524,
      "Price": 100,
      "Name": "Amulet: Soul Shield",
      "Count": -1
    },
    {
      "ItemId": 1531,
      "Price": 100,
      "Name": "Amulet: Chill Flame",
      "Count": -1
    },
    {
      "ItemId": 1522,
      "Price": 500,
      "Name": "Amulet: Chant of Battle",
      "Count": -1
    },
    {
      "ItemId": 1526,
      "Price": 500,
      "Name": "Amulet: Fear",
      "Count": -1
    },
    {
      "ItemId": 1534,
      "Price": 800,
      "Name": "Amulet: Madness",
      "Count": -1
    },
    {
      "ItemId": 1537,
      "Price": 800,
      "Name": "Amulet: Seal of Poison",
      "Count": -1
    },
    {
      "ItemId": 1856,
      "Price": 800,
      "Name": "Amulet: Chant of Life",
      "Count": -1
    },
    {
      "ItemId": 1523,
      "Price": 800,
      "Name": "Amulet: Chant of Shielding",
      "Count": -1
    },
    {
      "ItemId": 1521,
      "Price": 800,
      "Name": "Amulet: Chant of Fire",
      "Count": -1
    },
    {
      "ItemId": 1535,
      "Price": 800,
      "Name": "Amulet: Frost Flame",
      "Count": -1
    },
    {
      "ItemId": 1532,
      "Price": 1250,
      "Name": "Amulet: Blaze Quake",
      "Count": -1
    },
    {
      "ItemId": 1536,
      "Price": 1250,
      "Name": "Amulet: Seal of Binding",
      "Count": -1
    },
    {
      "ItemId": 1533,
      "Price": 1250,
      "Name": "Amulet: Aura Sink",
      "Count": -1
    },
    {
      "ItemId": 1528,
      "Price": 1800,
      "Name": "Amulet: Seal of Chaos",
      "Count": -1
    },
    {
      "ItemId": 1518,
      "Price": 1800,
      "Name": "Amulet: Flame Chant",
      "Count": -1
    },
    {
      "ItemId": 1519,
      "Price": 1800,
      "Name": "Amulet: Pa'agrio's Gift",
      "Count": -1
    },
    {
      "ItemId": 1520,
      "Price": 2450,
      "Name": "Amulet: Pa'agrio's Blessing",
      "Count": -1
    },
    {
      "ItemId": 1530,
      "Price": 2450,
      "Name": "Amulet: Seal of Slow",
      "Count": -1
    }
  ]
}