{
  "ShopId": 142,
  "Items": [
    {
      "ItemId": 7807,
      "Price": 60,
      "Name": "Green Colored Lure - For Beginners",
      "Count": -1
    },
    {
      "ItemId": 7808,
      "Price": 84,
      "Name": "Purple Colored Lure - For Beginners",
      "Count": -1
    },
    {
      "ItemId": 7809,
      "Price": 72,
      "Name": "Yellow Colored Lure - For Beginners",
      "Count": -1
    },
    {
      "ItemId": 6519,
      "Price": 120,
      "Name": "Green Colored Lure - Low Grade",
      "Count": -1
    },
    {
      "ItemId": 6520,
      "Price": 144,
      "Name": "Green Colored Lure",
      "Count": -1
    },
    {
      "ItemId": 6521,
      "Price": 180,
      "Name": "Green Colored Lure - High Grade",
      "Count": -1
    },
    {
      "ItemId": 6522,
      "Price": 180,
      "Name": "Purple Colored Lure - Low Grade",
      "Count": -1
    },
    {
      "ItemId": 6523,
      "Price": 216,
      "Name": "Purple Colored Lure",
      "Count": -1
    },
    {
      "ItemId": 6524,
      "Price": 240,
      "Name": "Purple Colored Lure - High Grade",
      "Count": -1
    },
    {
      "ItemId": 6525,
      "Price": 144,
      "Name": "Yellow Colored Lure - Low Grade",
      "Count": -1
    },
    {
      "ItemId": 6526,
      "Price": 180,
      "Name": "Yellow Colored Lure",
      "Count": -1
    },
    {
      "ItemId": 6527,
      "Price": 216,
      "Name": "Yellow Colored Lure - High Grade",
      "Count": -1
    },
    {
      "ItemId": 6529,
      "Price": 36000,
      "Name": "Baby Duck Rod",
      "Count": -1
    },
    {
      "ItemId": 6530,
      "Price": 120000,
      "Name": "Albatross Rod",
      "Count": -1
    },
    {
      "ItemId": 6531,
      "Price": 480000,
      "Name": "Pelican Rod",
      "Count": -1
    },
    {
      "ItemId": 6532,
      "Price": 1440000,
      "Name": "KingFisher Rod",
      "Count": -1
    },
    {
      "ItemId": 6533,
      "Price": 4800000,
      "Name": "Cygnus Pole",
      "Count": -1
    },
    {
      "ItemId": 6534,
      "Price": 12000000,
      "Name": "Triton Pole",
      "Count": -1
    },
    {
      "ItemId": 7561,
      "Price": 120,
      "Name": "Fishing Manual",
      "Count": -1
    }
  ]
}