{
  "ShopId": 167,
  "Items": [
    {
      "ItemId": 3031,
      "Price": 400,
      "Name": "Spirit Ore",
      "Count": -1
    },
    {
      "ItemId": 1785,
      "Price": 250,
      "Name": "Soul Ore",
      "Count": -1
    },
    {
      "ItemId": 5192,
      "Price": 100,
      "Name": "Rope of Magic: D-Grade",
      "Count": -1
    },
    {
      "ItemId": 5193,
      "Price": 150,
      "Name": "Rope of Magic: C-Grade",
      "Count": -1
    },
    {
      "ItemId": 5194,
      "Price": 250,
      "Name": "Rope of Magic: B-Grade",
      "Count": -1
    },
    {
      "ItemId": 2130,
      "Price": 1000,
      "Name": "Gemstone D",
      "Count": -1
    }
  ]
}