{
  "ShopId": 185,
  "Items": [
    {
      "ItemId": 412,
      "Price": 12700,
      "Name": "Cotton Pants",
      "Count": -1
    },
    {
      "ItemId": 390,
      "Price": 20300,
      "Name": "Cotton Shirt",
      "Count": -1
    },
    {
      "ItemId": 24,
      "Price": 20300,
      "Name": "Bone Breastplate",
      "Count": -1
    },
    {
      "ItemId": 31,
      "Price": 12700,
      "Name": "Bone Gaiters",
      "Count": -1
    },
    {
      "ItemId": 25,
      "Price": 31800,
      "Name": "Piece Bone Breastplate",
      "Count": -1
    },
    {
      "ItemId": 26,
      "Price": 49200,
      "Name": "Bronze Breastplate",
      "Count": -1
    },
    {
      "ItemId": 33,
      "Price": 23000,
      "Name": "Hard Leather Gaiters",
      "Count": -1
    },
    {
      "ItemId": 32,
      "Price": 19900,
      "Name": "Piece Bone Gaiters",
      "Count": -1
    },
    {
      "ItemId": 27,
      "Price": 36900,
      "Name": "Hard Leather Shirt",
      "Count": -1
    },
    {
      "ItemId": 34,
      "Price": 30700,
      "Name": "Bronze Gaiters",
      "Count": -1
    },
    {
      "ItemId": 413,
      "Price": 39100,
      "Name": "Puma Skin Gaiters",
      "Count": -1
    },
    {
      "ItemId": 347,
      "Price": 83500,
      "Name": "Ring Mail Breastplate",
      "Count": -1
    },
    {
      "ItemId": 391,
      "Price": 62600,
      "Name": "Puma Skin Shirt",
      "Count": -1
    },
    {
      "ItemId": 376,
      "Price": 52200,
      "Name": "Iron Plate Gaiters",
      "Count": -1
    },
    {
      "ItemId": 414,
      "Price": 62500,
      "Name": "Lion Skin Gaiters",
      "Count": -1
    },
    {
      "ItemId": 392,
      "Price": 99900,
      "Name": "Lion Skin Shirt",
      "Count": -1
    },
    {
      "ItemId": 348,
      "Price": 133000,
      "Name": "Scale Mail",
      "Count": -1
    },
    {
      "ItemId": 349,
      "Price": 183000,
      "Name": "Compound Scale Mail",
      "Count": -1
    },
    {
      "ItemId": 350,
      "Price": 183000,
      "Name": "Dwarven Scale Mail",
      "Count": -1
    },
    {
      "ItemId": 58,
      "Price": 183000,
      "Name": "Mithril Breastplate",
      "Count": -1
    },
    {
      "ItemId": 59,
      "Price": 127000,
      "Name": "Mithril Gaiters",
      "Count": -1
    },
    {
      "ItemId": 416,
      "Price": 95200,
      "Name": "Reinforced Leather Gaiters",
      "Count": -1
    },
    {
      "ItemId": 377,
      "Price": 83300,
      "Name": "Scale Gaiters",
      "Count": -1
    },
    {
      "ItemId": 351,
      "Price": 203000,
      "Name": "Blast Plate",
      "Count": -1
    },
    {
      "ItemId": 378,
      "Price": 127000,
      "Name": "Compound Scale Gaiters",
      "Count": -1
    },
    {
      "ItemId": 379,
      "Price": 127000,
      "Name": "Dwarven Scale Gaiters",
      "Count": -1
    },
    {
      "ItemId": 393,
      "Price": 152000,
      "Name": "Mithril Banded Mail",
      "Count": -1
    },
    {
      "ItemId": 415,
      "Price": 95200,
      "Name": "Mithril Banded Gaiters",
      "Count": -1
    },
    {
      "ItemId": 394,
      "Price": 152000,
      "Name": "Reinforced Leather Shirt",
      "Count": -1
    },
    {
      "ItemId": 2378,
      "Price": 187000,
      "Name": "Brigandine Gaiters",
      "Count": -1
    },
    {
      "ItemId": 352,
      "Price": 299000,
      "Name": "Brigandine Tunic",
      "Count": -1
    },
    {
      "ItemId": 395,
      "Price": 224000,
      "Name": "Manticore Skin Shirt",
      "Count": -1
    },
    {
      "ItemId": 417,
      "Price": 140000,
      "Name": "Manticore Skin Gaiters",
      "Count": -1
    },
    {
      "ItemId": 102,
      "Price": 7110,
      "Name": "Round Shield",
      "Count": -1
    },
    {
      "ItemId": 625,
      "Price": 12900,
      "Name": "Bone Shield",
      "Count": -1
    },
    {
      "ItemId": 626,
      "Price": 21900,
      "Name": "Bronze Shield",
      "Count": -1
    },
    {
      "ItemId": 627,
      "Price": 35000,
      "Name": "Aspis",
      "Count": -1
    },
    {
      "ItemId": 628,
      "Price": 53300,
      "Name": "Hoplon",
      "Count": -1
    },
    {
      "ItemId": 629,
      "Price": 78400,
      "Name": "Kite Shield",
      "Count": -1
    },
    {
      "ItemId": 50,
      "Price": 6770,
      "Name": "Leather Gloves",
      "Count": -1
    },
    {
      "ItemId": 51,
      "Price": 12300,
      "Name": "Bracer",
      "Count": -1
    },
    {
      "ItemId": 604,
      "Price": 20900,
      "Name": "Crafted Leather Gloves",
      "Count": -1
    },
    {
      "ItemId": 605,
      "Price": 33300,
      "Name": "Leather Gauntlets",
      "Count": -1
    },
    {
      "ItemId": 63,
      "Price": 50800,
      "Name": "Gauntlets",
      "Count": -1
    },
    {
      "ItemId": 606,
      "Price": 74700,
      "Name": "Rip Gauntlets",
      "Count": -1
    },
    {
      "ItemId": 38,
      "Price": 6770,
      "Name": "Low Boots",
      "Count": -1
    },
    {
      "ItemId": 39,
      "Price": 12300,
      "Name": "Boots",
      "Count": -1
    },
    {
      "ItemId": 40,
      "Price": 20900,
      "Name": "Leather Boots",
      "Count": -1
    },
    {
      "ItemId": 1123,
      "Price": 33300,
      "Name": "Blue Buckskin Boots",
      "Count": -1
    },
    {
      "ItemId": 553,
      "Price": 50800,
      "Name": "Iron Boots",
      "Count": -1
    },
    {
      "ItemId": 1124,
      "Price": 74700,
      "Name": "Boots of Power",
      "Count": -1
    },
    {
      "ItemId": 44,
      "Price": 10200,
      "Name": "Leather Helmet",
      "Count": -1
    },
    {
      "ItemId": 1148,
      "Price": 18400,
      "Name": "Hard Leather Helmet",
      "Count": -1
    },
    {
      "ItemId": 45,
      "Price": 31300,
      "Name": "Bone Helmet",
      "Count": -1
    },
    {
      "ItemId": 46,
      "Price": 50000,
      "Name": "Bronze Helmet",
      "Count": -1
    },
    {
      "ItemId": 47,
      "Price": 76200,
      "Name": "Helmet",
      "Count": -1
    }
  ]
}