{
  "ShopId": 186,
  "Items": [
    {
      "ItemId": 1104,
      "Price": 12700,
      "Name": "Stockings of Devotion",
      "Count": -1
    },
    {
      "ItemId": 1101,
      "Price": 20300,
      "Name": "Tunic of Devotion",
      "Count": -1
    },
    {
      "ItemId": 1105,
      "Price": 23000,
      "Name": "Stockings of Magic",
      "Count": -1
    },
    {
      "ItemId": 1102,
      "Price": 36900,
      "Name": "Tunic of Magic",
      "Count": -1
    },
    {
      "ItemId": 465,
      "Price": 39100,
      "Name": "Cursed Stockings",
      "Count": -1
    },
    {
      "ItemId": 432,
      "Price": 62600,
      "Name": "Cursed Tunic",
      "Count": -1
    },
    {
      "ItemId": 467,
      "Price": 62500,
      "Name": "Dark Stockings",
      "Count": -1
    },
    {
      "ItemId": 434,
      "Price": 99900,
      "Name": "White Tunic",
      "Count": -1
    },
    {
      "ItemId": 468,
      "Price": 62500,
      "Name": "Mystic's Stockings",
      "Count": -1
    },
    {
      "ItemId": 435,
      "Price": 99900,
      "Name": "Mystic's Tunic",
      "Count": -1
    },
    {
      "ItemId": 469,
      "Price": 95200,
      "Name": "Stockings of Knowledge",
      "Count": -1
    },
    {
      "ItemId": 436,
      "Price": 152000,
      "Name": "Tunic of Knowledge",
      "Count": -1
    },
    {
      "ItemId": 470,
      "Price": 140000,
      "Name": "Mithril Stockings",
      "Count": -1
    },
    {
      "ItemId": 437,
      "Price": 224000,
      "Name": "Mithril Tunic",
      "Count": -1
    },
    {
      "ItemId": 102,
      "Price": 7110,
      "Name": "Round Shield",
      "Count": -1
    },
    {
      "ItemId": 625,
      "Price": 12900,
      "Name": "Bone Shield",
      "Count": -1
    },
    {
      "ItemId": 626,
      "Price": 21900,
      "Name": "Bronze Shield",
      "Count": -1
    },
    {
      "ItemId": 627,
      "Price": 35000,
      "Name": "Aspis",
      "Count": -1
    },
    {
      "ItemId": 628,
      "Price": 53300,
      "Name": "Hoplon",
      "Count": -1
    },
    {
      "ItemId": 629,
      "Price": 78400,
      "Name": "Kite Shield",
      "Count": -1
    },
    {
      "ItemId": 50,
      "Price": 6770,
      "Name": "Leather Gloves",
      "Count": -1
    },
    {
      "ItemId": 51,
      "Price": 12300,
      "Name": "Bracer",
      "Count": -1
    },
    {
      "ItemId": 604,
      "Price": 20900,
      "Name": "Crafted Leather Gloves",
      "Count": -1
    },
    {
      "ItemId": 605,
      "Price": 33300,
      "Name": "Leather Gauntlets",
      "Count": -1
    },
    {
      "ItemId": 63,
      "Price": 50800,
      "Name": "Gauntlets",
      "Count": -1
    },
    {
      "ItemId": 606,
      "Price": 74700,
      "Name": "Rip Gauntlets",
      "Count": -1
    },
    {
      "ItemId": 38,
      "Price": 6770,
      "Name": "Low Boots",
      "Count": -1
    },
    {
      "ItemId": 39,
      "Price": 12300,
      "Name": "Boots",
      "Count": -1
    },
    {
      "ItemId": 40,
      "Price": 20900,
      "Name": "Leather Boots",
      "Count": -1
    },
    {
      "ItemId": 1123,
      "Price": 33300,
      "Name": "Blue Buckskin Boots",
      "Count": -1
    },
    {
      "ItemId": 553,
      "Price": 50800,
      "Name": "Iron Boots",
      "Count": -1
    },
    {
      "ItemId": 1124,
      "Price": 74700,
      "Name": "Boots of Power",
      "Count": -1
    },
    {
      "ItemId": 44,
      "Price": 10200,
      "Name": "Leather Helmet",
      "Count": -1
    },
    {
      "ItemId": 1148,
      "Price": 18400,
      "Name": "Hard Leather Helmet",
      "Count": -1
    },
    {
      "ItemId": 45,
      "Price": 31300,
      "Name": "Bone Helmet",
      "Count": -1
    },
    {
      "ItemId": 46,
      "Price": 50000,
      "Name": "Bronze Helmet",
      "Count": -1
    },
    {
      "ItemId": 47,
      "Price": 76200,
      "Name": "Helmet",
      "Count": -1
    }
  ]
}