{
  "ShopId": 189,
  "Items": [
    {
      "ItemId": 1294,
      "Price": 75,
      "Name": "Spellbook: Defense Aura",
      "Count": -1
    },
    {
      "ItemId": 1095,
      "Price": 75,
      "Name": "Spellbook: Attack Aura",
      "Count": -1
    },
    {
      "ItemId": 1048,
      "Price": 100,
      "Name": "Spellbook: Might",
      "Count": -1
    },
    {
      "ItemId": 1050,
      "Price": 100,
      "Name": "Spellbook: Battle Heal",
      "Count": -1
    },
    {
      "ItemId": 1051,
      "Price": 100,
      "Name": "Spellbook: Vampiric Touch",
      "Count": -1
    },
    {
      "ItemId": 1049,
      "Price": 100,
      "Name": "Spellbook: Ice Bolt",
      "Count": -1
    },
    {
      "ItemId": 1152,
      "Price": 100,
      "Name": "Spellbook: Heal",
      "Count": -1
    },
    {
      "ItemId": 1054,
      "Price": 500,
      "Name": "Spellbook: Group Heal",
      "Count": -1
    },
    {
      "ItemId": 1058,
      "Price": 500,
      "Name": "Spellbook: Shield",
      "Count": -1
    },
    {
      "ItemId": 1099,
      "Price": 500,
      "Name": "Spellbook: Wind Shackle",
      "Count": -1
    },
    {
      "ItemId": 1098,
      "Price": 500,
      "Name": "Spellbook: Wind Walk",
      "Count": -1
    },
    {
      "ItemId": 1056,
      "Price": 500,
      "Name": "Spellbook: Curse: Weakness",
      "Count": -1
    },
    {
      "ItemId": 1055,
      "Price": 500,
      "Name": "Spellbook: Curse: Poison",
      "Count": -1
    },
    {
      "ItemId": 1053,
      "Price": 500,
      "Name": "Spellbook: Cure Poison",
      "Count": -1
    },
    {
      "ItemId": 1052,
      "Price": 500,
      "Name": "Spellbook: Flame Strike",
      "Count": -1
    },
    {
      "ItemId": 1097,
      "Price": 550,
      "Name": "Spellbook: Drain Health",
      "Count": -1
    },
    {
      "ItemId": 1096,
      "Price": 550,
      "Name": "Spellbook: Elemental Heal",
      "Count": -1
    },
    {
      "ItemId": 1386,
      "Price": 800,
      "Name": "Spellbook: Disrupt Undead",
      "Count": -1
    },
    {
      "ItemId": 1514,
      "Price": 800,
      "Name": "Spellbook: Resurrection",
      "Count": -1
    },
    {
      "ItemId": 1372,
      "Price": 800,
      "Name": "Spellbook: Blaze",
      "Count": -1
    },
    {
      "ItemId": 1667,
      "Price": 800,
      "Name": "Spellbook: Summon Shadow",
      "Count": -1
    },
    {
      "ItemId": 1671,
      "Price": 800,
      "Name": "Spellbook: Summon Silhouette",
      "Count": -1
    },
    {
      "ItemId": 1669,
      "Price": 800,
      "Name": "Spellbook: Summon Boxer the Unicorn",
      "Count": -1
    },
    {
      "ItemId": 1403,
      "Price": 800,
      "Name": "Spellbook: Summon Kat the Cat",
      "Count": -1
    },
    {
      "ItemId": 1405,
      "Price": 800,
      "Name": "Spellbook: Servitor Heal",
      "Count": -1
    },
    {
      "ItemId": 1370,
      "Price": 800,
      "Name": "Spellbook: Aqua Swirl",
      "Count": -1
    },
    {
      "ItemId": 1401,
      "Price": 800,
      "Name": "Spellbook: Acumen",
      "Count": -1
    },
    {
      "ItemId": 4916,
      "Price": 800,
      "Name": "Spellbook: Energy Bolt",
      "Count": -1
    },
    {
      "ItemId": 1411,
      "Price": 800,
      "Name": "Spellbook: Aura Burn",
      "Count": -1
    },
    {
      "ItemId": 1513,
      "Price": 800,
      "Name": "Spellbook: Charm",
      "Count": -1
    },
    {
      "ItemId": 1399,
      "Price": 800,
      "Name": "Spellbook: Concentration",
      "Count": -1
    },
    {
      "ItemId": 1515,
      "Price": 800,
      "Name": "Spellbook: Kiss of Eva",
      "Count": -1
    },
    {
      "ItemId": 1371,
      "Price": 800,
      "Name": "Spellbook: Twister",
      "Count": -1
    },
    {
      "ItemId": 1383,
      "Price": 800,
      "Name": "Spellbook: Poison",
      "Count": -1
    },
    {
      "ItemId": 1377,
      "Price": 800,
      "Name": "Spellbook: Poison Recovery",
      "Count": -1
    },
    {
      "ItemId": 1512,
      "Price": 1150,
      "Name": "Spellbook: Confusion",
      "Count": -1
    },
    {
      "ItemId": 1379,
      "Price": 1150,
      "Name": "Spellbook: Cure Bleeding",
      "Count": -1
    },
    {
      "ItemId": 1415,
      "Price": 1250,
      "Name": "Spellbook: Dryad Root",
      "Count": -1
    },
    {
      "ItemId": 1388,
      "Price": 1250,
      "Name": "Spellbook: Mental Shield",
      "Count": -1
    },
    {
      "ItemId": 1517,
      "Price": 1250,
      "Name": "Spellbook: Body To Mind",
      "Count": -1
    },
    {
      "ItemId": 4908,
      "Price": 1250,
      "Name": "Spellbook: Shadow Spark",
      "Count": -1
    },
    {
      "ItemId": 1417,
      "Price": 1250,
      "Name": "Spellbook: Surrender To Earth",
      "Count": -1
    },
    {
      "ItemId": 1400,
      "Price": 1250,
      "Name": "Spellbook: Surrender To Fire",
      "Count": -1
    },
    {
      "ItemId": 1418,
      "Price": 1250,
      "Name": "Spellbook: Surrender To Poison",
      "Count": -1
    },
    {
      "ItemId": 1668,
      "Price": 1250,
      "Name": "Spellbook: Summon Mew the Cat",
      "Count": -1
    },
    {
      "ItemId": 1670,
      "Price": 1250,
      "Name": "Spellbook: Summon Mirage the Unicorn",
      "Count": -1
    },
    {
      "ItemId": 1404,
      "Price": 1250,
      "Name": "Spellbook: Servitor Recharge",
      "Count": -1
    },
    {
      "ItemId": 4906,
      "Price": 1250,
      "Name": "Spellbook: Solar Spark",
      "Count": -1
    },
    {
      "ItemId": 1402,
      "Price": 1250,
      "Name": "Spellbook: Agility",
      "Count": -1
    },
    {
      "ItemId": 1391,
      "Price": 1250,
      "Name": "Spellbook: Empower",
      "Count": -1
    },
    {
      "ItemId": 1410,
      "Price": 1250,
      "Name": "Spellbook: Poisonous Cloud",
      "Count": -1
    },
    {
      "ItemId": 1398,
      "Price": 1250,
      "Name": "Spellbook: Focus",
      "Count": -1
    },
    {
      "ItemId": 1389,
      "Price": 1250,
      "Name": "Spellbook: Holy Weapon",
      "Count": -1
    },
    {
      "ItemId": 1378,
      "Price": 1550,
      "Name": "Spellbook: Divine Heal",
      "Count": -1
    },
    {
      "ItemId": 1414,
      "Price": 1800,
      "Name": "Spellbook: Resist Fire",
      "Count": -1
    },
    {
      "ItemId": 1385,
      "Price": 1800,
      "Name": "Spellbook: Recharge",
      "Count": -1
    },
    {
      "ItemId": 4910,
      "Price": 1800,
      "Name": "Spellbook: Vampiric Rage",
      "Count": -1
    },
    {
      "ItemId": 1394,
      "Price": 1800,
      "Name": "Spellbook: Sleep",
      "Count": -1
    },
    {
      "ItemId": 1516,
      "Price": 1800,
      "Name": "Spellbook: Corpse Life Drain",
      "Count": -1
    },
    {
      "ItemId": 3944,
      "Price": 2450,
      "Name": "Spellbook: Decrease Weight",
      "Count": -1
    },
    {
      "ItemId": 1412,
      "Price": 2450,
      "Name": "Spellbook: Resist Aqua",
      "Count": -1
    },
    {
      "ItemId": 1413,
      "Price": 2450,
      "Name": "Spellbook: Resist Wind",
      "Count": -1
    },
    {
      "ItemId": 1387,
      "Price": 2450,
      "Name": "Spellbook: Resist Poison",
      "Count": -1
    },
    {
      "ItemId": 1390,
      "Price": 2450,
      "Name": "Spellbook: Regeneration",
      "Count": -1
    },
    {
      "ItemId": 1408,
      "Price": 2450,
      "Name": "Spellbook: Mighty Servitor",
      "Count": -1
    },
    {
      "ItemId": 1392,
      "Price": 2450,
      "Name": "Spellbook: Berserker Spirit",
      "Count": -1
    },
    {
      "ItemId": 1407,
      "Price": 2450,
      "Name": "Spellbook: Servitor Magic Boost",
      "Count": -1
    },
    {
      "ItemId": 1409,
      "Price": 2450,
      "Name": "Spellbook: Slow",
      "Count": -1
    },
    {
      "ItemId": 1416,
      "Price": 2450,
      "Name": "Spellbook: Curse of Chaos",
      "Count": -1
    },
    {
      "ItemId": 1406,
      "Price": 2450,
      "Name": "Spellbook: Servitor Wind Walk",
      "Count": -1
    },
    {
      "ItemId": 1397,
      "Price": 2450,
      "Name": "Spellbook: Peace",
      "Count": -1
    },
    {
      "ItemId": 1384,
      "Price": 2600,
      "Name": "Spellbook: Sprint",
      "Count": -1
    },
    {
      "ItemId": 1380,
      "Price": 2600,
      "Name": "Spellbook: Entangle",
      "Count": -1
    },
    {
      "ItemId": 1382,
      "Price": 2600,
      "Name": "Spellbook: Power Break",
      "Count": -1
    },
    {
      "ItemId": 1381,
      "Price": 2600,
      "Name": "Spellbook: Freezing Strike",
      "Count": -1
    },
    {
      "ItemId": 1529,
      "Price": 100,
      "Name": "Amulet: Dreaming Spirit",
      "Count": -1
    },
    {
      "ItemId": 1525,
      "Price": 100,
      "Name": "Amulet: Life Drain",
      "Count": -1
    },
    {
      "ItemId": 1527,
      "Price": 100,
      "Name": "Amulet: Venom",
      "Count": -1
    },
    {
      "ItemId": 1524,
      "Price": 100,
      "Name": "Amulet: Soul Shield",
      "Count": -1
    },
    {
      "ItemId": 1531,
      "Price": 100,
      "Name": "Amulet: Chill Flame",
      "Count": -1
    },
    {
      "ItemId": 1522,
      "Price": 500,
      "Name": "Amulet: Chant of Battle",
      "Count": -1
    },
    {
      "ItemId": 1526,
      "Price": 500,
      "Name": "Amulet: Fear",
      "Count": -1
    },
    {
      "ItemId": 1534,
      "Price": 800,
      "Name": "Amulet: Madness",
      "Count": -1
    },
    {
      "ItemId": 1537,
      "Price": 800,
      "Name": "Amulet: Seal of Poison",
      "Count": -1
    },
    {
      "ItemId": 1856,
      "Price": 800,
      "Name": "Amulet: Chant of Life",
      "Count": -1
    },
    {
      "ItemId": 1523,
      "Price": 800,
      "Name": "Amulet: Chant of Shielding",
      "Count": -1
    },
    {
      "ItemId": 1521,
      "Price": 800,
      "Name": "Amulet: Chant of Fire",
      "Count": -1
    },
    {
      "ItemId": 1535,
      "Price": 800,
      "Name": "Amulet: Frost Flame",
      "Count": -1
    },
    {
      "ItemId": 1532,
      "Price": 1250,
      "Name": "Amulet: Blaze Quake",
      "Count": -1
    },
    {
      "ItemId": 1536,
      "Price": 1250,
      "Name": "Amulet: Seal of Binding",
      "Count": -1
    },
    {
      "ItemId": 1533,
      "Price": 1250,
      "Name": "Amulet: Aura Sink",
      "Count": -1
    },
    {
      "ItemId": 1528,
      "Price": 1800,
      "Name": "Amulet: Seal of Chaos",
      "Count": -1
    },
    {
      "ItemId": 1518,
      "Price": 1800,
      "Name": "Amulet: Flame Chant",
      "Count": -1
    },
    {
      "ItemId": 1519,
      "Price": 1800,
      "Name": "Amulet: Pa'agrio's Gift",
      "Count": -1
    },
    {
      "ItemId": 1520,
      "Price": 2450,
      "Name": "Amulet: Pa'agrio's Blessing",
      "Count": -1
    },
    {
      "ItemId": 1530,
      "Price": 2450,
      "Name": "Amulet: Seal of Slow",
      "Count": -1
    },
    {
      "ItemId": 3038,
      "Price": 1550,
      "Name": "Blueprint: Summon Mechanic Golem",
      "Count": -1
    }
  ]
}