{
  "ShopId": 21,
  "Items": [
    {
      "ItemId": 1835,
      "Price": 9,
      "Name": "Soulshot: No Grade",
      "Count": -1
    },
    {
      "ItemId": 2509,
      "Price": 19,
      "Name": "Spiritshot: No Grade",
      "Count": -1
    },
    {
      "ItemId": 3947,
      "Price": 45,
      "Name": "Blessed Spiritshot: No Grade",
      "Count": -1
    },
    {
      "ItemId": 5146,
      "Price": 15015,
      "Name": "Compressed Package of Blessed Spiritshots: No Grade",
      "Count": -1
    },
    {
      "ItemId": 5140,
      "Price": 6435,
      "Name": "Compressed Package of Spiritshots: No Grade",
      "Count": -1
    },
    {
      "ItemId": 5134,
      "Price": 2990,
      "Name": "Compressed Package of Soulshots: No Grade",
      "Count": -1
    },
    {
      "ItemId": 5262,
      "Price": 50050,
      "Name": "Greater Compressed Package of Blessed Spiritshots: No-grade",
      "Count": -1
    },
    {
      "ItemId": 5256,
      "Price": 21450,
      "Name": "Greater Compressed Package of Spiritshots: No-grade",
      "Count": -1
    },
    {
      "ItemId": 5250,
      "Price": 10010,
      "Name": "Greater Compressed Package of Soulshots: No-grade",
      "Count": -1
    },
    {
      "ItemId": 17,
      "Price": 2,
      "Name": "Wooden Arrow",
      "Count": -1
    },
    {
      "ItemId": 1341,
      "Price": 3,
      "Name": "Bone Arrow",
      "Count": -1
    },
    {
      "ItemId": 1342,
      "Price": 6,
      "Name": "Fine Steel Arrow",
      "Count": -1
    },
    {
      "ItemId": 1060,
      "Price": 117,
      "Name": "Lesser Healing Potion",
      "Count": -1
    },
    {
      "ItemId": 1061,
      "Price": 429,
      "Name": "Healing Potion",
      "Count": -1
    },
    {
      "ItemId": 1831,
      "Price": 97,
      "Name": "Antidote",
      "Count": -1
    },
    {
      "ItemId": 1832,
      "Price": 234,
      "Name": "Greater Antidote",
      "Count": -1
    },
    {
      "ItemId": 1833,
      "Price": 97,
      "Name": "Bandage",
      "Count": -1
    },
    {
      "ItemId": 1834,
      "Price": 234,
      "Name": "Emergency Dressing",
      "Count": -1
    },
    {
      "ItemId": 734,
      "Price": 1560,
      "Name": "Haste Potion",
      "Count": -1
    },
    {
      "ItemId": 735,
      "Price": 3120,
      "Name": "Potion of Alacrity",
      "Count": -1
    },
    {
      "ItemId": 6035,
      "Price": 3120,
      "Name": "Magic Haste Potion",
      "Count": -1
    },
    {
      "ItemId": 6037,
      "Price": 130,
      "Name": "Waking Scroll",
      "Count": -1
    },
    {
      "ItemId": 736,
      "Price": 520,
      "Name": "Scroll of Escape",
      "Count": -1
    },
    {
      "ItemId": 737,
      "Price": 2600,
      "Name": "Scroll of Resurrection",
      "Count": -1
    },
    {
      "ItemId": 1829,
      "Price": 650,
      "Name": "Scroll of Escape: Clan Hall",
      "Count": -1
    },
    {
      "ItemId": 1830,
      "Price": 650,
      "Name": "Scroll of Escape: Castle",
      "Count": -1
    },
    {
      "ItemId": 5589,
      "Price": 130,
      "Name": "Energy Stone",
      "Count": -1
    },
    {
      "ItemId": 1661,
      "Price": 1300,
      "Name": "Thief Key",
      "Count": -1
    },
    {
      "ItemId": 8515,
      "Price": 2600,
      "Name": "Charm of Courage: No Grade",
      "Count": -1
    },
    {
      "ItemId": 8516,
      "Price": 8580,
      "Name": "Charm of Courage: D-Grade",
      "Count": -1
    },
    {
      "ItemId": 8517,
      "Price": 17160,
      "Name": "Charm of Courage: C-Grade",
      "Count": -1
    },
    {
      "ItemId": 8518,
      "Price": 33800,
      "Name": "Charm of Courage: B-Grade",
      "Count": -1
    },
    {
      "ItemId": 8519,
      "Price": 70200,
      "Name": "Charm of Courage: A-Grade",
      "Count": -1
    },
    {
      "ItemId": 8520,
      "Price": 130000,
      "Name": "Charm of Courage: S-Grade",
      "Count": -1
    },
    {
      "ItemId": 8873,
      "Price": 26000,
      "Name": "Phoenix Blood",
      "Count": -1
    },
    {
      "ItemId": 8874,
      "Price": 26000,
      "Name": "Einhasad's Holy Water",
      "Count": -1
    },
    {
      "ItemId": 8875,
      "Price": 26000,
      "Name": "Battle Symbol",
      "Count": -1
    },
    {
      "ItemId": 8876,
      "Price": 26000,
      "Name": "Magic Symbol",
      "Count": -1
    },
    {
      "ItemId": 4625,
      "Price": 650,
      "Name": "Dice (Heart)",
      "Count": -1
    },
    {
      "ItemId": 4626,
      "Price": 650,
      "Name": "Dice (Spade)",
      "Count": -1
    },
    {
      "ItemId": 4627,
      "Price": 650,
      "Name": "Dice (Clover)",
      "Count": -1
    },
    {
      "ItemId": 4628,
      "Price": 650,
      "Name": "Dice (Diamond)",
      "Count": -1
    }
  ]
}