{
  "ShopId": 22,
  "Items": [
    {
      "ItemId": 1835,
      "Price": 11,
      "Name": "Soulshot: No Grade",
      "Count": -1
    },
    {
      "ItemId": 2509,
      "Price": 24,
      "Name": "Spiritshot: No Grade",
      "Count": -1
    },
    {
      "ItemId": 3947,
      "Price": 56,
      "Name": "Blessed Spiritshot: No Grade",
      "Count": -1
    },
    {
      "ItemId": 5146,
      "Price": 18480,
      "Name": "Compressed Package of Blessed Spiritshots: No Grade",
      "Count": -1
    },
    {
      "ItemId": 5140,
      "Price": 7920,
      "Name": "Compressed Package of Spiritshots: No Grade",
      "Count": -1
    },
    {
      "ItemId": 5134,
      "Price": 3680,
      "Name": "Compressed Package of Soulshots: No Grade",
      "Count": -1
    },
    {
      "ItemId": 5262,
      "Price": 61600,
      "Name": "Greater Compressed Package of Blessed Spiritshots: No-grade",
      "Count": -1
    },
    {
      "ItemId": 5256,
      "Price": 26400,
      "Name": "Greater Compressed Package of Spiritshots: No-grade",
      "Count": -1
    },
    {
      "ItemId": 5250,
      "Price": 12320,
      "Name": "Greater Compressed Package of Soulshots: No-grade",
      "Count": -1
    },
    {
      "ItemId": 17,
      "Price": 3,
      "Name": "Wooden Arrow",
      "Count": -1
    },
    {
      "ItemId": 1341,
      "Price": 4,
      "Name": "Bone Arrow",
      "Count": -1
    },
    {
      "ItemId": 1342,
      "Price": 8,
      "Name": "Fine Steel Arrow",
      "Count": -1
    },
    {
      "ItemId": 1060,
      "Price": 144,
      "Name": "Lesser Healing Potion",
      "Count": -1
    },
    {
      "ItemId": 1061,
      "Price": 528,
      "Name": "Healing Potion",
      "Count": -1
    },
    {
      "ItemId": 1831,
      "Price": 120,
      "Name": "Antidote",
      "Count": -1
    },
    {
      "ItemId": 1832,
      "Price": 288,
      "Name": "Greater Antidote",
      "Count": -1
    },
    {
      "ItemId": 1833,
      "Price": 120,
      "Name": "Bandage",
      "Count": -1
    },
    {
      "ItemId": 1834,
      "Price": 288,
      "Name": "Emergency Dressing",
      "Count": -1
    },
    {
      "ItemId": 734,
      "Price": 1920,
      "Name": "Haste Potion",
      "Count": -1
    },
    {
      "ItemId": 735,
      "Price": 3840,
      "Name": "Potion of Alacrity",
      "Count": -1
    },
    {
      "ItemId": 6035,
      "Price": 3840,
      "Name": "Magic Haste Potion",
      "Count": -1
    },
    {
      "ItemId": 6037,
      "Price": 160,
      "Name": "Waking Scroll",
      "Count": -1
    },
    {
      "ItemId": 736,
      "Price": 640,
      "Name": "Scroll of Escape",
      "Count": -1
    },
    {
      "ItemId": 737,
      "Price": 3200,
      "Name": "Scroll of Resurrection",
      "Count": -1
    },
    {
      "ItemId": 1829,
      "Price": 800,
      "Name": "Scroll of Escape: Clan Hall",
      "Count": -1
    },
    {
      "ItemId": 3031,
      "Price": 640,
      "Name": "Spirit Ore",
      "Count": -1
    },
    {
      "ItemId": 1785,
      "Price": 400,
      "Name": "Soul Ore",
      "Count": -1
    },
    {
      "ItemId": 5589,
      "Price": 160,
      "Name": "Energy Stone",
      "Count": -1
    },
    {
      "ItemId": 1661,
      "Price": 1600,
      "Name": "Thief Key",
      "Count": -1
    },
    {
      "ItemId": 5192,
      "Price": 160,
      "Name": "Rope of Magic: D-Grade",
      "Count": -1
    },
    {
      "ItemId": 5193,
      "Price": 240,
      "Name": "Rope of Magic: C-Grade",
      "Count": -1
    },
    {
      "ItemId": 5194,
      "Price": 400,
      "Name": "Rope of Magic: B-Grade",
      "Count": -1
    },
    {
      "ItemId": 2130,
      "Price": 1600,
      "Name": "Gemstone D",
      "Count": -1
    },
    {
      "ItemId": 8594,
      "Price": 3200,
      "Name": "Scroll: Recovery (No Grade)",
      "Count": -1
    },
    {
      "ItemId": 8595,
      "Price": 7680,
      "Name": "Scroll: Recovery (Grade D)",
      "Count": -1
    },
    {
      "ItemId": 8596,
      "Price": 22400,
      "Name": "Scroll: Recovery (Grade C)",
      "Count": -1
    },
    {
      "ItemId": 8597,
      "Price": 44800,
      "Name": "Scroll: Recovery (Grade B)",
      "Count": -1
    },
    {
      "ItemId": 8622,
      "Price": 2080,
      "Name": "Elixir of Life (No Grade)",
      "Count": -1
    },
    {
      "ItemId": 8623,
      "Price": 5520,
      "Name": "Elixir of Life (D-Grade)",
      "Count": -1
    },
    {
      "ItemId": 8624,
      "Price": 11520,
      "Name": "Elixir of Life (C-Grade)",
      "Count": -1
    },
    {
      "ItemId": 8629,
      "Price": 5440,
      "Name": "Elixir of Mental Strength (D-Grade)",
      "Count": -1
    },
    {
      "ItemId": 8634,
      "Price": 960,
      "Name": "Elixir of CP (No Grade)",
      "Count": -1
    },
    {
      "ItemId": 8635,
      "Price": 2240,
      "Name": "Elixir of CP (D-Grade)",
      "Count": -1
    },
    {
      "ItemId": 8636,
      "Price": 4800,
      "Name": "Elixir of CP (C-Grade)",
      "Count": -1
    },
    {
      "ItemId": 8637,
      "Price": 6400,
      "Name": "Elixir of CP (B-Grade)",
      "Count": -1
    },
    {
      "ItemId": 8615,
      "Price": 56000,
      "Name": "Summoning Crystal",
      "Count": -1
    },
    {
      "ItemId": 4625,
      "Price": 800,
      "Name": "Dice (Heart)",
      "Count": -1
    },
    {
      "ItemId": 4626,
      "Price": 800,
      "Name": "Dice (Spade)",
      "Count": -1
    },
    {
      "ItemId": 4627,
      "Price": 800,
      "Name": "Dice (Clover)",
      "Count": -1
    },
    {
      "ItemId": 4628,
      "Price": 800,
      "Name": "Dice (Diamond)",
      "Count": -1
    }
  ]
}