{
  "ShopId": 235390,
  "Items": [
    {
      "ItemId": 6902,
      "Price": 12900,
      "Name": "Pledge Shield",
      "Count": -1
    },
    {
      "ItemId": 1829,
      "Price": 500,
      "Name": "Scroll of Escape: Clan Hall",
      "Count": 5
    },
    {
      "ItemId": 5858,
      "Price": 100000,
      "Name": "Blessed Scroll of Escape: Clan Hall",
      "Count": 1
    },
    {
      "ItemId": 5169,
      "Price": 300,
      "Name": "Deluxe Food for Strider",
      "Count": 10
    },
    {
      "ItemId": 7126,
      "Price": 35000,
      "Name": "Scroll of Escape to Giran Castle Town",
      "Count": 1
    },
    {
      "ItemId": 7127,
      "Price": 35000,
      "Name": "Scroll of Escape to Hardin's Private Academy",
      "Count": 1
    }
  ]
}