{
  "ShopId": 235421,
  "Items": [
    {
      "ItemId": 6902,
      "Price": 12900,
      "Name": "Pledge Shield",
      "Count": -1
    },
    {
      "ItemId": 6316,
      "Price": 300,
      "Name": "Food for Wyvern",
      "Count": -1
    },
    {
      "ItemId": 1829,
      "Price": 500,
      "Name": "Scroll of Escape: Clan Hall",
      "Count": 5
    },
    {
      "ItemId": 5858,
      "Price": 100000,
      "Name": "Blessed Scroll of Escape: Clan Hall",
      "Count": 3
    },
    {
      "ItemId": 5169,
      "Price": 300,
      "Name": "Deluxe Food for Strider",
      "Count": 10
    },
    {
      "ItemId": 956,
      "Price": 6000,
      "Name": "Scroll: Enchant Armor (Grade D)",
      "Count": 1
    },
    {
      "ItemId": 952,
      "Price": 15000,
      "Name": "Scroll: Enchant Armor (Grade C)",
      "Count": 1
    },
    {
      "ItemId": 948,
      "Price": 80000,
      "Name": "Scroll: Enchant Armor (Grade B)",
      "Count": 1
    },
    {
      "ItemId": 7124,
      "Price": 35000,
      "Name": "Scroll of Escape to the Town of Dion",
      "Count": 1
    },
    {
      "ItemId": 7125,
      "Price": 35000,
      "Name": "Scroll of Escape to Floran",
      "Count": 1
    }
  ]
}