{
  "ShopId": 235586,
  "Items": [
    {
      "ItemId": 6902,
      "Price": 12900,
      "Name": "Pledge Shield",
      "Count": -1
    },
    {
      "ItemId": 1829,
      "Price": 500,
      "Name": "Scroll of Escape: Clan Hall",
      "Count": 5
    },
    {
      "ItemId": 5858,
      "Price": 100000,
      "Name": "Blessed Scroll of Escape: Clan Hall",
      "Count": 3
    },
    {
      "ItemId": 5169,
      "Price": 300,
      "Name": "Deluxe Food for Strider",
      "Count": 10
    },
    {
      "ItemId": 7129,
      "Price": 35000,
      "Name": "Scroll of Escape to the Town of Oren",
      "Count": 1
    },
    {
      "ItemId": 7130,
      "Price": 35000,
      "Name": "Scroll of Escape to Ivory Tower",
      "Count": 1
    }
  ]
}