{
  "ShopId": 275003,
  "Items": [
    {
      "ItemId": 6902,
      "Price": 12900,
      "Name": "Pledge Shield",
      "Count": -1
    },
    {
      "ItemId": 1829,
      "Price": 500,
      "Name": "Scroll of Escape: Clan Hall",
      "Count": 5
    },
    {
      "ItemId": 5858,
      "Price": 100000,
      "Name": "Blessed Scroll of Escape: Clan Hall",
      "Count": 1
    },
    {
      "ItemId": 5169,
      "Price": 300,
      "Name": "Deluxe Food for Strider",
      "Count": 10
    },
    {
      "ItemId": 6643,
      "Price": 25,
      "Name": "Golden Spice",
      "Count": -1
    },
    {
      "ItemId": 6644,
      "Price": 25,
      "Name": "Crystal Spice",
      "Count": -1
    },
    {
      "ItemId": 7133,
      "Price": 35000,
      "Name": "Scroll of Escape to the Town of Goddard",
      "Count": 1
    },
    {
      "ItemId": 7135,
      "Price": 35000,
      "Name": "Scroll of Escape to the Town of Schuttgart.",
      "Count": 1
    }
  ]
}