{
  "ShopId": 30,
  "Items": [
    {
      "ItemId": 176,
      "Price": 136000,
      "Name": "Journeyman's Staff",
      "Count": -1
    },
    {
      "ItemId": 310,
      "Price": 136000,
      "Name": "Relic of The Saints",
      "Count": -1
    },
    {
      "ItemId": 177,
      "Price": 244000,
      "Name": "Mage Staff",
      "Count": -1
    },
    {
      "ItemId": 311,
      "Price": 244000,
      "Name": "Crucifix of Blessing",
      "Count": -1
    },
    {
      "ItemId": 100,
      "Price": 244000,
      "Name": "Voodoo Doll",
      "Count": -1
    },
    {
      "ItemId": 178,
      "Price": 409000,
      "Name": "Bone Staff",
      "Count": -1
    },
    {
      "ItemId": 101,
      "Price": 409000,
      "Name": "Scroll of Wisdom",
      "Count": -1
    },
    {
      "ItemId": 312,
      "Price": 409000,
      "Name": "Branch of Life",
      "Count": -1
    },
    {
      "ItemId": 314,
      "Price": 409000,
      "Name": "Proof of Revenge",
      "Count": -1
    },
    {
      "ItemId": 179,
      "Price": 644000,
      "Name": "Mace of Prayer",
      "Count": -1
    },
    {
      "ItemId": 182,
      "Price": 644000,
      "Name": "Doom Hammer",
      "Count": -1
    },
    {
      "ItemId": 183,
      "Price": 644000,
      "Name": "Mystic Staff",
      "Count": -1
    },
    {
      "ItemId": 185,
      "Price": 644000,
      "Name": "Staff of Mana",
      "Count": -1
    },
    {
      "ItemId": 315,
      "Price": 644000,
      "Name": "Divine Tome",
      "Count": -1
    },
    {
      "ItemId": 83,
      "Price": 716000,
      "Name": "Sword of Magic",
      "Count": -1
    },
    {
      "ItemId": 143,
      "Price": 716000,
      "Name": "Sword of Mystic",
      "Count": -1
    },
    {
      "ItemId": 144,
      "Price": 716000,
      "Name": "Sword of Occult",
      "Count": -1
    },
    {
      "ItemId": 238,
      "Price": 967000,
      "Name": "Dagger of Mana",
      "Count": -1
    },
    {
      "ItemId": 239,
      "Price": 967000,
      "Name": "Mystic Knife",
      "Count": -1
    },
    {
      "ItemId": 240,
      "Price": 967000,
      "Name": "Conjurer's Knife",
      "Count": -1
    },
    {
      "ItemId": 241,
      "Price": 967000,
      "Name": "Shilen Knife",
      "Count": -1
    },
    {
      "ItemId": 186,
      "Price": 967000,
      "Name": "Staff of Magic",
      "Count": -1
    },
    {
      "ItemId": 316,
      "Price": 967000,
      "Name": "Blood of Saints",
      "Count": -1
    },
    {
      "ItemId": 317,
      "Price": 967000,
      "Name": "Tome of Blood",
      "Count": -1
    },
    {
      "ItemId": 90,
      "Price": 1400000,
      "Name": "Goat Head Staff",
      "Count": -1
    },
    {
      "ItemId": 318,
      "Price": 1400000,
      "Name": "Crucifix of Blood",
      "Count": -1
    },
    {
      "ItemId": 321,
      "Price": 1520000,
      "Name": "Demon Fangs",
      "Count": -1
    },
    {
      "ItemId": 1104,
      "Price": 12700,
      "Name": "Stockings of Devotion",
      "Count": -1
    },
    {
      "ItemId": 1101,
      "Price": 20300,
      "Name": "Tunic of Devotion",
      "Count": -1
    },
    {
      "ItemId": 1105,
      "Price": 23000,
      "Name": "Stockings of Magic",
      "Count": -1
    },
    {
      "ItemId": 1102,
      "Price": 36900,
      "Name": "Tunic of Magic",
      "Count": -1
    },
    {
      "ItemId": 465,
      "Price": 39100,
      "Name": "Cursed Stockings",
      "Count": -1
    },
    {
      "ItemId": 432,
      "Price": 62600,
      "Name": "Cursed Tunic",
      "Count": -1
    },
    {
      "ItemId": 467,
      "Price": 62500,
      "Name": "Dark Stockings",
      "Count": -1
    },
    {
      "ItemId": 434,
      "Price": 99900,
      "Name": "White Tunic",
      "Count": -1
    },
    {
      "ItemId": 468,
      "Price": 62500,
      "Name": "Mystic's Stockings",
      "Count": -1
    },
    {
      "ItemId": 435,
      "Price": 99900,
      "Name": "Mystic's Tunic",
      "Count": -1
    },
    {
      "ItemId": 469,
      "Price": 95200,
      "Name": "Stockings of Knowledge",
      "Count": -1
    },
    {
      "ItemId": 436,
      "Price": 152000,
      "Name": "Tunic of Knowledge",
      "Count": -1
    },
    {
      "ItemId": 470,
      "Price": 140000,
      "Name": "Mithril Stockings",
      "Count": -1
    },
    {
      "ItemId": 437,
      "Price": 224000,
      "Name": "Mithril Tunic",
      "Count": -1
    },
    {
      "ItemId": 102,
      "Price": 7110,
      "Name": "Round Shield",
      "Count": -1
    },
    {
      "ItemId": 625,
      "Price": 12900,
      "Name": "Bone Shield",
      "Count": -1
    },
    {
      "ItemId": 626,
      "Price": 21900,
      "Name": "Bronze Shield",
      "Count": -1
    },
    {
      "ItemId": 627,
      "Price": 35000,
      "Name": "Aspis",
      "Count": -1
    },
    {
      "ItemId": 628,
      "Price": 53300,
      "Name": "Hoplon",
      "Count": -1
    },
    {
      "ItemId": 629,
      "Price": 78400,
      "Name": "Kite Shield",
      "Count": -1
    },
    {
      "ItemId": 50,
      "Price": 6770,
      "Name": "Leather Gloves",
      "Count": -1
    },
    {
      "ItemId": 51,
      "Price": 12300,
      "Name": "Bracer",
      "Count": -1
    },
    {
      "ItemId": 604,
      "Price": 20900,
      "Name": "Crafted Leather Gloves",
      "Count": -1
    },
    {
      "ItemId": 605,
      "Price": 33300,
      "Name": "Leather Gauntlets",
      "Count": -1
    },
    {
      "ItemId": 63,
      "Price": 50800,
      "Name": "Gauntlets",
      "Count": -1
    },
    {
      "ItemId": 606,
      "Price": 74700,
      "Name": "Rip Gauntlets",
      "Count": -1
    },
    {
      "ItemId": 38,
      "Price": 6770,
      "Name": "Low Boots",
      "Count": -1
    },
    {
      "ItemId": 39,
      "Price": 12300,
      "Name": "Boots",
      "Count": -1
    },
    {
      "ItemId": 40,
      "Price": 20900,
      "Name": "Leather Boots",
      "Count": -1
    },
    {
      "ItemId": 1123,
      "Price": 33300,
      "Name": "Blue Buckskin Boots",
      "Count": -1
    },
    {
      "ItemId": 553,
      "Price": 50800,
      "Name": "Iron Boots",
      "Count": -1
    },
    {
      "ItemId": 1124,
      "Price": 74700,
      "Name": "Boots of Power",
      "Count": -1
    },
    {
      "ItemId": 44,
      "Price": 10200,
      "Name": "Leather Helmet",
      "Count": -1
    },
    {
      "ItemId": 1148,
      "Price": 18400,
      "Name": "Hard Leather Helmet",
      "Count": -1
    },
    {
      "ItemId": 45,
      "Price": 31300,
      "Name": "Bone Helmet",
      "Count": -1
    },
    {
      "ItemId": 46,
      "Price": 50000,
      "Name": "Bronze Helmet",
      "Count": -1
    },
    {
      "ItemId": 47,
      "Price": 76200,
      "Name": "Helmet",
      "Count": -1
    },
    {
      "ItemId": 17,
      "Price": 2,
      "Name": "Wooden Arrow",
      "Count": -1
    },
    {
      "ItemId": 1341,
      "Price": 3,
      "Name": "Bone Arrow",
      "Count": -1
    },
    {
      "ItemId": 1342,
      "Price": 5,
      "Name": "Fine Steel Arrow",
      "Count": -1
    }
  ]
}