{
  "ShopId": 30044,
  "Items": [
    {
      "ItemId": 2291,
      "Price": 0,
      "Name": null,
      "Count": -1
    },
    {
      "ItemId": 2292,
      "Price": 0,
      "Name": null,
      "Count": -1
    },
    {
      "ItemId": 2293,
      "Price": 0,
      "Name": null,
      "Count": -1
    },
    {
      "ItemId": 2294,
      "Price": 0,
      "Name": null,
      "Count": -1
    },
    {
      "ItemId": 2295,
      "Price": 0,
      "Name": null,
      "Count": -1
    },
    {
      "ItemId": 2296,
      "Price": 0,
      "Name": null,
      "Count": -1
    },
    {
      "ItemId": 2297,
      "Price": 0,
      "Name": null,
      "Count": -1
    },
    {
      "ItemId": 2298,
      "Price": 0,
      "Name": null,
      "Count": -1
    },
    {
      "ItemId": 2299,
      "Price": 0,
      "Name": null,
      "Count": -1
    },
    {
      "ItemId": 2300,
      "Price": 0,
      "Name": null,
      "Count": -1
    },
    {
      "ItemId": 2301,
      "Price": 0,
      "Name": null,
      "Count": -1
    },
    {
      "ItemId": 2302,
      "Price": 0,
      "Name": null,
      "Count": -1
    },
    {
      "ItemId": 2303,
      "Price": 0,
      "Name": null,
      "Count": -1
    },
    {
      "ItemId": 2304,
      "Price": 0,
      "Name": null,
      "Count": -1
    },
    {
      "ItemId": 2305,
      "Price": 0,
      "Name": null,
      "Count": -1
    },
    {
      "ItemId": 2306,
      "Price": 0,
      "Name": null,
      "Count": -1
    },
    {
      "ItemId": 2307,
      "Price": 0,
      "Name": null,
      "Count": -1
    },
    {
      "ItemId": 2308,
      "Price": 0,
      "Name": null,
      "Count": -1
    },
    {
      "ItemId": 2309,
      "Price": 0,
      "Name": null,
      "Count": -1
    },
    {
      "ItemId": 2310,
      "Price": 0,
      "Name": null,
      "Count": -1
    },
    {
      "ItemId": 2311,
      "Price": 0,
      "Name": null,
      "Count": -1
    },
    {
      "ItemId": 2312,
      "Price": 0,
      "Name": null,
      "Count": -1
    },
    {
      "ItemId": 2313,
      "Price": 0,
      "Name": null,
      "Count": -1
    },
    {
      "ItemId": 2314,
      "Price": 0,
      "Name": null,
      "Count": -1
    },
    {
      "ItemId": 2315,
      "Price": 0,
      "Name": null,
      "Count": -1
    },
    {
      "ItemId": 2316,
      "Price": 0,
      "Name": null,
      "Count": -1
    },
    {
      "ItemId": 2317,
      "Price": 0,
      "Name": null,
      "Count": -1
    },
    {
      "ItemId": 2318,
      "Price": 0,
      "Name": null,
      "Count": -1
    },
    {
      "ItemId": 2319,
      "Price": 0,
      "Name": null,
      "Count": -1
    },
    {
      "ItemId": 2320,
      "Price": 0,
      "Name": null,
      "Count": -1
    },
    {
      "ItemId": 2321,
      "Price": 0,
      "Name": null,
      "Count": -1
    },
    {
      "ItemId": 2322,
      "Price": 0,
      "Name": null,
      "Count": -1
    },
    {
      "ItemId": 2323,
      "Price": 0,
      "Name": null,
      "Count": -1
    },
    {
      "ItemId": 2324,
      "Price": 0,
      "Name": null,
      "Count": -1
    },
    {
      "ItemId": 2325,
      "Price": 0,
      "Name": null,
      "Count": -1
    },
    {
      "ItemId": 2326,
      "Price": 0,
      "Name": null,
      "Count": -1
    },
    {
      "ItemId": 2327,
      "Price": 0,
      "Name": null,
      "Count": -1
    },
    {
      "ItemId": 2328,
      "Price": 0,
      "Name": null,
      "Count": -1
    },
    {
      "ItemId": 2329,
      "Price": 0,
      "Name": null,
      "Count": -1
    },
    {
      "ItemId": 2330,
      "Price": 0,
      "Name": null,
      "Count": -1
    },
    {
      "ItemId": 2331,
      "Price": 0,
      "Name": null,
      "Count": -1
    },
    {
      "ItemId": 2332,
      "Price": 0,
      "Name": null,
      "Count": -1
    },
    {
      "ItemId": 2333,
      "Price": 0,
      "Name": null,
      "Count": -1
    },
    {
      "ItemId": 2334,
      "Price": 0,
      "Name": null,
      "Count": -1
    },
    {
      "ItemId": 2335,
      "Price": 0,
      "Name": null,
      "Count": -1
    },
    {
      "ItemId": 2336,
      "Price": 0,
      "Name": null,
      "Count": -1
    },
    {
      "ItemId": 2337,
      "Price": 0,
      "Name": null,
      "Count": -1
    },
    {
      "ItemId": 2338,
      "Price": 0,
      "Name": null,
      "Count": -1
    },
    {
      "ItemId": 2339,
      "Price": 0,
      "Name": null,
      "Count": -1
    },
    {
      "ItemId": 2340,
      "Price": 0,
      "Name": null,
      "Count": -1
    }
  ]
}