{
  "ShopId": 30046,
  "Items": [
    {
      "ItemId": 2993,
      "Price": 0,
      "Name": null,
      "Count": -1
    },
    {
      "ItemId": 2994,
      "Price": 0,
      "Name": null,
      "Count": -1
    },
    {
      "ItemId": 2995,
      "Price": 0,
      "Name": null,
      "Count": -1
    },
    {
      "ItemId": 2996,
      "Price": 0,
      "Name": null,
      "Count": -1
    },
    {
      "ItemId": 2997,
      "Price": 0,
      "Name": null,
      "Count": -1
    },
    {
      "ItemId": 2998,
      "Price": 0,
      "Name": null,
      "Count": -1
    },
    {
      "ItemId": 2999,
      "Price": 0,
      "Name": null,
      "Count": -1
    },
    {
      "ItemId": 3000,
      "Price": 0,
      "Name": null,
      "Count": -1
    },
    {
      "ItemId": 3001,
      "Price": 0,
      "Name": null,
      "Count": -1
    },
    {
      "ItemId": 3002,
      "Price": 0,
      "Name": null,
      "Count": -1
    },
    {
      "ItemId": 3003,
      "Price": 0,
      "Name": null,
      "Count": -1
    },
    {
      "ItemId": 3004,
      "Price": 0,
      "Name": null,
      "Count": -1
    },
    {
      "ItemId": 3005,
      "Price": 0,
      "Name": null,
      "Count": -1
    },
    {
      "ItemId": 3006,
      "Price": 0,
      "Name": null,
      "Count": -1
    },
    {
      "ItemId": 3007,
      "Price": 0,
      "Name": null,
      "Count": -1
    },
    {
      "ItemId": 3008,
      "Price": 0,
      "Name": null,
      "Count": -1
    },
    {
      "ItemId": 3009,
      "Price": 0,
      "Name": null,
      "Count": -1
    },
    {
      "ItemId": 3010,
      "Price": 0,
      "Name": null,
      "Count": -1
    },
    {
      "ItemId": 3011,
      "Price": 0,
      "Name": null,
      "Count": -1
    },
    {
      "ItemId": 3012,
      "Price": 0,
      "Name": null,
      "Count": -1
    },
    {
      "ItemId": 3013,
      "Price": 0,
      "Name": null,
      "Count": -1
    },
    {
      "ItemId": 3014,
      "Price": 0,
      "Name": null,
      "Count": -1
    },
    {
      "ItemId": 3015,
      "Price": 0,
      "Name": null,
      "Count": -1
    },
    {
      "ItemId": 3016,
      "Price": 0,
      "Name": null,
      "Count": -1
    },
    {
      "ItemId": 3017,
      "Price": 0,
      "Name": null,
      "Count": -1
    },
    {
      "ItemId": 3018,
      "Price": 0,
      "Name": null,
      "Count": -1
    },
    {
      "ItemId": 3019,
      "Price": 0,
      "Name": null,
      "Count": -1
    },
    {
      "ItemId": 3020,
      "Price": 0,
      "Name": null,
      "Count": -1
    },
    {
      "ItemId": 3021,
      "Price": 0,
      "Name": null,
      "Count": -1
    },
    {
      "ItemId": 3022,
      "Price": 0,
      "Name": null,
      "Count": -1
    },
    {
      "ItemId": 3023,
      "Price": 0,
      "Name": null,
      "Count": -1
    },
    {
      "ItemId": 3024,
      "Price": 0,
      "Name": null,
      "Count": -1
    },
    {
      "ItemId": 3025,
      "Price": 0,
      "Name": null,
      "Count": -1
    },
    {
      "ItemId": 3032,
      "Price": 0,
      "Name": null,
      "Count": -1
    },
    {
      "ItemId": 3033,
      "Price": 0,
      "Name": null,
      "Count": -1
    },
    {
      "ItemId": 3034,
      "Price": 0,
      "Name": null,
      "Count": -1
    },
    {
      "ItemId": 3035,
      "Price": 0,
      "Name": null,
      "Count": -1
    },
    {
      "ItemId": 3036,
      "Price": 0,
      "Name": null,
      "Count": -1
    },
    {
      "ItemId": 3838,
      "Price": 0,
      "Name": null,
      "Count": -1
    },
    {
      "ItemId": 3953,
      "Price": 0,
      "Name": null,
      "Count": -1
    },
    {
      "ItemId": 3954,
      "Price": 0,
      "Name": null,
      "Count": -1
    },
    {
      "ItemId": 3955,
      "Price": 0,
      "Name": null,
      "Count": -1
    },
    {
      "ItemId": 3956,
      "Price": 0,
      "Name": null,
      "Count": -1
    },
    {
      "ItemId": 3957,
      "Price": 0,
      "Name": null,
      "Count": -1
    },
    {
      "ItemId": 4122,
      "Price": 0,
      "Name": null,
      "Count": -1
    },
    {
      "ItemId": 4123,
      "Price": 0,
      "Name": null,
      "Count": -1
    },
    {
      "ItemId": 4124,
      "Price": 0,
      "Name": null,
      "Count": -1
    },
    {
      "ItemId": 4125,
      "Price": 0,
      "Name": null,
      "Count": -1
    },
    {
      "ItemId": 4126,
      "Price": 0,
      "Name": null,
      "Count": -1
    },
    {
      "ItemId": 4127,
      "Price": 0,
      "Name": null,
      "Count": -1
    }
  ]
}