{
  "ShopId": 30047,
  "Items": [
    {
      "ItemId": 4128,
      "Price": 0,
      "Name": null,
      "Count": -1
    },
    {
      "ItemId": 4129,
      "Price": 0,
      "Name": null,
      "Count": -1
    },
    {
      "ItemId": 4130,
      "Price": 0,
      "Name": null,
      "Count": -1
    },
    {
      "ItemId": 4131,
      "Price": 0,
      "Name": null,
      "Count": -1
    },
    {
      "ItemId": 4132,
      "Price": 0,
      "Name": null,
      "Count": -1
    },
    {
      "ItemId": 4133,
      "Price": 0,
      "Name": null,
      "Count": -1
    },
    {
      "ItemId": 4134,
      "Price": 0,
      "Name": null,
      "Count": -1
    },
    {
      "ItemId": 4135,
      "Price": 0,
      "Name": null,
      "Count": -1
    },
    {
      "ItemId": 4136,
      "Price": 0,
      "Name": null,
      "Count": -1
    },
    {
      "ItemId": 4137,
      "Price": 0,
      "Name": null,
      "Count": -1
    },
    {
      "ItemId": 4138,
      "Price": 0,
      "Name": null,
      "Count": -1
    },
    {
      "ItemId": 4139,
      "Price": 0,
      "Name": null,
      "Count": -1
    },
    {
      "ItemId": 4140,
      "Price": 0,
      "Name": null,
      "Count": -1
    },
    {
      "ItemId": 4141,
      "Price": 0,
      "Name": null,
      "Count": -1
    },
    {
      "ItemId": 4142,
      "Price": 0,
      "Name": null,
      "Count": -1
    },
    {
      "ItemId": 4143,
      "Price": 0,
      "Name": null,
      "Count": -1
    },
    {
      "ItemId": 4144,
      "Price": 0,
      "Name": null,
      "Count": -1
    },
    {
      "ItemId": 4145,
      "Price": 0,
      "Name": null,
      "Count": -1
    },
    {
      "ItemId": 4146,
      "Price": 0,
      "Name": null,
      "Count": -1
    },
    {
      "ItemId": 4147,
      "Price": 0,
      "Name": null,
      "Count": -1
    },
    {
      "ItemId": 4148,
      "Price": 0,
      "Name": null,
      "Count": -1
    },
    {
      "ItemId": 4149,
      "Price": 0,
      "Name": null,
      "Count": -1
    },
    {
      "ItemId": 4150,
      "Price": 0,
      "Name": null,
      "Count": -1
    },
    {
      "ItemId": 4151,
      "Price": 0,
      "Name": null,
      "Count": -1
    },
    {
      "ItemId": 4152,
      "Price": 0,
      "Name": null,
      "Count": -1
    },
    {
      "ItemId": 4153,
      "Price": 0,
      "Name": null,
      "Count": -1
    },
    {
      "ItemId": 4154,
      "Price": 0,
      "Name": null,
      "Count": -1
    },
    {
      "ItemId": 4155,
      "Price": 0,
      "Name": null,
      "Count": -1
    },
    {
      "ItemId": 4156,
      "Price": 0,
      "Name": null,
      "Count": -1
    },
    {
      "ItemId": 4157,
      "Price": 0,
      "Name": null,
      "Count": -1
    },
    {
      "ItemId": 4158,
      "Price": 0,
      "Name": null,
      "Count": -1
    },
    {
      "ItemId": 4159,
      "Price": 0,
      "Name": null,
      "Count": -1
    },
    {
      "ItemId": 4160,
      "Price": 0,
      "Name": null,
      "Count": -1
    },
    {
      "ItemId": 4161,
      "Price": 0,
      "Name": null,
      "Count": -1
    },
    {
      "ItemId": 4162,
      "Price": 0,
      "Name": null,
      "Count": -1
    },
    {
      "ItemId": 4163,
      "Price": 0,
      "Name": null,
      "Count": -1
    },
    {
      "ItemId": 4164,
      "Price": 0,
      "Name": null,
      "Count": -1
    },
    {
      "ItemId": 4165,
      "Price": 0,
      "Name": null,
      "Count": -1
    },
    {
      "ItemId": 4166,
      "Price": 0,
      "Name": null,
      "Count": -1
    },
    {
      "ItemId": 4167,
      "Price": 0,
      "Name": null,
      "Count": -1
    },
    {
      "ItemId": 4168,
      "Price": 0,
      "Name": null,
      "Count": -1
    },
    {
      "ItemId": 4169,
      "Price": 0,
      "Name": null,
      "Count": -1
    },
    {
      "ItemId": 4170,
      "Price": 0,
      "Name": null,
      "Count": -1
    },
    {
      "ItemId": 4171,
      "Price": 0,
      "Name": null,
      "Count": -1
    },
    {
      "ItemId": 4172,
      "Price": 0,
      "Name": null,
      "Count": -1
    },
    {
      "ItemId": 4173,
      "Price": 0,
      "Name": null,
      "Count": -1
    },
    {
      "ItemId": 4174,
      "Price": 0,
      "Name": null,
      "Count": -1
    },
    {
      "ItemId": 4175,
      "Price": 0,
      "Name": null,
      "Count": -1
    },
    {
      "ItemId": 4176,
      "Price": 0,
      "Name": null,
      "Count": -1
    },
    {
      "ItemId": 4177,
      "Price": 0,
      "Name": null,
      "Count": -1
    }
  ]
}