{
  "ShopId": 30051,
  "Items": [
    {
      "ItemId": 1724,
      "Price": 0,
      "Name": "Skull Fragment",
      "Count": -1
    },
    {
      "ItemId": 1725,
      "Price": 0,
      "Name": "Dark Stockings Material",
      "Count": -1
    },
    {
      "ItemId": 1726,
      "Price": 0,
      "Name": "Crafted Leather Gloves Lining",
      "Count": -1
    },
    {
      "ItemId": 1727,
      "Price": 0,
      "Name": "Crafted Leather Gloves Texture",
      "Count": -1
    },
    {
      "ItemId": 1728,
      "Price": 0,
      "Name": "Steel Scale",
      "Count": -1
    },
    {
      "ItemId": 1729,
      "Price": 0,
      "Name": "Pure White Cloth",
      "Count": -1
    },
    {
      "ItemId": 1730,
      "Price": 0,
      "Name": "Purifying Potion",
      "Count": -1
    },
    {
      "ItemId": 1731,
      "Price": 0,
      "Name": "Steel Scale Gaiters",
      "Count": -1
    },
    {
      "ItemId": 1732,
      "Price": 0,
      "Name": "Leather Fittings",
      "Count": -1
    },
    {
      "ItemId": 1733,
      "Price": 0,
      "Name": "Large Sheet Iron",
      "Count": -1
    },
    {
      "ItemId": 1734,
      "Price": 0,
      "Name": "Small Leather Fittings",
      "Count": -1
    },
    {
      "ItemId": 1735,
      "Price": 0,
      "Name": "Small Sheet Iron",
      "Count": -1
    },
    {
      "ItemId": 1736,
      "Price": 0,
      "Name": "Iron Boots Binding",
      "Count": -1
    },
    {
      "ItemId": 1737,
      "Price": 0,
      "Name": "Iron Boots Frame",
      "Count": -1
    },
    {
      "ItemId": 1738,
      "Price": 0,
      "Name": "Wide Blade",
      "Count": -1
    },
    {
      "ItemId": 1739,
      "Price": 0,
      "Name": "Broadsword Mold",
      "Count": -1
    },
    {
      "ItemId": 1740,
      "Price": 0,
      "Name": "Crafted Willow Branch",
      "Count": -1
    },
    {
      "ItemId": 1741,
      "Price": 0,
      "Name": "Stave",
      "Count": -1
    },
    {
      "ItemId": 1742,
      "Price": 0,
      "Name": "Red Cedar Branch",
      "Count": -1
    },
    {
      "ItemId": 1743,
      "Price": 0,
      "Name": "Dirk Blade",
      "Count": -1
    },
    {
      "ItemId": 1744,
      "Price": 0,
      "Name": "Dirk Mold",
      "Count": -1
    },
    {
      "ItemId": 1745,
      "Price": 0,
      "Name": "Brandish Blade",
      "Count": -1
    },
    {
      "ItemId": 1746,
      "Price": 0,
      "Name": "Short Spear Blade",
      "Count": -1
    },
    {
      "ItemId": 1747,
      "Price": 0,
      "Name": "Shining Blade",
      "Count": -1
    },
    {
      "ItemId": 1748,
      "Price": 0,
      "Name": "Sword of Reflection Mold",
      "Count": -1
    },
    {
      "ItemId": 1749,
      "Price": 0,
      "Name": "Branch of The Mother Tree",
      "Count": -1
    },
    {
      "ItemId": 1750,
      "Price": 0,
      "Name": "Dark Forest Leaf",
      "Count": -1
    },
    {
      "ItemId": 1751,
      "Price": 0,
      "Name": "Lump of Iron",
      "Count": -1
    },
    {
      "ItemId": 1752,
      "Price": 0,
      "Name": "Piece of Sword Breaker",
      "Count": -1
    },
    {
      "ItemId": 1753,
      "Price": 0,
      "Name": "Sword Breaker Mold",
      "Count": -1
    },
    {
      "ItemId": 1754,
      "Price": 0,
      "Name": "Steel Bow Mold",
      "Count": -1
    },
    {
      "ItemId": 1755,
      "Price": 0,
      "Name": "Metal Stave",
      "Count": -1
    },
    {
      "ItemId": 1756,
      "Price": 0,
      "Name": "Spirit of The Saber Smith",
      "Count": -1
    },
    {
      "ItemId": 1757,
      "Price": 0,
      "Name": "Saber Blade",
      "Count": -1
    },
    {
      "ItemId": 1758,
      "Price": 0,
      "Name": "Saber Mold",
      "Count": -1
    },
    {
      "ItemId": 1759,
      "Price": 0,
      "Name": "Blood of Assassin",
      "Count": -1
    },
    {
      "ItemId": 1760,
      "Price": 0,
      "Name": "Assassin Blade",
      "Count": -1
    },
    {
      "ItemId": 1761,
      "Price": 0,
      "Name": "Assassin Mold",
      "Count": -1
    },
    {
      "ItemId": 1762,
      "Price": 0,
      "Name": "Piece of Trident",
      "Count": -1
    },
    {
      "ItemId": 1763,
      "Price": 0,
      "Name": "Ruby Fragment",
      "Count": -1
    },
    {
      "ItemId": 1764,
      "Price": 0,
      "Name": "Deep Sea Water",
      "Count": -1
    },
    {
      "ItemId": 1765,
      "Price": 0,
      "Name": "Spinebone Fragment",
      "Count": -1
    },
    {
      "ItemId": 1766,
      "Price": 0,
      "Name": "Spinebone Pattern",
      "Count": -1
    },
    {
      "ItemId": 1767,
      "Price": 0,
      "Name": "Piece of Mace of Judgment",
      "Count": -1
    },
    {
      "ItemId": 1768,
      "Price": 0,
      "Name": "Pattern of Judgment",
      "Count": -1
    },
    {
      "ItemId": 1769,
      "Price": 0,
      "Name": "Piece of Conjuror's Staff",
      "Count": -1
    },
    {
      "ItemId": 1770,
      "Price": 0,
      "Name": "Magic Flute",
      "Count": -1
    },
    {
      "ItemId": 1771,
      "Price": 0,
      "Name": "Elven Stave",
      "Count": -1
    },
    {
      "ItemId": 1772,
      "Price": 0,
      "Name": "Leaf of the Mother Tree",
      "Count": -1
    },
    {
      "ItemId": 1773,
      "Price": 0,
      "Name": "Piece of Dwarven Trident",
      "Count": -1
    }
  ]
}