{
  "ShopId": 300530,
  "Items": [
    {
      "ItemId": 7179,
      "Price": 0,
      "Name": "Red Bone Necklace",
      "Count": -1
    },
    {
      "ItemId": 7180,
      "Price": 0,
      "Name": "Incense Pouch",
      "Count": -1
    },
    {
      "ItemId": 7181,
      "Price": 0,
      "Name": "Gem of Maille Lizardman",
      "Count": -1
    },
    {
      "ItemId": 7182,
      "Price": 0,
      "Name": "Patrol's Report",
      "Count": -1
    },
    {
      "ItemId": 7183,
      "Price": 0,
      "Name": "Shining Gem",
      "Count": -1
    },
    {
      "ItemId": 7184,
      "Price": 0,
      "Name": "Shining Red Gem",
      "Count": -1
    },
    {
      "ItemId": 7185,
      "Price": 0,
      "Name": "Jewel of Innocence",
      "Count": -1
    },
    {
      "ItemId": 7186,
      "Price": 0,
      "Name": "Horn of Buffalo",
      "Count": -1
    },
    {
      "ItemId": 7187,
      "Price": 0,
      "Name": "Nepenthes Seed",
      "Count": -1
    },
    {
      "ItemId": 7188,
      "Price": 0,
      "Name": "Proof of Avenger",
      "Count": -1
    },
    {
      "ItemId": 7189,
      "Price": 0,
      "Name": "Eye of Darkness",
      "Count": -1
    },
    {
      "ItemId": 7190,
      "Price": 0,
      "Name": "Evil Spirit of Darkness",
      "Count": -1
    },
    {
      "ItemId": 7191,
      "Price": 0,
      "Name": "Broken Crystal",
      "Count": -1
    },
    {
      "ItemId": 7192,
      "Price": 0,
      "Name": "Unfinished Summon Crystal",
      "Count": -1
    },
    {
      "ItemId": 7193,
      "Price": 0,
      "Name": "Summon Crystal",
      "Count": -1
    },
    {
      "ItemId": 7194,
      "Price": 0,
      "Name": "Essence of Daimon",
      "Count": -1
    },
    {
      "ItemId": 7195,
      "Price": 0,
      "Name": "Boiled Eggs",
      "Count": -1
    },
    {
      "ItemId": 7196,
      "Price": 0,
      "Name": "Fee of Boiled Egg",
      "Count": -1
    },
    {
      "ItemId": 7197,
      "Price": 0,
      "Name": "Special Drink",
      "Count": -1
    },
    {
      "ItemId": 7198,
      "Price": 0,
      "Name": "Fee of Special Drink",
      "Count": -1
    },
    {
      "ItemId": 7199,
      "Price": 0,
      "Name": "Leaf of Flava",
      "Count": -1
    },
    {
      "ItemId": 7200,
      "Price": 0,
      "Name": "Buffalo Meat",
      "Count": -1
    },
    {
      "ItemId": 7201,
      "Price": 0,
      "Name": "Antelope Horn",
      "Count": -1
    },
    {
      "ItemId": 7202,
      "Price": 0,
      "Name": "Trunk of Nepenthes",
      "Count": -1
    },
    {
      "ItemId": 7203,
      "Price": 0,
      "Name": "Foot of Bandersnatchling",
      "Count": -1
    },
    {
      "ItemId": 7204,
      "Price": 0,
      "Name": "Secret Spice",
      "Count": -1
    },
    {
      "ItemId": 7205,
      "Price": 0,
      "Name": "Soy Sauce Jar",
      "Count": -1
    },
    {
      "ItemId": 7206,
      "Price": 0,
      "Name": "Boiled Eggs for Delivery",
      "Count": -1
    },
    {
      "ItemId": 7207,
      "Price": 0,
      "Name": "Special Drink for Delivery",
      "Count": -1
    },
    {
      "ItemId": 7208,
      "Price": 0,
      "Name": "Hot Food Box",
      "Count": -1
    },
    {
      "ItemId": 7209,
      "Price": 0,
      "Name": "Food for Bumbalump",
      "Count": -1
    },
    {
      "ItemId": 7210,
      "Price": 0,
      "Name": "Special Yeti Meat",
      "Count": -1
    },
    {
      "ItemId": 7211,
      "Price": 0,
      "Name": "Mark of Ketra's Alliance - Level 1",
      "Count": -1
    },
    {
      "ItemId": 7212,
      "Price": 0,
      "Name": "Mark of Ketra's Alliance - Level 2",
      "Count": -1
    },
    {
      "ItemId": 7213,
      "Price": 0,
      "Name": "Mark of Ketra's Alliance - Level 3",
      "Count": -1
    },
    {
      "ItemId": 7214,
      "Price": 0,
      "Name": "Mark of Ketra's Alliance - Level 4",
      "Count": -1
    },
    {
      "ItemId": 7215,
      "Price": 0,
      "Name": "Mark of Ketra's Alliance - Level 5",
      "Count": -1
    },
    {
      "ItemId": 7216,
      "Price": 0,
      "Name": "Varka's Badge - Soldier",
      "Count": -1
    },
    {
      "ItemId": 7217,
      "Price": 0,
      "Name": "Varka's Badge - Captain",
      "Count": -1
    },
    {
      "ItemId": 7218,
      "Price": 0,
      "Name": "Varka's Badge - General",
      "Count": -1
    },
    {
      "ItemId": 7219,
      "Price": 0,
      "Name": "Totem of Valor",
      "Count": -1
    },
    {
      "ItemId": 7220,
      "Price": 0,
      "Name": "Totem of Wisdom",
      "Count": -1
    },
    {
      "ItemId": 7221,
      "Price": 0,
      "Name": "Mark of Varka's Alliance - Level 1",
      "Count": -1
    },
    {
      "ItemId": 7222,
      "Price": 0,
      "Name": "Mark of Varka's Alliance - Level 2",
      "Count": -1
    },
    {
      "ItemId": 7223,
      "Price": 0,
      "Name": "Mark of Varka's Alliance - Level 3",
      "Count": -1
    },
    {
      "ItemId": 7224,
      "Price": 0,
      "Name": "Mark of Varka's Alliance - Level 4",
      "Count": -1
    },
    {
      "ItemId": 7225,
      "Price": 0,
      "Name": "Mark of Varka's Alliance - Level 5",
      "Count": -1
    },
    {
      "ItemId": 7226,
      "Price": 0,
      "Name": "Ketra's Badge - Soldier",
      "Count": -1
    },
    {
      "ItemId": 7227,
      "Price": 0,
      "Name": "Ketra's Badge - Captain",
      "Count": -1
    },
    {
      "ItemId": 7228,
      "Price": 0,
      "Name": "Ketra's Badge - General",
      "Count": -1
    },
    {
      "ItemId": 7229,
      "Price": 0,
      "Name": "Feather of Valor",
      "Count": -1
    },
    {
      "ItemId": 7230,
      "Price": 0,
      "Name": "Feather of Wisdom",
      "Count": -1
    },
    {
      "ItemId": 7231,
      "Price": 0,
      "Name": "Munitions Box",
      "Count": -1
    },
    {
      "ItemId": 7232,
      "Price": 0,
      "Name": "Munitions Box",
      "Count": -1
    },
    {
      "ItemId": 7233,
      "Price": 0,
      "Name": "Varka's Mane",
      "Count": -1
    },
    {
      "ItemId": 7234,
      "Price": 0,
      "Name": "Molar of Ketra Orc",
      "Count": -1
    },
    {
      "ItemId": 7235,
      "Price": 0,
      "Name": "Head of Shadith",
      "Count": -1
    },
    {
      "ItemId": 7236,
      "Price": 0,
      "Name": "Head of Mos",
      "Count": -1
    },
    {
      "ItemId": 7237,
      "Price": 0,
      "Name": "Stolen Green Totem",
      "Count": -1
    },
    {
      "ItemId": 7238,
      "Price": 0,
      "Name": "Green Totem",
      "Count": -1
    },
    {
      "ItemId": 7239,
      "Price": 0,
      "Name": "Ice Heart of Ashutar",
      "Count": -1
    },
    {
      "ItemId": 7240,
      "Price": 0,
      "Name": "Head of Hekaton",
      "Count": -1
    },
    {
      "ItemId": 7241,
      "Price": 0,
      "Name": "Head of Tayr",
      "Count": -1
    },
    {
      "ItemId": 7242,
      "Price": 0,
      "Name": "Stolen Red Totem",
      "Count": -1
    },
    {
      "ItemId": 7243,
      "Price": 0,
      "Name": "Red Totem",
      "Count": -1
    },
    {
      "ItemId": 7244,
      "Price": 0,
      "Name": "Fire Heart of Nastron",
      "Count": -1
    },
    {
      "ItemId": 7245,
      "Price": 0,
      "Name": "Supply Box",
      "Count": -1
    },
    {
      "ItemId": 7246,
      "Price": 0,
      "Name": "Golden Ram Badge - Recruit",
      "Count": -1
    },
    {
      "ItemId": 7247,
      "Price": 0,
      "Name": "Golden Ram Badge - Soldier",
      "Count": -1
    },
    {
      "ItemId": 7248,
      "Price": 0,
      "Name": "Splinter Stakato Chitin",
      "Count": -1
    },
    {
      "ItemId": 7249,
      "Price": 0,
      "Name": "Needle Stakato Chitin",
      "Count": -1
    },
    {
      "ItemId": 7250,
      "Price": 0,
      "Name": "Talon of Stakato",
      "Count": -1
    },
    {
      "ItemId": 7251,
      "Price": 0,
      "Name": "Golden Ram Coin",
      "Count": -1
    },
    {
      "ItemId": 7252,
      "Price": 0,
      "Name": "Krorin's Journal",
      "Count": -1
    },
    {
      "ItemId": 7253,
      "Price": 0,
      "Name": "Letter to Archaeologist",
      "Count": -1
    },
    {
      "ItemId": 7254,
      "Price": 0,
      "Name": "Broken Relic Part",
      "Count": -1
    },
    {
      "ItemId": 7255,
      "Price": 0,
      "Name": "Sealed Box",
      "Count": -1
    },
    {
      "ItemId": 7256,
      "Price": 0,
      "Name": "Goblet of Alectia",
      "Count": -1
    },
    {
      "ItemId": 7257,
      "Price": 0,
      "Name": "Goblet of Tishas",
      "Count": -1
    },
    {
      "ItemId": 7258,
      "Price": 0,
      "Name": "Goblet of Mekara",
      "Count": -1
    },
    {
      "ItemId": 7259,
      "Price": 0,
      "Name": "Goblet of Morigul",
      "Count": -1
    },
    {
      "ItemId": 7260,
      "Price": 0,
      "Name": "Chapel Key",
      "Count": -1
    },
    {
      "ItemId": 7261,
      "Price": 0,
      "Name": "Used Grave Pass",
      "Count": -1
    },
    {
      "ItemId": 7262,
      "Price": 0,
      "Name": "Antique Brooch",
      "Count": -1
    },
    {
      "ItemId": 7263,
      "Price": 0,
      "Name": "Package to Vulcan",
      "Count": -1
    },
    {
      "ItemId": 7264,
      "Price": 0,
      "Name": "Torch",
      "Count": -1
    },
    {
      "ItemId": 7265,
      "Price": 0,
      "Name": "Vacualite Ore",
      "Count": -1
    },
    {
      "ItemId": 7266,
      "Price": 0,
      "Name": "Vacualite",
      "Count": -1
    },
    {
      "ItemId": 7267,
      "Price": 0,
      "Name": "Floating Stone",
      "Count": -1
    },
    {
      "ItemId": 7268,
      "Price": 0,
      "Name": "Resonance Amulet - 1",
      "Count": -1
    },
    {
      "ItemId": 7269,
      "Price": 0,
      "Name": "Resonance Amulet - 1",
      "Count": -1
    },
    {
      "ItemId": 7270,
      "Price": 0,
      "Name": "Resonance Amulet - 1",
      "Count": -1
    },
    {
      "ItemId": 7271,
      "Price": 0,
      "Name": "Resonance Amulet - 1",
      "Count": -1
    },
    {
      "ItemId": 7272,
      "Price": 0,
      "Name": "Resonance Amulet - 1",
      "Count": -1
    },
    {
      "ItemId": 7273,
      "Price": 0,
      "Name": "Resonance Amulet - 1",
      "Count": -1
    },
    {
      "ItemId": 7274,
      "Price": 0,
      "Name": "Resonance Amulet - 1",
      "Count": -1
    },
    {
      "ItemId": 7275,
      "Price": 0,
      "Name": "Resonance Amulet - 1",
      "Count": -1
    },
    {
      "ItemId": 7276,
      "Price": 0,
      "Name": "Resonance Amulet - 1",
      "Count": -1
    },
    {
      "ItemId": 7277,
      "Price": 0,
      "Name": "Resonance Amulet - 1",
      "Count": -1
    },
    {
      "ItemId": 7278,
      "Price": 0,
      "Name": "Resonance Amulet - 1",
      "Count": -1
    },
    {
      "ItemId": 7279,
      "Price": 0,
      "Name": "Resonance Amulet - 1",
      "Count": -1
    }
  ]
}