{
  "ShopId": 30050,
  "Items": [
    {
      "ItemId": 1674,
      "Price": 0,
      "Name": "Twig of Treant",
      "Count": -1
    },
    {
      "ItemId": 1675,
      "Price": 0,
      "Name": "Beast Blood",
      "Count": -1
    },
    {
      "ItemId": 1676,
      "Price": 0,
      "Name": "Beast Bone",
      "Count": -1
    },
    {
      "ItemId": 1677,
      "Price": 0,
      "Name": "Hot Oil",
      "Count": -1
    },
    {
      "ItemId": 1678,
      "Price": 0,
      "Name": "(Not used) Thread",
      "Count": -1
    },
    {
      "ItemId": 1679,
      "Price": 0,
      "Name": "Bronze",
      "Count": -1
    },
    {
      "ItemId": 1680,
      "Price": 0,
      "Name": "Fur",
      "Count": -1
    },
    {
      "ItemId": 1681,
      "Price": 0,
      "Name": "Elf Stone",
      "Count": -1
    },
    {
      "ItemId": 1682,
      "Price": 0,
      "Name": "Tear of Holy Spirit",
      "Count": -1
    },
    {
      "ItemId": 1683,
      "Price": 0,
      "Name": "Mithril",
      "Count": -1
    },
    {
      "ItemId": 1684,
      "Price": 0,
      "Name": "Durable Stem",
      "Count": -1
    },
    {
      "ItemId": 1685,
      "Price": 0,
      "Name": "Wooden Frame",
      "Count": -1
    },
    {
      "ItemId": 1686,
      "Price": 0,
      "Name": "Bark of Treant",
      "Count": -1
    },
    {
      "ItemId": 1687,
      "Price": 0,
      "Name": "(Not used) Coarse Bone Powder",
      "Count": -1
    },
    {
      "ItemId": 1688,
      "Price": 0,
      "Name": "Refined Steel",
      "Count": -1
    },
    {
      "ItemId": 1689,
      "Price": 0,
      "Name": "(Not used) Leather",
      "Count": -1
    },
    {
      "ItemId": 1690,
      "Price": 0,
      "Name": "Bowstring",
      "Count": -1
    },
    {
      "ItemId": 1691,
      "Price": 0,
      "Name": "Steel Frame",
      "Count": -1
    },
    {
      "ItemId": 1692,
      "Price": 0,
      "Name": "(Not used) Cord",
      "Count": -1
    },
    {
      "ItemId": 1693,
      "Price": 0,
      "Name": "Refined Bronze",
      "Count": -1
    },
    {
      "ItemId": 1694,
      "Price": 0,
      "Name": "Treant Potion",
      "Count": -1
    },
    {
      "ItemId": 1695,
      "Price": 0,
      "Name": "Spell Paper",
      "Count": -1
    },
    {
      "ItemId": 1696,
      "Price": 0,
      "Name": "Flaming Oil",
      "Count": -1
    },
    {
      "ItemId": 1697,
      "Price": 0,
      "Name": "Magic Powder",
      "Count": -1
    },
    {
      "ItemId": 1698,
      "Price": 0,
      "Name": "Refined Mithril",
      "Count": -1
    },
    {
      "ItemId": 1699,
      "Price": 0,
      "Name": "Fortified Steel",
      "Count": -1
    },
    {
      "ItemId": 1700,
      "Price": 0,
      "Name": "(Not used) Oriharukon",
      "Count": -1
    },
    {
      "ItemId": 1701,
      "Price": 0,
      "Name": "Spell Solution",
      "Count": -1
    },
    {
      "ItemId": 1702,
      "Price": 0,
      "Name": "Metal Frame",
      "Count": -1
    },
    {
      "ItemId": 1703,
      "Price": 0,
      "Name": "Steel of The Highest Grade",
      "Count": -1
    },
    {
      "ItemId": 1704,
      "Price": 0,
      "Name": "Stone of Anguish",
      "Count": -1
    },
    {
      "ItemId": 1705,
      "Price": 0,
      "Name": "Sprig of Wisdom",
      "Count": -1
    },
    {
      "ItemId": 1706,
      "Price": 0,
      "Name": "Blue Diamond Fragment",
      "Count": -1
    },
    {
      "ItemId": 1707,
      "Price": 0,
      "Name": "Saint's Molar",
      "Count": -1
    },
    {
      "ItemId": 1708,
      "Price": 0,
      "Name": "Smoky Quartz",
      "Count": -1
    },
    {
      "ItemId": 1709,
      "Price": 0,
      "Name": "Blood of Manticore",
      "Count": -1
    },
    {
      "ItemId": 1710,
      "Price": 0,
      "Name": "Tiger's Eye Crystal",
      "Count": -1
    },
    {
      "ItemId": 1711,
      "Price": 0,
      "Name": "Claw of Leopard",
      "Count": -1
    },
    {
      "ItemId": 1712,
      "Price": 0,
      "Name": "Leather Shoes Material",
      "Count": -1
    },
    {
      "ItemId": 1713,
      "Price": 0,
      "Name": "Leather Tunic Material",
      "Count": -1
    },
    {
      "ItemId": 1714,
      "Price": 0,
      "Name": "Leather Stockings Material",
      "Count": -1
    },
    {
      "ItemId": 1715,
      "Price": 0,
      "Name": "Leather Helmet Material",
      "Count": -1
    },
    {
      "ItemId": 1716,
      "Price": 0,
      "Name": "Leather Gloves Texture",
      "Count": -1
    },
    {
      "ItemId": 1717,
      "Price": 0,
      "Name": "Leather Gloves Lining",
      "Count": -1
    },
    {
      "ItemId": 1718,
      "Price": 0,
      "Name": "Black Bone Fragment",
      "Count": -1
    },
    {
      "ItemId": 1719,
      "Price": 0,
      "Name": "Hard Leather Shirt Material",
      "Count": -1
    },
    {
      "ItemId": 1720,
      "Price": 0,
      "Name": "Blue-Black Bone Fragment",
      "Count": -1
    },
    {
      "ItemId": 1721,
      "Price": 0,
      "Name": "Hard Leather Gaiter Material",
      "Count": -1
    },
    {
      "ItemId": 1722,
      "Price": 0,
      "Name": "Boots Material",
      "Count": -1
    },
    {
      "ItemId": 1723,
      "Price": 0,
      "Name": "Leather Boots Material",
      "Count": -1
    }
  ]
}