{
  "ShopId": 300536,
  "Items": [
    {
      "ItemId": 6727,
      "Price": 0,
      "Name": "Seed: Alternative Great Coba",
      "Count": -1
    },
    {
      "ItemId": 6728,
      "Price": 0,
      "Name": "Seed: Alternative Sea Coba",
      "Count": -1
    },
    {
      "ItemId": 6729,
      "Price": 0,
      "Name": "Seed: Alternative Sea Coba",
      "Count": -1
    },
    {
      "ItemId": 6730,
      "Price": 0,
      "Name": "Seed: Alternative Sea Coba",
      "Count": -1
    },
    {
      "ItemId": 6731,
      "Price": 0,
      "Name": "Seed: Alternative Red Coba",
      "Count": -1
    },
    {
      "ItemId": 6732,
      "Price": 0,
      "Name": "Seed: Alternative Red Coba",
      "Count": -1
    },
    {
      "ItemId": 6733,
      "Price": 0,
      "Name": "Seed: Alternative Red Coba",
      "Count": -1
    },
    {
      "ItemId": 6734,
      "Price": 0,
      "Name": "Seed: Alternative Red Coba",
      "Count": -1
    },
    {
      "ItemId": 6735,
      "Price": 0,
      "Name": "Seed: Alternative Red Coba",
      "Count": -1
    },
    {
      "ItemId": 6736,
      "Price": 0,
      "Name": "Seed: Alternative Desert Coba",
      "Count": -1
    },
    {
      "ItemId": 6737,
      "Price": 0,
      "Name": "Seed: Alternative Desert Coba",
      "Count": -1
    },
    {
      "ItemId": 6738,
      "Price": 0,
      "Name": "Seed: Alternative Desert Coba",
      "Count": -1
    },
    {
      "ItemId": 6739,
      "Price": 0,
      "Name": "Seed: Alternative Desert Coba",
      "Count": -1
    },
    {
      "ItemId": 6740,
      "Price": 0,
      "Name": "Seed: Alternative Desert Coba",
      "Count": -1
    },
    {
      "ItemId": 6741,
      "Price": 0,
      "Name": "Seed: Alternative Twin Coba",
      "Count": -1
    },
    {
      "ItemId": 6742,
      "Price": 0,
      "Name": "Seed: Alternative Blue Coba",
      "Count": -1
    },
    {
      "ItemId": 6743,
      "Price": 0,
      "Name": "Seed: Alternative Blue Coba",
      "Count": -1
    },
    {
      "ItemId": 6744,
      "Price": 0,
      "Name": "Seed: Alternative Blue Coba",
      "Count": -1
    },
    {
      "ItemId": 6745,
      "Price": 0,
      "Name": "Seed: Alternative Blue Coba",
      "Count": -1
    },
    {
      "ItemId": 6746,
      "Price": 0,
      "Name": "Seed: Alternative Blue Coba",
      "Count": -1
    },
    {
      "ItemId": 6747,
      "Price": 0,
      "Name": "Seed: Alternative Golden Coba",
      "Count": -1
    },
    {
      "ItemId": 6748,
      "Price": 0,
      "Name": "Seed: Alternative Golden Coba",
      "Count": -1
    },
    {
      "ItemId": 6749,
      "Price": 0,
      "Name": "Seed: Alternative Golden Coba",
      "Count": -1
    },
    {
      "ItemId": 6750,
      "Price": 0,
      "Name": "Seed: Alternative Golden Coba",
      "Count": -1
    },
    {
      "ItemId": 6751,
      "Price": 0,
      "Name": "Seed: Alternative Golden Coba",
      "Count": -1
    },
    {
      "ItemId": 6752,
      "Price": 0,
      "Name": "Seed: Alternative Golden Coba",
      "Count": -1
    },
    {
      "ItemId": 6753,
      "Price": 0,
      "Name": "Seed: Great Coba",
      "Count": -1
    },
    {
      "ItemId": 6754,
      "Price": 0,
      "Name": "Seed: Sea Coba",
      "Count": -1
    },
    {
      "ItemId": 6755,
      "Price": 0,
      "Name": "Seed: Sea Coba",
      "Count": -1
    },
    {
      "ItemId": 6756,
      "Price": 0,
      "Name": "Seed: Sea Coba",
      "Count": -1
    },
    {
      "ItemId": 6757,
      "Price": 0,
      "Name": "Seed: Red Coba",
      "Count": -1
    },
    {
      "ItemId": 6758,
      "Price": 0,
      "Name": "Seed: Red Coba",
      "Count": -1
    },
    {
      "ItemId": 6759,
      "Price": 0,
      "Name": "Seed: Red Coba",
      "Count": -1
    },
    {
      "ItemId": 6760,
      "Price": 0,
      "Name": "Seed: Red Coba",
      "Count": -1
    },
    {
      "ItemId": 6761,
      "Price": 0,
      "Name": "Seed: Red Coba",
      "Count": -1
    },
    {
      "ItemId": 6762,
      "Price": 0,
      "Name": "Seed: Desert Coba",
      "Count": -1
    },
    {
      "ItemId": 6763,
      "Price": 0,
      "Name": "Seed: Desert Coba",
      "Count": -1
    },
    {
      "ItemId": 6764,
      "Price": 0,
      "Name": "Seed: Desert Coba",
      "Count": -1
    },
    {
      "ItemId": 6765,
      "Price": 0,
      "Name": "Seed: Desert Coba",
      "Count": -1
    },
    {
      "ItemId": 6766,
      "Price": 0,
      "Name": "Seed: Desert Coba",
      "Count": -1
    },
    {
      "ItemId": 6767,
      "Price": 0,
      "Name": "Seed: Twin Coba",
      "Count": -1
    },
    {
      "ItemId": 6768,
      "Price": 0,
      "Name": "Seed: Blue Coba",
      "Count": -1
    },
    {
      "ItemId": 6769,
      "Price": 0,
      "Name": "Seed: Blue Coba",
      "Count": -1
    },
    {
      "ItemId": 6770,
      "Price": 0,
      "Name": "Seed: Blue Coba",
      "Count": -1
    },
    {
      "ItemId": 6771,
      "Price": 0,
      "Name": "Seed: Blue Coba",
      "Count": -1
    },
    {
      "ItemId": 6772,
      "Price": 0,
      "Name": "Seed: Blue Coba",
      "Count": -1
    },
    {
      "ItemId": 6773,
      "Price": 0,
      "Name": "Seed: Golden Coba",
      "Count": -1
    },
    {
      "ItemId": 6774,
      "Price": 0,
      "Name": "Seed: Golden Coba",
      "Count": -1
    },
    {
      "ItemId": 6775,
      "Price": 0,
      "Name": "Seed: Golden Coba",
      "Count": -1
    },
    {
      "ItemId": 6776,
      "Price": 0,
      "Name": "Seed: Golden Coba",
      "Count": -1
    },
    {
      "ItemId": 6777,
      "Price": 0,
      "Name": "Seed: Golden Coba",
      "Count": -1
    },
    {
      "ItemId": 6778,
      "Price": 0,
      "Name": "Seed: Golden Coba",
      "Count": -1
    },
    {
      "ItemId": 7016,
      "Price": 0,
      "Name": "Seed: Blue Cobol",
      "Count": -1
    },
    {
      "ItemId": 7017,
      "Price": 0,
      "Name": "Seed: Blue Codran",
      "Count": -1
    },
    {
      "ItemId": 7018,
      "Price": 0,
      "Name": "Seed: Blue Codran",
      "Count": -1
    },
    {
      "ItemId": 7019,
      "Price": 0,
      "Name": "Seed: Chilly Cobol",
      "Count": -1
    },
    {
      "ItemId": 7020,
      "Price": 0,
      "Name": "Seed: Chilly Coda",
      "Count": -1
    },
    {
      "ItemId": 7021,
      "Price": 0,
      "Name": "Seed: Chilly Codran",
      "Count": -1
    },
    {
      "ItemId": 7022,
      "Price": 0,
      "Name": "Seed: Chilly Codran",
      "Count": -1
    },
    {
      "ItemId": 7023,
      "Price": 0,
      "Name": "Seed: Desert Codran",
      "Count": -1
    },
    {
      "ItemId": 7024,
      "Price": 0,
      "Name": "Seed: Desert Codran",
      "Count": -1
    },
    {
      "ItemId": 7025,
      "Price": 0,
      "Name": "Seed: Golden Cobol",
      "Count": -1
    },
    {
      "ItemId": 7026,
      "Price": 0,
      "Name": "Seed: Golden Coda",
      "Count": -1
    },
    {
      "ItemId": 7027,
      "Price": 0,
      "Name": "Seed: Great Cobol",
      "Count": -1
    },
    {
      "ItemId": 7028,
      "Price": 0,
      "Name": "Seed: Great Codran",
      "Count": -1
    },
    {
      "ItemId": 7029,
      "Price": 0,
      "Name": "Seed: Great Codran",
      "Count": -1
    },
    {
      "ItemId": 7030,
      "Price": 0,
      "Name": "Seed: Alternative Blue Cobol",
      "Count": -1
    },
    {
      "ItemId": 7031,
      "Price": 0,
      "Name": "Seed: Alternative Blue Codran",
      "Count": -1
    },
    {
      "ItemId": 7032,
      "Price": 0,
      "Name": "Seed: Alternative Blue Codran",
      "Count": -1
    },
    {
      "ItemId": 7033,
      "Price": 0,
      "Name": "Seed: Alternative Chilly Cobol",
      "Count": -1
    },
    {
      "ItemId": 7034,
      "Price": 0,
      "Name": "Seed: Alternative Chilly Coda",
      "Count": -1
    },
    {
      "ItemId": 7035,
      "Price": 0,
      "Name": "Seed: Alternative Chilly Codran",
      "Count": -1
    },
    {
      "ItemId": 7036,
      "Price": 0,
      "Name": "Seed: Alternative Chilly Codran",
      "Count": -1
    },
    {
      "ItemId": 7037,
      "Price": 0,
      "Name": "Seed: Alternative Desert Codran",
      "Count": -1
    },
    {
      "ItemId": 7038,
      "Price": 0,
      "Name": "Seed: Alternative Desert Codran",
      "Count": -1
    },
    {
      "ItemId": 7039,
      "Price": 0,
      "Name": "Seed: Alternative Golden Cobol",
      "Count": -1
    },
    {
      "ItemId": 7040,
      "Price": 0,
      "Name": "Seed: Alternative Golden Coda",
      "Count": -1
    },
    {
      "ItemId": 7041,
      "Price": 0,
      "Name": "Seed: Alternative Great Cobol",
      "Count": -1
    },
    {
      "ItemId": 7042,
      "Price": 0,
      "Name": "Seed: Alternative Great Codran",
      "Count": -1
    },
    {
      "ItemId": 7043,
      "Price": 0,
      "Name": "Seed: Alternative Great Codran",
      "Count": -1
    },
    {
      "ItemId": 7044,
      "Price": 0,
      "Name": "Seed: Alternative Red Cobol",
      "Count": -1
    },
    {
      "ItemId": 7045,
      "Price": 0,
      "Name": "Seed: Alternative Red Codran",
      "Count": -1
    },
    {
      "ItemId": 7046,
      "Price": 0,
      "Name": "Seed: Alternative Red Codran",
      "Count": -1
    },
    {
      "ItemId": 7047,
      "Price": 0,
      "Name": "Seed: Alternative Sea Codran",
      "Count": -1
    },
    {
      "ItemId": 7048,
      "Price": 0,
      "Name": "Seed: Alternative Sea Codran",
      "Count": -1
    },
    {
      "ItemId": 7049,
      "Price": 0,
      "Name": "Seed: Alternative Sea Codran",
      "Count": -1
    },
    {
      "ItemId": 7050,
      "Price": 0,
      "Name": "Seed: Alternative Twin Codran",
      "Count": -1
    },
    {
      "ItemId": 7051,
      "Price": 0,
      "Name": "Seed: Red Cobol",
      "Count": -1
    },
    {
      "ItemId": 7052,
      "Price": 0,
      "Name": "Seed: Red Codran",
      "Count": -1
    },
    {
      "ItemId": 7053,
      "Price": 0,
      "Name": "Seed: Red Codran",
      "Count": -1
    },
    {
      "ItemId": 7054,
      "Price": 0,
      "Name": "Seed: Sea Codran",
      "Count": -1
    },
    {
      "ItemId": 7055,
      "Price": 0,
      "Name": "Seed: Sea Codran",
      "Count": -1
    },
    {
      "ItemId": 7056,
      "Price": 0,
      "Name": "Seed: Sea Codran",
      "Count": -1
    },
    {
      "ItemId": 7057,
      "Price": 0,
      "Name": "Seed: Twin Codran",
      "Count": -1
    },
    {
      "ItemId": 6541,
      "Price": 0,
      "Name": "Blue Coba",
      "Count": -1
    },
    {
      "ItemId": 6542,
      "Price": 0,
      "Name": "Red Coba",
      "Count": -1
    },
    {
      "ItemId": 6543,
      "Price": 0,
      "Name": "Gold Coba",
      "Count": -1
    },
    {
      "ItemId": 6544,
      "Price": 0,
      "Name": "Desert Coba",
      "Count": -1
    },
    {
      "ItemId": 6545,
      "Price": 0,
      "Name": "Sea Coba",
      "Count": -1
    },
    {
      "ItemId": 6546,
      "Price": 0,
      "Name": "Twin Coba",
      "Count": -1
    },
    {
      "ItemId": 6547,
      "Price": 0,
      "Name": "King Coba",
      "Count": -1
    },
    {
      "ItemId": 6548,
      "Price": 0,
      "Name": "Alternative Blue Coba",
      "Count": -1
    },
    {
      "ItemId": 6549,
      "Price": 0,
      "Name": "Alternative Red Coba",
      "Count": -1
    },
    {
      "ItemId": 6550,
      "Price": 0,
      "Name": "Alternative Gold Coba",
      "Count": -1
    },
    {
      "ItemId": 6551,
      "Price": 0,
      "Name": "Alternative Desert Coba",
      "Count": -1
    },
    {
      "ItemId": 6552,
      "Price": 0,
      "Name": "Alternative Sea Coba",
      "Count": -1
    },
    {
      "ItemId": 6553,
      "Price": 0,
      "Name": "Alternative Twin Coba",
      "Count": -1
    },
    {
      "ItemId": 6554,
      "Price": 0,
      "Name": "Alternative King Coba",
      "Count": -1
    },
    {
      "ItemId": 6555,
      "Price": 0,
      "Name": "Ripe Blue Coba",
      "Count": -1
    },
    {
      "ItemId": 6556,
      "Price": 0,
      "Name": "Ripe Red Coba",
      "Count": -1
    },
    {
      "ItemId": 6557,
      "Price": 0,
      "Name": "Ripe Gold Coba",
      "Count": -1
    },
    {
      "ItemId": 6558,
      "Price": 0,
      "Name": "Ripe Desert Coba",
      "Count": -1
    },
    {
      "ItemId": 6559,
      "Price": 0,
      "Name": "Ripe Sea Coba",
      "Count": -1
    },
    {
      "ItemId": 6560,
      "Price": 0,
      "Name": "Ripe Twin Coba",
      "Count": -1
    },
    {
      "ItemId": 6561,
      "Price": 0,
      "Name": "Ripe King Coba",
      "Count": -1
    },
    {
      "ItemId": 6562,
      "Price": 0,
      "Name": "Ripe Alternative Blue Coba",
      "Count": -1
    },
    {
      "ItemId": 6563,
      "Price": 0,
      "Name": "Ripe Alternative Red Coba",
      "Count": -1
    },
    {
      "ItemId": 6564,
      "Price": 0,
      "Name": "Ripe Alternative Gold Coba",
      "Count": -1
    },
    {
      "ItemId": 6565,
      "Price": 0,
      "Name": "Ripe Alternative Desert Coba",
      "Count": -1
    },
    {
      "ItemId": 6566,
      "Price": 0,
      "Name": "Ripe Alternative Sea Coba",
      "Count": -1
    },
    {
      "ItemId": 6567,
      "Price": 0,
      "Name": "Ripe Alternative Twin Coba",
      "Count": -1
    },
    {
      "ItemId": 6568,
      "Price": 0,
      "Name": "Ripe Alternative King Coba",
      "Count": -1
    }
  ]
}