{
  "ShopId": 335398,
  "Items": [
    {
      "ItemId": 6902,
      "Price": 12900,
      "Name": "Pledge Shield",
      "Count": -1
    },
    {
      "ItemId": 1829,
      "Price": 500,
      "Name": "Scroll of Escape: Clan Hall",
      "Count": 5
    },
    {
      "ItemId": 5858,
      "Price": 100000,
      "Name": "Blessed Scroll of Escape: Clan Hall",
      "Count": 1
    },
    {
      "ItemId": 5169,
      "Price": 300,
      "Name": "Deluxe Food for Strider",
      "Count": 10
    },
    {
      "ItemId": 7126,
      "Price": 35000,
      "Name": "Scroll of Escape to Giran Castle Town",
      "Count": 1
    },
    {
      "ItemId": 7127,
      "Price": 35000,
      "Name": "Scroll of Escape to Hardin's Private Academy",
      "Count": 1
    },
    {
      "ItemId": 7583,
      "Price": 500000,
      "Name": "Pet Exchange Ticket: Buffalo",
      "Count": 1
    },
    {
      "ItemId": 6927,
      "Price": 66,
      "Name": null,
      "Count": 1
    },
    {
      "ItemId": 6933,
      "Price": 240,
      "Name": null,
      "Count": 1
    },
    {
      "ItemId": 6934,
      "Price": 480,
      "Name": null,
      "Count": 1
    },
    {
      "ItemId": 6930,
      "Price": 36,
      "Name": null,
      "Count": 1
    },
    {
      "ItemId": 6932,
      "Price": 36,
      "Name": null,
      "Count": 1
    },
    {
      "ItemId": 6937,
      "Price": 480,
      "Name": null,
      "Count": 1
    },
    {
      "ItemId": 6920,
      "Price": 50,
      "Name": null,
      "Count": 1
    },
    {
      "ItemId": 6924,
      "Price": 100000,
      "Name": null,
      "Count": 1
    },
    {
      "ItemId": 7699,
      "Price": 100000,
      "Name": null,
      "Count": 1
    },
    {
      "ItemId": 6943,
      "Price": 4000,
      "Name": null,
      "Count": 1
    },
    {
      "ItemId": 6944,
      "Price": 4000,
      "Name": null,
      "Count": 1
    },
    {
      "ItemId": 6945,
      "Price": 4000,
      "Name": null,
      "Count": 1
    },
    {
      "ItemId": 6946,
      "Price": 4000,
      "Name": null,
      "Count": 1
    },
    {
      "ItemId": 6966,
      "Price": 10000,
      "Name": null,
      "Count": 1
    },
    {
      "ItemId": 6967,
      "Price": 10000,
      "Name": null,
      "Count": 1
    },
    {
      "ItemId": 6968,
      "Price": 10000,
      "Name": null,
      "Count": 1
    },
    {
      "ItemId": 6969,
      "Price": 10000,
      "Name": null,
      "Count": 1
    },
    {
      "ItemId": 6970,
      "Price": 10000,
      "Name": null,
      "Count": 1
    },
    {
      "ItemId": 6971,
      "Price": 10000,
      "Name": null,
      "Count": 1
    },
    {
      "ItemId": 6972,
      "Price": 10000,
      "Name": null,
      "Count": 1
    },
    {
      "ItemId": 6973,
      "Price": 10000,
      "Name": null,
      "Count": 1
    },
    {
      "ItemId": 6974,
      "Price": 10000,
      "Name": null,
      "Count": 1
    },
    {
      "ItemId": 6975,
      "Price": 10000,
      "Name": null,
      "Count": 1
    },
    {
      "ItemId": 6976,
      "Price": 10000,
      "Name": null,
      "Count": 1
    },
    {
      "ItemId": 6977,
      "Price": 10000,
      "Name": null,
      "Count": 1
    }
  ]
}