{
  "ShopId": 335383,
  "Items": [
    {
      "ItemId": 6902,
      "Price": 12900,
      "Name": "Pledge Shield",
      "Count": -1
    },
    {
      "ItemId": 1829,
      "Price": 500,
      "Name": "Scroll of Escape: Clan Hall",
      "Count": 5
    },
    {
      "ItemId": 5858,
      "Price": 100000,
      "Name": "Blessed Scroll of Escape: Clan Hall",
      "Count": 1
    },
    {
      "ItemId": 5169,
      "Price": 300,
      "Name": "Deluxe Food for Strider",
      "Count": 10
    },
    {
      "ItemId": 7124,
      "Price": 35000,
      "Name": "Scroll of Escape to the Town of Dion",
      "Count": 1
    },
    {
      "ItemId": 7126,
      "Price": 35000,
      "Name": "Scroll of Escape to Giran Castle Town",
      "Count": 1
    },
    {
      "ItemId": 7585,
      "Price": 500000,
      "Name": "Pet Exchange Ticket: Kookaburra",
      "Count": 1
    },
    {
      "ItemId": 6926,
      "Price": 18,
      "Name": null,
      "Count": 1
    },
    {
      "ItemId": 6929,
      "Price": 15,
      "Name": null,
      "Count": 1
    },
    {
      "ItemId": 6931,
      "Price": 15,
      "Name": null,
      "Count": 1
    },
    {
      "ItemId": 6920,
      "Price": 50,
      "Name": null,
      "Count": 1
    },
    {
      "ItemId": 6922,
      "Price": 100000,
      "Name": null,
      "Count": 1
    },
    {
      "ItemId": 7700,
      "Price": 100000,
      "Name": null,
      "Count": 1
    },
    {
      "ItemId": 6940,
      "Price": 4000,
      "Name": null,
      "Count": 1
    },
    {
      "ItemId": 6941,
      "Price": 4000,
      "Name": null,
      "Count": 1
    },
    {
      "ItemId": 6942,
      "Price": 4000,
      "Name": null,
      "Count": 1
    },
    {
      "ItemId": 6978,
      "Price": 12000,
      "Name": null,
      "Count": 1
    },
    {
      "ItemId": 6979,
      "Price": 12000,
      "Name": null,
      "Count": 1
    },
    {
      "ItemId": 6980,
      "Price": 12000,
      "Name": null,
      "Count": 1
    },
    {
      "ItemId": 6981,
      "Price": 12000,
      "Name": null,
      "Count": 1
    },
    {
      "ItemId": 6982,
      "Price": 12000,
      "Name": null,
      "Count": 1
    },
    {
      "ItemId": 6983,
      "Price": 12000,
      "Name": null,
      "Count": 1
    },
    {
      "ItemId": 6984,
      "Price": 12000,
      "Name": null,
      "Count": 1
    },
    {
      "ItemId": 6985,
      "Price": 12000,
      "Name": null,
      "Count": 1
    },
    {
      "ItemId": 6986,
      "Price": 12000,
      "Name": null,
      "Count": 1
    },
    {
      "ItemId": 6987,
      "Price": 12000,
      "Name": null,
      "Count": 1
    },
    {
      "ItemId": 6988,
      "Price": 12000,
      "Name": null,
      "Count": 1
    },
    {
      "ItemId": 6989,
      "Price": 12000,
      "Name": null,
      "Count": 1
    }
  ]
}