{
  "ShopId": 335461,
  "Items": [
    {
      "ItemId": 6902,
      "Price": 12900,
      "Name": "Pledge Shield",
      "Count": -1
    },
    {
      "ItemId": 1829,
      "Price": 500,
      "Name": "Scroll of Escape: Clan Hall",
      "Count": 5
    },
    {
      "ItemId": 5858,
      "Price": 100000,
      "Name": "Blessed Scroll of Escape: Clan Hall",
      "Count": 3
    },
    {
      "ItemId": 5169,
      "Price": 300,
      "Name": "Deluxe Food for Strider",
      "Count": 10
    },
    {
      "ItemId": 7129,
      "Price": 35000,
      "Name": "Scroll of Escape to the Town of Oren",
      "Count": 1
    },
    {
      "ItemId": 7130,
      "Price": 35000,
      "Name": "Scroll of Escape to Ivory Tower",
      "Count": 1
    },
    {
      "ItemId": 7584,
      "Price": 500000,
      "Name": "Pet Exchange Ticket: Cougar",
      "Count": 1
    },
    {
      "ItemId": 6928,
      "Price": 180,
      "Name": null,
      "Count": 1
    },
    {
      "ItemId": 6935,
      "Price": 600,
      "Name": null,
      "Count": 1
    },
    {
      "ItemId": 6936,
      "Price": 1200,
      "Name": null,
      "Count": 1
    },
    {
      "ItemId": 6938,
      "Price": 1200,
      "Name": null,
      "Count": 1
    },
    {
      "ItemId": 6921,
      "Price": 250,
      "Name": null,
      "Count": 1
    },
    {
      "ItemId": 6923,
      "Price": 100000,
      "Name": null,
      "Count": 1
    },
    {
      "ItemId": 7691,
      "Price": 100000,
      "Name": null,
      "Count": 1
    },
    {
      "ItemId": 6947,
      "Price": 4000,
      "Name": null,
      "Count": 1
    },
    {
      "ItemId": 6948,
      "Price": 4000,
      "Name": null,
      "Count": 1
    },
    {
      "ItemId": 6949,
      "Price": 4000,
      "Name": null,
      "Count": 1
    },
    {
      "ItemId": 6950,
      "Price": 4000,
      "Name": null,
      "Count": 1
    },
    {
      "ItemId": 6951,
      "Price": 4000,
      "Name": null,
      "Count": 1
    },
    {
      "ItemId": 6952,
      "Price": 4000,
      "Name": null,
      "Count": 1
    },
    {
      "ItemId": 6953,
      "Price": 4000,
      "Name": null,
      "Count": 1
    },
    {
      "ItemId": 7002,
      "Price": 29000,
      "Name": null,
      "Count": 1
    },
    {
      "ItemId": 7003,
      "Price": 29000,
      "Name": null,
      "Count": 1
    },
    {
      "ItemId": 7004,
      "Price": 29000,
      "Name": null,
      "Count": 1
    },
    {
      "ItemId": 7005,
      "Price": 29000,
      "Name": null,
      "Count": 1
    },
    {
      "ItemId": 7006,
      "Price": 29000,
      "Name": null,
      "Count": 1
    },
    {
      "ItemId": 7007,
      "Price": 29000,
      "Name": null,
      "Count": 1
    },
    {
      "ItemId": 7008,
      "Price": 29000,
      "Name": null,
      "Count": 1
    },
    {
      "ItemId": 7009,
      "Price": 29000,
      "Name": null,
      "Count": 1
    },
    {
      "ItemId": 7010,
      "Price": 29000,
      "Name": null,
      "Count": 1
    },
    {
      "ItemId": 7011,
      "Price": 29000,
      "Name": null,
      "Count": 1
    },
    {
      "ItemId": 7012,
      "Price": 29000,
      "Name": null,
      "Count": 1
    },
    {
      "ItemId": 7013,
      "Price": 29000,
      "Name": null,
      "Count": 1
    }
  ]
}