{
  "ShopId": 351021,
  "Items": [
    {
      "ItemId": 3960,
      "Price": 30000,
      "Name": "Mercenary Posting Ticket (Sword/Stationary)",
      "Count": -1
    },
    {
      "ItemId": 3961,
      "Price": 40000,
      "Name": "Mercenary Posting Ticket (Spear/Stationary)",
      "Count": -1
    },
    {
      "ItemId": 3962,
      "Price": 50000,
      "Name": "Mercenary Posting Ticket (Bow/Stationary)",
      "Count": -1
    },
    {
      "ItemId": 3963,
      "Price": 150000,
      "Name": "Mercenary Posting Ticket (Cleric/Stationary)",
      "Count": -1
    },
    {
      "ItemId": 3964,
      "Price": 150000,
      "Name": "Mercenary Posting Ticket (Wizard/Stationary)",
      "Count": -1
    },
    {
      "ItemId": 3965,
      "Price": 30000,
      "Name": "Mercenary Posting Ticket (Sword/Mobile)",
      "Count": -1
    },
    {
      "ItemId": 3966,
      "Price": 40000,
      "Name": "Mercenary Posting Ticket (Spear/Mobile)",
      "Count": -1
    },
    {
      "ItemId": 3967,
      "Price": 50000,
      "Name": "Mercenary Posting Ticket (Bow/Mobile)",
      "Count": -1
    },
    {
      "ItemId": 3968,
      "Price": 150000,
      "Name": "Mercenary Posting Ticket (Cleric/Mobile)",
      "Count": -1
    },
    {
      "ItemId": 3969,
      "Price": 150000,
      "Name": "Mercenary Posting Ticket (Wizard/Mobile)",
      "Count": -1
    },
    {
      "ItemId": 6038,
      "Price": 60000,
      "Name": "Greater Mercenary Posting Ticket (Sword/Stationary)",
      "Count": -1
    },
    {
      "ItemId": 6039,
      "Price": 80000,
      "Name": "Greater Mercenary Posting Ticket (Spear/Stationary)",
      "Count": -1
    },
    {
      "ItemId": 6040,
      "Price": 100000,
      "Name": "Greater Mercenary Posting Ticket (Bow/Stationary)",
      "Count": -1
    },
    {
      "ItemId": 6041,
      "Price": 300000,
      "Name": "Greater Mercenary Posting Ticket (Cleric/Stationary)",
      "Count": -1
    },
    {
      "ItemId": 6042,
      "Price": 300000,
      "Name": "Greater Mercenary Posting Ticket (Wizard/Stationary)",
      "Count": -1
    },
    {
      "ItemId": 6043,
      "Price": 60000,
      "Name": "Greater Mercenary Posting Ticket (Sword/Mobile)",
      "Count": -1
    },
    {
      "ItemId": 6044,
      "Price": 80000,
      "Name": "Greater Mercenary Posting Ticket (Spear/Mobile)",
      "Count": -1
    },
    {
      "ItemId": 6045,
      "Price": 100000,
      "Name": "Greater Mercenary Posting Ticket (Bow/Mobile)",
      "Count": -1
    },
    {
      "ItemId": 6046,
      "Price": 300000,
      "Name": "Greater Mercenary Posting Ticket (Cleric/Mobile)",
      "Count": -1
    },
    {
      "ItemId": 6047,
      "Price": 300000,
      "Name": "Greater Mercenary Posting Ticket (Wizard/Mobile)",
      "Count": -1
    }
  ]
}