{
  "ShopId": 351421,
  "Items": [
    {
      "ItemId": 5169,
      "Price": 300,
      "Name": "Deluxe Food for Strider",
      "Count": -1
    },
    {
      "ItemId": 6835,
      "Price": 500000,
      "Name": "Circlet of Dion",
      "Count": -1
    },
    {
      "ItemId": 7015,
      "Price": 12900,
      "Name": "Shield of Castle Pledge",
      "Count": -1
    }
  ]
}