{
  "ShopId": 351861,
  "Items": [
    {
      "ItemId": 3986,
      "Price": 30000,
      "Name": "Mercenary Posting Ticket (Sword/Stationary)",
      "Count": -1
    },
    {
      "ItemId": 3987,
      "Price": 40000,
      "Name": "Mercenary Posting Ticket (Spear/Stationary)",
      "Count": -1
    },
    {
      "ItemId": 3988,
      "Price": 50000,
      "Name": "Mercenary Posting Ticket (Bow/Stationary)",
      "Count": -1
    },
    {
      "ItemId": 3989,
      "Price": 150000,
      "Name": "Mercenary Posting Ticket (Cleric/Stationary)",
      "Count": -1
    },
    {
      "ItemId": 3990,
      "Price": 150000,
      "Name": "Mercenary Posting Ticket (Wizard/Stationary)",
      "Count": -1
    },
    {
      "ItemId": 3991,
      "Price": 30000,
      "Name": "Mercenary Posting Ticket (Sword/Mobile)",
      "Count": -1
    },
    {
      "ItemId": 3992,
      "Price": 40000,
      "Name": "Mercenary Posting Ticket (Spear/Mobile)",
      "Count": -1
    },
    {
      "ItemId": 3993,
      "Price": 50000,
      "Name": "Mercenary Posting Ticket (Bow/Mobile)",
      "Count": -1
    },
    {
      "ItemId": 3994,
      "Price": 150000,
      "Name": "Mercenary Posting Ticket (Cleric/Mobile)",
      "Count": -1
    },
    {
      "ItemId": 3995,
      "Price": 150000,
      "Name": "Mercenary Posting Ticket (Wizard/Mobile)",
      "Count": -1
    },
    {
      "ItemId": 6064,
      "Price": 60000,
      "Name": "Greater Mercenary Posting Ticket (Sword/Stationary)",
      "Count": -1
    },
    {
      "ItemId": 6065,
      "Price": 80000,
      "Name": "Greater Mercenary Posting Ticket (Spear/Stationary)",
      "Count": -1
    },
    {
      "ItemId": 6066,
      "Price": 200000,
      "Name": "Greater Mercenary Posting Ticket (Bow/Stationary)",
      "Count": -1
    },
    {
      "ItemId": 6067,
      "Price": 300000,
      "Name": "Greater Mercenary Posting Ticket (Cleric/Stationary)",
      "Count": -1
    },
    {
      "ItemId": 6068,
      "Price": 300000,
      "Name": "Greater Mercenary Posting Ticket (Wizard/Stationary)",
      "Count": -1
    },
    {
      "ItemId": 6069,
      "Price": 60000,
      "Name": "Greater Mercenary Posting Ticket (Sword/Mobile)",
      "Count": -1
    },
    {
      "ItemId": 6070,
      "Price": 80000,
      "Name": "Greater Mercenary Posting Ticket (Spear/Mobile)",
      "Count": -1
    },
    {
      "ItemId": 6071,
      "Price": 100000,
      "Name": "Greater Mercenary Posting Ticket (Bow/Mobile)",
      "Count": -1
    },
    {
      "ItemId": 6072,
      "Price": 300000,
      "Name": "Greater Mercenary Posting Ticket (Cleric/Mobile)",
      "Count": -1
    },
    {
      "ItemId": 6073,
      "Price": 300000,
      "Name": "Greater Mercenary Posting Ticket (Wizard/Mobile)",
      "Count": -1
    }
  ]
}