{
  "ShopId": 352761,
  "Items": [
    {
      "ItemId": 4012,
      "Price": 30000,
      "Name": "Mercenary Posting Ticket (Sword/Stationary)",
      "Count": -1
    },
    {
      "ItemId": 4013,
      "Price": 40000,
      "Name": "Mercenary Posting Ticket (Spear/Stationary)",
      "Count": -1
    },
    {
      "ItemId": 4014,
      "Price": 50000,
      "Name": "Mercenary Posting Ticket (Bow/Stationary)",
      "Count": -1
    },
    {
      "ItemId": 4015,
      "Price": 150000,
      "Name": "Mercenary Posting Ticket (Cleric/Stationary)",
      "Count": -1
    },
    {
      "ItemId": 4016,
      "Price": 150000,
      "Name": "Mercenary Posting Ticket (Wizard/Stationary)",
      "Count": -1
    },
    {
      "ItemId": 4017,
      "Price": 30000,
      "Name": "Mercenary Posting Ticket (Sword/Mobile)",
      "Count": -1
    },
    {
      "ItemId": 4018,
      "Price": 40000,
      "Name": "Mercenary Posting Ticket (Spear/Mobile)",
      "Count": -1
    },
    {
      "ItemId": 4019,
      "Price": 50000,
      "Name": "Mercenary Posting Ticket (Bow/Mobile)",
      "Count": -1
    },
    {
      "ItemId": 4020,
      "Price": 150000,
      "Name": "Mercenary Posting Ticket (Cleric/Mobile)",
      "Count": -1
    },
    {
      "ItemId": 4021,
      "Price": 150000,
      "Name": "Mercenary Posting Ticket (Wizard/Mobile)",
      "Count": -1
    },
    {
      "ItemId": 6090,
      "Price": 60000,
      "Name": "Greater Mercenary Posting Ticket (Sword/Stationary)",
      "Count": -1
    },
    {
      "ItemId": 6091,
      "Price": 80000,
      "Name": "Greater Mercenary Posting Ticket (Spear/Stationary)",
      "Count": -1
    },
    {
      "ItemId": 6092,
      "Price": 100000,
      "Name": "Greater Mercenary Posting Ticket (Bow/Stationary)",
      "Count": -1
    },
    {
      "ItemId": 6093,
      "Price": 300000,
      "Name": "Greater Mercenary Posting Ticket (Cleric/Stationary)",
      "Count": -1
    },
    {
      "ItemId": 6094,
      "Price": 300000,
      "Name": "Greater Mercenary Posting Ticket (Wizard/Stationary)",
      "Count": -1
    },
    {
      "ItemId": 6095,
      "Price": 60000,
      "Name": "Greater Mercenary Posting Ticket (Sword/Mobile)",
      "Count": -1
    },
    {
      "ItemId": 6096,
      "Price": 80000,
      "Name": "Greater Mercenary Posting Ticket (Spear/Mobile)",
      "Count": -1
    },
    {
      "ItemId": 6097,
      "Price": 100000,
      "Name": "Greater Mercenary Posting Ticket (Bow/Mobile)",
      "Count": -1
    },
    {
      "ItemId": 6098,
      "Price": 300000,
      "Name": "Greater Mercenary Posting Ticket (Cleric/Mobile)",
      "Count": -1
    },
    {
      "ItemId": 6099,
      "Price": 300000,
      "Name": "Greater Mercenary Posting Ticket (Wizard/Mobile)",
      "Count": -1
    }
  ]
}