{
  "ShopId": 353181,
  "Items": [
    {
      "ItemId": 5205,
      "Price": 30000,
      "Name": "Mercenary Posting Ticket (Sword/Stationary)",
      "Count": -1
    },
    {
      "ItemId": 5206,
      "Price": 40000,
      "Name": "Mercenary Posting Ticket (Spear/Stationary)",
      "Count": -1
    },
    {
      "ItemId": 5207,
      "Price": 50000,
      "Name": "Mercenary Posting Ticket (Bow/Stationary)",
      "Count": -1
    },
    {
      "ItemId": 5208,
      "Price": 150000,
      "Name": "Mercenary Posting Ticket (Cleric/Stationary)",
      "Count": -1
    },
    {
      "ItemId": 5209,
      "Price": 150000,
      "Name": "Mercenary Posting Ticket (Wizard/Stationary)",
      "Count": -1
    },
    {
      "ItemId": 5210,
      "Price": 30000,
      "Name": "Mercenary Posting Ticket (Sword/Mobile)",
      "Count": -1
    },
    {
      "ItemId": 5211,
      "Price": 40000,
      "Name": "Mercenary Posting Ticket (Spear/Mobile)",
      "Count": -1
    },
    {
      "ItemId": 5212,
      "Price": 50000,
      "Name": "Mercenary Posting Ticket (Bow/Mobile)",
      "Count": -1
    },
    {
      "ItemId": 5213,
      "Price": 150000,
      "Name": "Mercenary Posting Ticket (Cleric/Mobile)",
      "Count": -1
    },
    {
      "ItemId": 5214,
      "Price": 150000,
      "Name": "Mercenary Posting Ticket (Wizard/Mobile)",
      "Count": -1
    },
    {
      "ItemId": 6105,
      "Price": 60000,
      "Name": "Greater Mercenary Posting Ticket (Sword/Stationary)",
      "Count": -1
    },
    {
      "ItemId": 6106,
      "Price": 90000,
      "Name": "Greater Mercenary Posting Ticket (Spear/Stationary)",
      "Count": -1
    },
    {
      "ItemId": 6107,
      "Price": 200000,
      "Name": "Greater Mercenary Posting Ticket (Bow/Stationary)",
      "Count": -1
    },
    {
      "ItemId": 6108,
      "Price": 300000,
      "Name": "Greater Mercenary Posting Ticket (Cleric/Stationary)",
      "Count": -1
    },
    {
      "ItemId": 6109,
      "Price": 300000,
      "Name": "Greater Mercenary Posting Ticket (Wizard/Stationary)",
      "Count": -1
    },
    {
      "ItemId": 6110,
      "Price": 60000,
      "Name": "Greater Mercenary Posting Ticket (Sword/Mobile)",
      "Count": -1
    },
    {
      "ItemId": 6111,
      "Price": 80000,
      "Name": "Greater Mercenary Posting Ticket (Spear/Mobile)",
      "Count": -1
    },
    {
      "ItemId": 6112,
      "Price": 100000,
      "Name": "Greater Mercenary Posting Ticket (Bow/Mobile)",
      "Count": -1
    },
    {
      "ItemId": 6113,
      "Price": 300000,
      "Name": "Greater Mercenary Posting Ticket (Cleric/Mobile)",
      "Count": -1
    },
    {
      "ItemId": 6114,
      "Price": 300000,
      "Name": "Greater Mercenary Posting Ticket (Wizard/Mobile)",
      "Count": -1
    }
  ]
}