{
  "ShopId": 362,
  "Items": [
    {
      "ItemId": 1294,
      "Price": 75,
      "Name": "Spellbook: Defense Aura",
      "Count": -1
    },
    {
      "ItemId": 1095,
      "Price": 75,
      "Name": "Spellbook: Attack Aura",
      "Count": -1
    },
    {
      "ItemId": 1048,
      "Price": 100,
      "Name": "Spellbook: Might",
      "Count": -1
    },
    {
      "ItemId": 1050,
      "Price": 100,
      "Name": "Spellbook: Battle Heal",
      "Count": -1
    },
    {
      "ItemId": 1051,
      "Price": 100,
      "Name": "Spellbook: Vampiric Touch",
      "Count": -1
    },
    {
      "ItemId": 1049,
      "Price": 100,
      "Name": "Spellbook: Ice Bolt",
      "Count": -1
    },
    {
      "ItemId": 1152,
      "Price": 100,
      "Name": "Spellbook: Heal",
      "Count": -1
    },
    {
      "ItemId": 1054,
      "Price": 500,
      "Name": "Spellbook: Group Heal",
      "Count": -1
    },
    {
      "ItemId": 1058,
      "Price": 500,
      "Name": "Spellbook: Shield",
      "Count": -1
    },
    {
      "ItemId": 1099,
      "Price": 500,
      "Name": "Spellbook: Wind Shackle",
      "Count": -1
    },
    {
      "ItemId": 1098,
      "Price": 500,
      "Name": "Spellbook: Wind Walk",
      "Count": -1
    },
    {
      "ItemId": 1056,
      "Price": 500,
      "Name": "Spellbook: Curse: Weakness",
      "Count": -1
    },
    {
      "ItemId": 1055,
      "Price": 500,
      "Name": "Spellbook: Curse: Poison",
      "Count": -1
    },
    {
      "ItemId": 1053,
      "Price": 500,
      "Name": "Spellbook: Cure Poison",
      "Count": -1
    },
    {
      "ItemId": 1052,
      "Price": 500,
      "Name": "Spellbook: Flame Strike",
      "Count": -1
    },
    {
      "ItemId": 1097,
      "Price": 550,
      "Name": "Spellbook: Drain Health",
      "Count": -1
    },
    {
      "ItemId": 1096,
      "Price": 550,
      "Name": "Spellbook: Elemental Heal",
      "Count": -1
    },
    {
      "ItemId": 1386,
      "Price": 800,
      "Name": "Spellbook: Disrupt Undead",
      "Count": -1
    },
    {
      "ItemId": 1514,
      "Price": 800,
      "Name": "Spellbook: Resurrection",
      "Count": -1
    },
    {
      "ItemId": 1372,
      "Price": 800,
      "Name": "Spellbook: Blaze",
      "Count": -1
    },
    {
      "ItemId": 1667,
      "Price": 800,
      "Name": "Spellbook: Summon Shadow",
      "Count": -1
    },
    {
      "ItemId": 1671,
      "Price": 800,
      "Name": "Spellbook: Summon Silhouette",
      "Count": -1
    },
    {
      "ItemId": 1669,
      "Price": 800,
      "Name": "Spellbook: Summon Boxer the Unicorn",
      "Count": -1
    },
    {
      "ItemId": 1403,
      "Price": 800,
      "Name": "Spellbook: Summon Kat the Cat",
      "Count": -1
    },
    {
      "ItemId": 1405,
      "Price": 800,
      "Name": "Spellbook: Servitor Heal",
      "Count": -1
    },
    {
      "ItemId": 1370,
      "Price": 800,
      "Name": "Spellbook: Aqua Swirl",
      "Count": -1
    },
    {
      "ItemId": 1401,
      "Price": 800,
      "Name": "Spellbook: Acumen",
      "Count": -1
    },
    {
      "ItemId": 4916,
      "Price": 800,
      "Name": "Spellbook: Energy Bolt",
      "Count": -1
    },
    {
      "ItemId": 1411,
      "Price": 800,
      "Name": "Spellbook: Aura Burn",
      "Count": -1
    },
    {
      "ItemId": 1513,
      "Price": 800,
      "Name": "Spellbook: Charm",
      "Count": -1
    },
    {
      "ItemId": 1399,
      "Price": 800,
      "Name": "Spellbook: Concentration",
      "Count": -1
    },
    {
      "ItemId": 1515,
      "Price": 800,
      "Name": "Spellbook: Kiss of Eva",
      "Count": -1
    },
    {
      "ItemId": 1371,
      "Price": 800,
      "Name": "Spellbook: Twister",
      "Count": -1
    },
    {
      "ItemId": 1383,
      "Price": 800,
      "Name": "Spellbook: Poison",
      "Count": -1
    },
    {
      "ItemId": 1377,
      "Price": 800,
      "Name": "Spellbook: Poison Recovery",
      "Count": -1
    }
  ]
}