{
  "ShopId": 364,
  "Items": [
    {
      "ItemId": 1529,
      "Price": 96,
      "Name": "Amulet: Dreaming Spirit",
      "Count": -1
    },
    {
      "ItemId": 1525,
      "Price": 96,
      "Name": "Amulet: Life Drain",
      "Count": -1
    },
    {
      "ItemId": 1527,
      "Price": 96,
      "Name": "Amulet: Venom",
      "Count": -1
    },
    {
      "ItemId": 1524,
      "Price": 96,
      "Name": "Amulet: Soul Shield",
      "Count": -1
    },
    {
      "ItemId": 1531,
      "Price": 96,
      "Name": "Amulet: Chill Flame",
      "Count": -1
    },
    {
      "ItemId": 1522,
      "Price": 480,
      "Name": "Amulet: Chant of Battle",
      "Count": -1
    },
    {
      "ItemId": 1526,
      "Price": 480,
      "Name": "Amulet: Fear",
      "Count": -1
    },
    {
      "ItemId": 1534,
      "Price": 800,
      "Name": "Amulet: Madness",
      "Count": -1
    },
    {
      "ItemId": 1537,
      "Price": 800,
      "Name": "Amulet: Seal of Poison",
      "Count": -1
    },
    {
      "ItemId": 1856,
      "Price": 800,
      "Name": "Amulet: Chant of Life",
      "Count": -1
    },
    {
      "ItemId": 1523,
      "Price": 800,
      "Name": "Amulet: Chant of Shielding",
      "Count": -1
    },
    {
      "ItemId": 1521,
      "Price": 800,
      "Name": "Amulet: Chant of Fire",
      "Count": -1
    },
    {
      "ItemId": 1535,
      "Price": 800,
      "Name": "Amulet: Frost Flame",
      "Count": -1
    }
  ]
}