{
  "ShopId": 372,
  "Items": [
    {
      "ItemId": 4445,
      "Price": 5100,
      "Name": "Dye of STR (Str+1 Con-3)",
      "Count": -1
    },
    {
      "ItemId": 4446,
      "Price": 5100,
      "Name": "Dye of STR (Str+1 Dex-3)",
      "Count": -1
    },
    {
      "ItemId": 4447,
      "Price": 5100,
      "Name": "Dye of CON (Con+1 Str-3)",
      "Count": -1
    },
    {
      "ItemId": 4448,
      "Price": 5100,
      "Name": "Dye of CON (Con+1 Dex-3)",
      "Count": -1
    },
    {
      "ItemId": 4449,
      "Price": 5100,
      "Name": "Dye of DEX (Dex+1 Str-3)",
      "Count": -1
    },
    {
      "ItemId": 4450,
      "Price": 5100,
      "Name": "Dye of DEX (Dex+1 Con-3)",
      "Count": -1
    },
    {
      "ItemId": 4451,
      "Price": 5100,
      "Name": "Dye of INT (Int+1 Men-3)",
      "Count": -1
    },
    {
      "ItemId": 4452,
      "Price": 5100,
      "Name": "Dye of INT (Int+1 Wit-3)",
      "Count": -1
    },
    {
      "ItemId": 4453,
      "Price": 5100,
      "Name": "Dye of MEN (Men+1 Int-3)",
      "Count": -1
    },
    {
      "ItemId": 4454,
      "Price": 5100,
      "Name": "Dye of MEN (Men+1 Wit-3)",
      "Count": -1
    },
    {
      "ItemId": 4455,
      "Price": 5100,
      "Name": "Dye of WIT (Wit+1 Int-3)",
      "Count": -1
    },
    {
      "ItemId": 4456,
      "Price": 5100,
      "Name": "Dye of WIT (Wit+1 Men-3)",
      "Count": -1
    },
    {
      "ItemId": 4457,
      "Price": 12000,
      "Name": "Dye of STR (Str+1 Con-2)",
      "Count": -1
    },
    {
      "ItemId": 4458,
      "Price": 12000,
      "Name": "Dye of STR (Str+1 Dex-2)",
      "Count": -1
    },
    {
      "ItemId": 4459,
      "Price": 12000,
      "Name": "Dye of CON (Con+1 Str-2)",
      "Count": -1
    },
    {
      "ItemId": 4460,
      "Price": 12000,
      "Name": "Dye of CON (Con+1 Dex-2)",
      "Count": -1
    },
    {
      "ItemId": 4461,
      "Price": 12000,
      "Name": "Dye of DEX (Dex+1 Str-2)",
      "Count": -1
    },
    {
      "ItemId": 4462,
      "Price": 12000,
      "Name": "Dye of DEX (Dex+1 Con-2)",
      "Count": -1
    },
    {
      "ItemId": 4463,
      "Price": 12000,
      "Name": "Dye of INT (Int+1 Men-2)",
      "Count": -1
    },
    {
      "ItemId": 4464,
      "Price": 12000,
      "Name": "Dye of INT (Int+1 Wit-2)",
      "Count": -1
    },
    {
      "ItemId": 4465,
      "Price": 12000,
      "Name": "Dye of MEN (Men+1 Int-2)",
      "Count": -1
    },
    {
      "ItemId": 4466,
      "Price": 12000,
      "Name": "Dye of MEN (Men+1 Wit-2)",
      "Count": -1
    },
    {
      "ItemId": 4467,
      "Price": 12000,
      "Name": "Dye of WIT (Wit+1 Int-2)",
      "Count": -1
    },
    {
      "ItemId": 4468,
      "Price": 12000,
      "Name": "Dye of WIT (Wit+1 Men-2)",
      "Count": -1
    },
    {
      "ItemId": 4481,
      "Price": 12000,
      "Name": "Greater Dye of STR (Str+1 Con-3)",
      "Count": -1
    },
    {
      "ItemId": 4482,
      "Price": 12000,
      "Name": "Greater Dye of STR (Str+1 Dex-3)",
      "Count": -1
    },
    {
      "ItemId": 4483,
      "Price": 12000,
      "Name": "Greater Dye of CON(Con+1 Str-3)",
      "Count": -1
    },
    {
      "ItemId": 4484,
      "Price": 12000,
      "Name": "Greater Dye of CON(Con+1 Dex-3)",
      "Count": -1
    },
    {
      "ItemId": 4485,
      "Price": 12000,
      "Name": "Greater Dye of DEX (Dex+1 Str-3)",
      "Count": -1
    },
    {
      "ItemId": 4486,
      "Price": 12000,
      "Name": "Greater Dye of DEX (Dex+1 Con-3)",
      "Count": -1
    },
    {
      "ItemId": 4487,
      "Price": 12000,
      "Name": "Greater Dye of INT (Int+1 Men-3)",
      "Count": -1
    },
    {
      "ItemId": 4488,
      "Price": 12000,
      "Name": "Greater Dye of INT (Int+1 Wit-3)",
      "Count": -1
    },
    {
      "ItemId": 4489,
      "Price": 12000,
      "Name": "Greater Dye of MEN (Men+1 Int-3)",
      "Count": -1
    },
    {
      "ItemId": 4490,
      "Price": 12000,
      "Name": "Greater Dye of MEN (Men+1 Wit-3)",
      "Count": -1
    },
    {
      "ItemId": 4491,
      "Price": 12000,
      "Name": "Greater Dye of WIT (Wit+1 Int-3)",
      "Count": -1
    },
    {
      "ItemId": 4492,
      "Price": 12000,
      "Name": "Greater Dye of WIT (Wit+1 Men-3)",
      "Count": -1
    }
  ]
}