{
  "ShopId": 40,
  "Items": [
    {
      "ItemId": 462,
      "Price": 92,
      "Name": "Stockings",
      "Count": -1
    },
    {
      "ItemId": 426,
      "Price": 147,
      "Name": "Tunic",
      "Count": -1
    },
    {
      "ItemId": 1103,
      "Price": 1520,
      "Name": "Cotton Stockings",
      "Count": -1
    },
    {
      "ItemId": 1100,
      "Price": 2430,
      "Name": "Cotton Tunic",
      "Count": -1
    },
    {
      "ItemId": 463,
      "Price": 1520,
      "Name": "Feriotic Stockings",
      "Count": -1
    },
    {
      "ItemId": 428,
      "Price": 2430,
      "Name": "Feriotic Tunic",
      "Count": -1
    },
    {
      "ItemId": 464,
      "Price": 4970,
      "Name": "Leather Stockings",
      "Count": -1
    },
    {
      "ItemId": 429,
      "Price": 7960,
      "Name": "Leather Tunic",
      "Count": -1
    },
    {
      "ItemId": 1104,
      "Price": 12700,
      "Name": "Stockings of Devotion",
      "Count": -1
    },
    {
      "ItemId": 1101,
      "Price": 20300,
      "Name": "Tunic of Devotion",
      "Count": -1
    },
    {
      "ItemId": 18,
      "Price": 38,
      "Name": "Leather Shield",
      "Count": -1
    },
    {
      "ItemId": 19,
      "Price": 638,
      "Name": "Small Shield",
      "Count": -1
    },
    {
      "ItemId": 20,
      "Price": 2780,
      "Name": "Buckler",
      "Count": -1
    },
    {
      "ItemId": 102,
      "Price": 7110,
      "Name": "Round Shield",
      "Count": -1
    },
    {
      "ItemId": 48,
      "Price": 37,
      "Name": "Short Gloves",
      "Count": -1
    },
    {
      "ItemId": 1119,
      "Price": 607,
      "Name": "Short Leather Gloves",
      "Count": -1
    },
    {
      "ItemId": 49,
      "Price": 2650,
      "Name": "Gloves",
      "Count": -1
    },
    {
      "ItemId": 50,
      "Price": 6770,
      "Name": "Leather Gloves",
      "Count": -1
    },
    {
      "ItemId": 1121,
      "Price": 7,
      "Name": "Apprentice's Shoes",
      "Count": -1
    },
    {
      "ItemId": 35,
      "Price": 37,
      "Name": "Cloth Shoes",
      "Count": -1
    },
    {
      "ItemId": 36,
      "Price": 37,
      "Name": "Leather Sandals",
      "Count": -1
    },
    {
      "ItemId": 1129,
      "Price": 607,
      "Name": "Crude Leather Shoes",
      "Count": -1
    },
    {
      "ItemId": 1122,
      "Price": 607,
      "Name": "Cotton Shoes",
      "Count": -1
    },
    {
      "ItemId": 37,
      "Price": 2650,
      "Name": "Leather Shoes",
      "Count": -1
    },
    {
      "ItemId": 38,
      "Price": 6770,
      "Name": "Low Boots",
      "Count": -1
    },
    {
      "ItemId": 41,
      "Price": 55,
      "Name": "Cloth Cap",
      "Count": -1
    },
    {
      "ItemId": 42,
      "Price": 911,
      "Name": "Leather Cap",
      "Count": -1
    },
    {
      "ItemId": 43,
      "Price": 3980,
      "Name": "Wooden Helmet",
      "Count": -1
    },
    {
      "ItemId": 44,
      "Price": 10200,
      "Name": "Leather Helmet",
      "Count": -1
    }
  ]
}