{
  "ShopId": 41,
  "Items": [
    {
      "ItemId": 118,
      "Price": 65,
      "Name": "Necklace of Magic",
      "Count": -1
    },
    {
      "ItemId": 906,
      "Price": 1080,
      "Name": "Necklace of Knowledge",
      "Count": -1
    },
    {
      "ItemId": 907,
      "Price": 4680,
      "Name": "Necklace of Anguish",
      "Count": -1
    },
    {
      "ItemId": 908,
      "Price": 11900,
      "Name": "Necklace of Wisdom",
      "Count": -1
    },
    {
      "ItemId": 112,
      "Price": 48,
      "Name": "Apprentice's Earring",
      "Count": -1
    },
    {
      "ItemId": 113,
      "Price": 811,
      "Name": "Mystic's Earring",
      "Count": -1
    },
    {
      "ItemId": 114,
      "Price": 3510,
      "Name": "Earring of Strength",
      "Count": -1
    },
    {
      "ItemId": 115,
      "Price": 3510,
      "Name": "Earring of Wisdom",
      "Count": -1
    },
    {
      "ItemId": 845,
      "Price": 8890,
      "Name": "Cat's Eye Earring",
      "Count": -1
    },
    {
      "ItemId": 116,
      "Price": 32,
      "Name": "Magic Ring",
      "Count": -1
    },
    {
      "ItemId": 875,
      "Price": 540,
      "Name": "Ring of Knowledge",
      "Count": -1
    },
    {
      "ItemId": 876,
      "Price": 2340,
      "Name": "Ring of Anguish",
      "Count": -1
    },
    {
      "ItemId": 877,
      "Price": 5920,
      "Name": "Ring of Wisdom",
      "Count": -1
    }
  ]
}