{
  "ShopId": 42,
  "Items": [
    {
      "ItemId": 1835,
      "Price": 7,
      "Name": "Soulshot: No Grade",
      "Count": -1
    },
    {
      "ItemId": 2509,
      "Price": 15,
      "Name": "Spiritshot: No Grade",
      "Count": -1
    },
    {
      "ItemId": 3947,
      "Price": 35,
      "Name": "Blessed Spiritshot: No Grade",
      "Count": -1
    },
    {
      "ItemId": 5146,
      "Price": 11550,
      "Name": "Compressed Package of Blessed Spiritshots: No Grade",
      "Count": -1
    },
    {
      "ItemId": 5140,
      "Price": 4950,
      "Name": "Compressed Package of Spiritshots: No Grade",
      "Count": -1
    },
    {
      "ItemId": 5134,
      "Price": 2300,
      "Name": "Compressed Package of Soulshots: No Grade",
      "Count": -1
    },
    {
      "ItemId": 5262,
      "Price": 38500,
      "Name": "Greater Compressed Package of Blessed Spiritshots: No-grade",
      "Count": -1
    },
    {
      "ItemId": 5256,
      "Price": 16500,
      "Name": "Greater Compressed Package of Spiritshots: No-grade",
      "Count": -1
    },
    {
      "ItemId": 5250,
      "Price": 7700,
      "Name": "Greater Compressed Package of Soulshots: No-grade",
      "Count": -1
    },
    {
      "ItemId": 17,
      "Price": 2,
      "Name": "Wooden Arrow",
      "Count": -1
    },
    {
      "ItemId": 1341,
      "Price": 2,
      "Name": "Bone Arrow",
      "Count": -1
    },
    {
      "ItemId": 1060,
      "Price": 90,
      "Name": "Lesser Healing Potion",
      "Count": -1
    },
    {
      "ItemId": 1831,
      "Price": 75,
      "Name": "Antidote",
      "Count": -1
    },
    {
      "ItemId": 1833,
      "Price": 75,
      "Name": "Bandage",
      "Count": -1
    },
    {
      "ItemId": 734,
      "Price": 1200,
      "Name": "Haste Potion",
      "Count": -1
    },
    {
      "ItemId": 735,
      "Price": 2400,
      "Name": "Potion of Alacrity",
      "Count": -1
    },
    {
      "ItemId": 6035,
      "Price": 2400,
      "Name": "Magic Haste Potion",
      "Count": -1
    },
    {
      "ItemId": 736,
      "Price": 400,
      "Name": "Scroll of Escape",
      "Count": -1
    },
    {
      "ItemId": 737,
      "Price": 2000,
      "Name": "Scroll of Resurrection",
      "Count": -1
    },
    {
      "ItemId": 3031,
      "Price": 400,
      "Name": "Spirit Ore",
      "Count": -1
    },
    {
      "ItemId": 1785,
      "Price": 250,
      "Name": "Soul Ore",
      "Count": -1
    },
    {
      "ItemId": 5589,
      "Price": 100,
      "Name": "Energy Stone",
      "Count": -1
    },
    {
      "ItemId": 1661,
      "Price": 1000,
      "Name": "Thief Key",
      "Count": -1
    },
    {
      "ItemId": 5192,
      "Price": 100,
      "Name": "Rope of Magic: D-Grade",
      "Count": -1
    },
    {
      "ItemId": 8594,
      "Price": 2000,
      "Name": "Scroll: Recovery (No Grade)",
      "Count": -1
    },
    {
      "ItemId": 8595,
      "Price": 4800,
      "Name": "Scroll: Recovery (Grade D)",
      "Count": -1
    },
    {
      "ItemId": 8622,
      "Price": 1300,
      "Name": "Elixir of Life (No Grade)",
      "Count": -1
    },
    {
      "ItemId": 8623,
      "Price": 3450,
      "Name": "Elixir of Life (D-Grade)",
      "Count": -1
    },
    {
      "ItemId": 8628,
      "Price": 1400,
      "Name": "Elixir of Mental Strength (No Grade)",
      "Count": -1
    },
    {
      "ItemId": 8629,
      "Price": 3400,
      "Name": "Elixir of Mental Strength (D-Grade)",
      "Count": -1
    },
    {
      "ItemId": 8634,
      "Price": 600,
      "Name": "Elixir of CP (No Grade)",
      "Count": -1
    },
    {
      "ItemId": 8635,
      "Price": 1400,
      "Name": "Elixir of CP (D-Grade)",
      "Count": -1
    },
    {
      "ItemId": 8615,
      "Price": 35000,
      "Name": "Summoning Crystal",
      "Count": -1
    },
    {
      "ItemId": 4625,
      "Price": 500,
      "Name": "Dice (Heart)",
      "Count": -1
    },
    {
      "ItemId": 4626,
      "Price": 500,
      "Name": "Dice (Spade)",
      "Count": -1
    },
    {
      "ItemId": 4627,
      "Price": 500,
      "Name": "Dice (Clover)",
      "Count": -1
    },
    {
      "ItemId": 4628,
      "Price": 500,
      "Name": "Dice (Diamond)",
      "Count": -1
    }
  ]
}