{
  "ShopId": 420,
  "Items": [
    {
      "ItemId": 7807,
      "Price": 59,
      "Name": "Green Colored Lure - For Beginners",
      "Count": -1
    },
    {
      "ItemId": 7808,
      "Price": 82,
      "Name": "Purple Colored Lure - For Beginners",
      "Count": -1
    },
    {
      "ItemId": 7809,
      "Price": 71,
      "Name": "Yellow Colored Lure - For Beginners",
      "Count": -1
    },
    {
      "ItemId": 6520,
      "Price": 141,
      "Name": "Green Colored Lure",
      "Count": -1
    },
    {
      "ItemId": 6523,
      "Price": 212,
      "Name": "Purple Colored Lure",
      "Count": -1
    },
    {
      "ItemId": 6526,
      "Price": 177,
      "Name": "Yellow Colored Lure",
      "Count": -1
    },
    {
      "ItemId": 8506,
      "Price": 141,
      "Name": "Green Luminous Lure",
      "Count": -1
    },
    {
      "ItemId": 8509,
      "Price": 212,
      "Name": "Purple Luminous Lure",
      "Count": -1
    },
    {
      "ItemId": 8512,
      "Price": 177,
      "Name": "Yellow Luminous Lure",
      "Count": -1
    },
    {
      "ItemId": 8484,
      "Price": 282,
      "Name": "Prize-Winning Fishing Lure",
      "Count": -1
    },
    {
      "ItemId": 8485,
      "Price": 282,
      "Name": "Prize-Winning Night Fishing Lure",
      "Count": -1
    },
    {
      "ItemId": 8486,
      "Price": 118,
      "Name": "Prize-Winning Novice Fishing Lure",
      "Count": -1
    },
    {
      "ItemId": 6529,
      "Price": 35357,
      "Name": "Baby Duck Rod",
      "Count": -1
    },
    {
      "ItemId": 6530,
      "Price": 117857,
      "Name": "Albatross Rod",
      "Count": -1
    },
    {
      "ItemId": 6531,
      "Price": 471429,
      "Name": "Pelican Rod",
      "Count": -1
    },
    {
      "ItemId": 6532,
      "Price": 1414286,
      "Name": "KingFisher Rod",
      "Count": -1
    },
    {
      "ItemId": 6533,
      "Price": 4714286,
      "Name": "Cygnus Pole",
      "Count": -1
    },
    {
      "ItemId": 6534,
      "Price": 11785714,
      "Name": "Triton Pole",
      "Count": -1
    },
    {
      "ItemId": 7561,
      "Price": 118,
      "Name": "Fishing Manual",
      "Count": -1
    },
    {
      "ItemId": 8193,
      "Price": 5893,
      "Name": "Fisherman's Potion - Green",
      "Count": -1
    },
    {
      "ItemId": 8194,
      "Price": 5893,
      "Name": "Fisherman's Potion - Jade",
      "Count": -1
    },
    {
      "ItemId": 8195,
      "Price": 5893,
      "Name": "Fisherman's Potion - Blue",
      "Count": -1
    },
    {
      "ItemId": 8196,
      "Price": 5893,
      "Name": "Fisherman's Potion - Yellow",
      "Count": -1
    },
    {
      "ItemId": 8197,
      "Price": 5893,
      "Name": "Fisherman's Potion - Orange",
      "Count": -1
    },
    {
      "ItemId": 8198,
      "Price": 5893,
      "Name": "Fisherman's Potion - Purple",
      "Count": -1
    },
    {
      "ItemId": 8199,
      "Price": 5893,
      "Name": "Fisherman's Potion - Red",
      "Count": -1
    },
    {
      "ItemId": 8200,
      "Price": 5893,
      "Name": "Fisherman's Potion - White",
      "Count": -1
    },
    {
      "ItemId": 8202,
      "Price": 5893,
      "Name": "Fishing Potion",
      "Count": -1
    }
  ]
}