{
  "ShopId": 5804,
  "Items": [
    {
      "ItemId": 1835,
      "Price": 10,
      "Name": "Soulshot: No Grade",
      "Count": -1
    },
    {
      "ItemId": 2509,
      "Price": 22,
      "Name": "Spiritshot: No Grade",
      "Count": -1
    },
    {
      "ItemId": 3947,
      "Price": 52,
      "Name": "Blessed Spiritshot: No Grade",
      "Count": -1
    },
    {
      "ItemId": 5146,
      "Price": 17325,
      "Name": "Compressed Package of Blessed Spiritshots: No Grade",
      "Count": -1
    },
    {
      "ItemId": 5140,
      "Price": 7425,
      "Name": "Compressed Package of Spiritshots: No Grade",
      "Count": -1
    },
    {
      "ItemId": 5134,
      "Price": 3450,
      "Name": "Compressed Package of Soulshots: No Grade",
      "Count": -1
    },
    {
      "ItemId": 5262,
      "Price": 57750,
      "Name": "Greater Compressed Package of Blessed Spiritshots: No-grade",
      "Count": -1
    },
    {
      "ItemId": 5256,
      "Price": 24750,
      "Name": "Greater Compressed Package of Spiritshots: No-grade",
      "Count": -1
    },
    {
      "ItemId": 5250,
      "Price": 11550,
      "Name": "Greater Compressed Package of Soulshots: No-grade",
      "Count": -1
    },
    {
      "ItemId": 17,
      "Price": 3,
      "Name": "Wooden Arrow",
      "Count": -1
    },
    {
      "ItemId": 1341,
      "Price": 4,
      "Name": "Bone Arrow",
      "Count": -1
    },
    {
      "ItemId": 1342,
      "Price": 7,
      "Name": "Fine Steel Arrow",
      "Count": -1
    },
    {
      "ItemId": 1060,
      "Price": 135,
      "Name": "Lesser Healing Potion",
      "Count": -1
    },
    {
      "ItemId": 1061,
      "Price": 495,
      "Name": "Healing Potion",
      "Count": -1
    },
    {
      "ItemId": 1831,
      "Price": 112,
      "Name": "Antidote",
      "Count": -1
    },
    {
      "ItemId": 1832,
      "Price": 270,
      "Name": "Greater Antidote",
      "Count": -1
    },
    {
      "ItemId": 1833,
      "Price": 112,
      "Name": "Bandage",
      "Count": -1
    },
    {
      "ItemId": 1834,
      "Price": 270,
      "Name": "Emergency Dressing",
      "Count": -1
    },
    {
      "ItemId": 734,
      "Price": 1800,
      "Name": "Haste Potion",
      "Count": -1
    },
    {
      "ItemId": 735,
      "Price": 3600,
      "Name": "Potion of Alacrity",
      "Count": -1
    },
    {
      "ItemId": 6035,
      "Price": 3600,
      "Name": "Magic Haste Potion",
      "Count": -1
    },
    {
      "ItemId": 6037,
      "Price": 150,
      "Name": "Waking Scroll",
      "Count": -1
    },
    {
      "ItemId": 736,
      "Price": 600,
      "Name": "Scroll of Escape",
      "Count": -1
    },
    {
      "ItemId": 737,
      "Price": 3000,
      "Name": "Scroll of Resurrection",
      "Count": -1
    },
    {
      "ItemId": 1829,
      "Price": 750,
      "Name": "Scroll of Escape: Clan Hall",
      "Count": -1
    },
    {
      "ItemId": 3031,
      "Price": 600,
      "Name": "Spirit Ore",
      "Count": -1
    },
    {
      "ItemId": 1785,
      "Price": 375,
      "Name": "Soul Ore",
      "Count": -1
    },
    {
      "ItemId": 5589,
      "Price": 150,
      "Name": "Energy Stone",
      "Count": -1
    },
    {
      "ItemId": 1661,
      "Price": 1500,
      "Name": "Thief Key",
      "Count": -1
    },
    {
      "ItemId": 5192,
      "Price": 150,
      "Name": "Rope of Magic: D-Grade",
      "Count": -1
    },
    {
      "ItemId": 5193,
      "Price": 225,
      "Name": "Rope of Magic: C-Grade",
      "Count": -1
    },
    {
      "ItemId": 5194,
      "Price": 375,
      "Name": "Rope of Magic: B-Grade",
      "Count": -1
    },
    {
      "ItemId": 2130,
      "Price": 1500,
      "Name": "Gemstone D",
      "Count": -1
    },
    {
      "ItemId": 8594,
      "Price": 3000,
      "Name": "Scroll: Recovery (No Grade)",
      "Count": -1
    },
    {
      "ItemId": 8595,
      "Price": 7200,
      "Name": "Scroll: Recovery (Grade D)",
      "Count": -1
    },
    {
      "ItemId": 8596,
      "Price": 21000,
      "Name": "Scroll: Recovery (Grade C)",
      "Count": -1
    },
    {
      "ItemId": 8597,
      "Price": 42000,
      "Name": "Scroll: Recovery (Grade B)",
      "Count": -1
    },
    {
      "ItemId": 8622,
      "Price": 1950,
      "Name": "Elixir of Life (No Grade)",
      "Count": -1
    },
    {
      "ItemId": 8623,
      "Price": 5175,
      "Name": "Elixir of Life (D-Grade)",
      "Count": -1
    },
    {
      "ItemId": 8624,
      "Price": 10800,
      "Name": "Elixir of Life (C-Grade)",
      "Count": -1
    },
    {
      "ItemId": 8629,
      "Price": 5100,
      "Name": "Elixir of Mental Strength (D-Grade)",
      "Count": -1
    },
    {
      "ItemId": 8634,
      "Price": 900,
      "Name": "Elixir of CP (No Grade)",
      "Count": -1
    },
    {
      "ItemId": 8635,
      "Price": 2100,
      "Name": "Elixir of CP (D-Grade)",
      "Count": -1
    },
    {
      "ItemId": 8636,
      "Price": 4500,
      "Name": "Elixir of CP (C-Grade)",
      "Count": -1
    },
    {
      "ItemId": 8637,
      "Price": 6000,
      "Name": "Elixir of CP (B-Grade)",
      "Count": -1
    },
    {
      "ItemId": 8615,
      "Price": 52500,
      "Name": "Summoning Crystal",
      "Count": -1
    },
    {
      "ItemId": 4625,
      "Price": 750,
      "Name": "Dice (Heart)",
      "Count": -1
    },
    {
      "ItemId": 4626,
      "Price": 750,
      "Name": "Dice (Spade)",
      "Count": -1
    },
    {
      "ItemId": 4627,
      "Price": 750,
      "Name": "Dice (Clover)",
      "Count": -1
    },
    {
      "ItemId": 4628,
      "Price": 750,
      "Name": "Dice (Diamond)",
      "Count": -1
    }
  ]
}