{
  "ShopId": 76,
  "Items": [
    {
      "ItemId": 7,
      "Price": 736,
      "Name": "Apprentice's Rod",
      "Count": -1
    },
    {
      "ItemId": 308,
      "Price": 736,
      "Name": "Buffalo's Horn",
      "Count": -1
    },
    {
      "ItemId": 8,
      "Price": 11988,
      "Name": "Willow Staff",
      "Count": -1
    },
    {
      "ItemId": 99,
      "Price": 11988,
      "Name": "Apprentice's Spellbook",
      "Count": -1
    },
    {
      "ItemId": 9,
      "Price": 51882,
      "Name": "Cedar Staff",
      "Count": -1
    },
    {
      "ItemId": 176,
      "Price": 130426,
      "Name": "Journeyman's Staff",
      "Count": -1
    },
    {
      "ItemId": 310,
      "Price": 130426,
      "Name": "Relic of The Saints",
      "Count": -1
    }
  ]
}