{
  "ShopId": 81,
  "Items": [
    {
      "ItemId": 1,
      "Price": 736,
      "Name": "Short Sword",
      "Count": -1
    },
    {
      "ItemId": 4,
      "Price": 736,
      "Name": "Club",
      "Count": -1
    },
    {
      "ItemId": 11,
      "Price": 736,
      "Name": "Bone Dagger",
      "Count": -1
    },
    {
      "ItemId": 13,
      "Price": 736,
      "Name": "Short Bow",
      "Count": -1
    },
    {
      "ItemId": 3,
      "Price": 11988,
      "Name": "Broadsword",
      "Count": -1
    },
    {
      "ItemId": 152,
      "Price": 7739,
      "Name": "Heavy Chisel",
      "Count": -1
    },
    {
      "ItemId": 12,
      "Price": 11988,
      "Name": "Knife",
      "Count": -1
    },
    {
      "ItemId": 215,
      "Price": 11988,
      "Name": "Doom Dagger",
      "Count": -1
    },
    {
      "ItemId": 14,
      "Price": 11988,
      "Name": "Bow",
      "Count": -1
    },
    {
      "ItemId": 5,
      "Price": 11988,
      "Name": "Mace",
      "Count": -1
    },
    {
      "ItemId": 153,
      "Price": 17742,
      "Name": "Sickle",
      "Count": -1
    },
    {
      "ItemId": 1333,
      "Price": 51882,
      "Name": "Brandish",
      "Count": -1
    },
    {
      "ItemId": 66,
      "Price": 51882,
      "Name": "Gladius",
      "Count": -1
    },
    {
      "ItemId": 67,
      "Price": 51882,
      "Name": "Orcish Sword",
      "Count": -1
    },
    {
      "ItemId": 122,
      "Price": 51882,
      "Name": "Handmade Sword",
      "Count": -1
    },
    {
      "ItemId": 154,
      "Price": 51882,
      "Name": "Dwarven Mace",
      "Count": -1
    },
    {
      "ItemId": 216,
      "Price": 51882,
      "Name": "Dirk",
      "Count": -1
    },
    {
      "ItemId": 271,
      "Price": 51882,
      "Name": "Hunting Bow",
      "Count": -1
    },
    {
      "ItemId": 2,
      "Price": 130426,
      "Name": "Long Sword",
      "Count": -1
    },
    {
      "ItemId": 218,
      "Price": 130426,
      "Name": "Throwing Knife",
      "Count": -1
    },
    {
      "ItemId": 272,
      "Price": 130426,
      "Name": "Forest Bow",
      "Count": -1
    },
    {
      "ItemId": 15,
      "Price": 130426,
      "Name": "Short Spear",
      "Count": -1
    },
    {
      "ItemId": 5284,
      "Price": 234000,
      "Name": "Zweihander",
      "Count": -1
    },
    {
      "ItemId": 253,
      "Price": 736,
      "Name": "Spiked Gloves",
      "Count": -1
    },
    {
      "ItemId": 254,
      "Price": 11988,
      "Name": "Iron Gloves",
      "Count": -1
    },
    {
      "ItemId": 255,
      "Price": 51882,
      "Name": "Fox Claw Gloves",
      "Count": -1
    },
    {
      "ItemId": 256,
      "Price": 130426,
      "Name": "Cestus",
      "Count": -1
    }
  ]
}