{
  "ShopId": 84,
  "Items": [
    {
      "ItemId": 462,
      "Price": 88,
      "Name": "Stockings",
      "Count": -1
    },
    {
      "ItemId": 426,
      "Price": 140,
      "Name": "Tunic",
      "Count": -1
    },
    {
      "ItemId": 1103,
      "Price": 1457,
      "Name": "Cotton Stockings",
      "Count": -1
    },
    {
      "ItemId": 1100,
      "Price": 2330,
      "Name": "Cotton Tunic",
      "Count": -1
    },
    {
      "ItemId": 463,
      "Price": 1457,
      "Name": "Feriotic Stockings",
      "Count": -1
    },
    {
      "ItemId": 428,
      "Price": 2330,
      "Name": "Feriotic Tunic",
      "Count": -1
    },
    {
      "ItemId": 464,
      "Price": 4766,
      "Name": "Leather Stockings",
      "Count": -1
    },
    {
      "ItemId": 429,
      "Price": 7634,
      "Name": "Leather Tunic",
      "Count": -1
    },
    {
      "ItemId": 1104,
      "Price": 12180,
      "Name": "Stockings of Devotion",
      "Count": -1
    },
    {
      "ItemId": 1101,
      "Price": 19468,
      "Name": "Tunic of Devotion",
      "Count": -1
    },
    {
      "ItemId": 18,
      "Price": 37,
      "Name": "Leather Shield",
      "Count": -1
    },
    {
      "ItemId": 19,
      "Price": 611,
      "Name": "Small Shield",
      "Count": -1
    },
    {
      "ItemId": 20,
      "Price": 2666,
      "Name": "Buckler",
      "Count": -1
    },
    {
      "ItemId": 102,
      "Price": 6818,
      "Name": "Round Shield",
      "Count": -1
    },
    {
      "ItemId": 48,
      "Price": 35,
      "Name": "Short Gloves",
      "Count": -1
    },
    {
      "ItemId": 1119,
      "Price": 582,
      "Name": "Short Leather Gloves",
      "Count": -1
    },
    {
      "ItemId": 49,
      "Price": 2541,
      "Name": "Gloves",
      "Count": -1
    },
    {
      "ItemId": 50,
      "Price": 6492,
      "Name": "Leather Gloves",
      "Count": -1
    },
    {
      "ItemId": 1121,
      "Price": 7,
      "Name": "Apprentice's Shoes",
      "Count": -1
    },
    {
      "ItemId": 35,
      "Price": 35,
      "Name": "Cloth Shoes",
      "Count": -1
    },
    {
      "ItemId": 36,
      "Price": 35,
      "Name": "Leather Sandals",
      "Count": -1
    },
    {
      "ItemId": 1129,
      "Price": 582,
      "Name": "Crude Leather Shoes",
      "Count": -1
    },
    {
      "ItemId": 1122,
      "Price": 582,
      "Name": "Cotton Shoes",
      "Count": -1
    },
    {
      "ItemId": 37,
      "Price": 2541,
      "Name": "Leather Shoes",
      "Count": -1
    },
    {
      "ItemId": 38,
      "Price": 6492,
      "Name": "Low Boots",
      "Count": -1
    },
    {
      "ItemId": 41,
      "Price": 52,
      "Name": "Cloth Cap",
      "Count": -1
    },
    {
      "ItemId": 42,
      "Price": 873,
      "Name": "Leather Cap",
      "Count": -1
    },
    {
      "ItemId": 43,
      "Price": 3816,
      "Name": "Wooden Helmet",
      "Count": -1
    },
    {
      "ItemId": 44,
      "Price": 9782,
      "Name": "Leather Helmet",
      "Count": -1
    }
  ]
}