{
  "ShopId": 87,
  "Items": [
    {
      "ItemId": 2,
      "Price": 146074,
      "Name": "Long Sword",
      "Count": -1
    },
    {
      "ItemId": 218,
      "Price": 146074,
      "Name": "Throwing Knife",
      "Count": -1
    },
    {
      "ItemId": 272,
      "Price": 146074,
      "Name": "Forest Bow",
      "Count": -1
    },
    {
      "ItemId": 15,
      "Price": 146074,
      "Name": "Short Spear",
      "Count": -1
    },
    {
      "ItemId": 68,
      "Price": 262074,
      "Name": "Falchion",
      "Count": -1
    },
    {
      "ItemId": 219,
      "Price": 262074,
      "Name": "Sword Breaker",
      "Count": -1
    },
    {
      "ItemId": 273,
      "Price": 262074,
      "Name": "Composition Bow",
      "Count": -1
    },
    {
      "ItemId": 155,
      "Price": 262074,
      "Name": "Buzdygan",
      "Count": -1
    },
    {
      "ItemId": 87,
      "Price": 262074,
      "Name": "Iron Hammer",
      "Count": -1
    },
    {
      "ItemId": 16,
      "Price": 262074,
      "Name": "Long Spear",
      "Count": -1
    },
    {
      "ItemId": 123,
      "Price": 439296,
      "Name": "Saber",
      "Count": -1
    },
    {
      "ItemId": 7880,
      "Price": 439296,
      "Name": "Steel Sword",
      "Count": -1
    },
    {
      "ItemId": 220,
      "Price": 439296,
      "Name": "Crafted Dagger",
      "Count": -1
    },
    {
      "ItemId": 221,
      "Price": 439296,
      "Name": "Assassin Knife",
      "Count": -1
    },
    {
      "ItemId": 274,
      "Price": 439296,
      "Name": "Strengthened Bow",
      "Count": -1
    },
    {
      "ItemId": 156,
      "Price": 439296,
      "Name": "Hand Axe",
      "Count": -1
    },
    {
      "ItemId": 166,
      "Price": 439296,
      "Name": "Heavy Mace",
      "Count": -1
    },
    {
      "ItemId": 168,
      "Price": 439296,
      "Name": "Work Hammer",
      "Count": -1
    },
    {
      "ItemId": 291,
      "Price": 439296,
      "Name": "Trident",
      "Count": -1
    },
    {
      "ItemId": 69,
      "Price": 691704,
      "Name": "Bastard Sword",
      "Count": -1
    },
    {
      "ItemId": 222,
      "Price": 691704,
      "Name": "Poniard Dagger",
      "Count": -1
    },
    {
      "ItemId": 275,
      "Price": 691704,
      "Name": "Long Bow",
      "Count": -1
    },
    {
      "ItemId": 277,
      "Price": 691704,
      "Name": "Dark Elven Bow",
      "Count": -1
    },
    {
      "ItemId": 292,
      "Price": 691704,
      "Name": "Pike",
      "Count": -1
    },
    {
      "ItemId": 295,
      "Price": 691704,
      "Name": "Dwarven Trident",
      "Count": -1
    },
    {
      "ItemId": 256,
      "Price": 146074,
      "Name": "Cestus",
      "Count": -1
    },
    {
      "ItemId": 257,
      "Price": 262074,
      "Name": "Viper's Fang",
      "Count": -1
    },
    {
      "ItemId": 258,
      "Price": 439296,
      "Name": "Bagh-Nakh",
      "Count": -1
    },
    {
      "ItemId": 259,
      "Price": 691704,
      "Name": "Single-Edged Jamadhr",
      "Count": -1
    }
  ]
}