{
  "ShopId": 9,
  "Items": [
    {
      "ItemId": 4445,
      "Price": 5100,
      "Name": "Dye of STR (Str+1 Con-3)",
      "Count": -1
    },
    {
      "ItemId": 4446,
      "Price": 5100,
      "Name": "Dye of STR (Str+1 Dex-3)",
      "Count": -1
    },
    {
      "ItemId": 4447,
      "Price": 5100,
      "Name": "Dye of CON (Con+1 Str-3)",
      "Count": -1
    },
    {
      "ItemId": 4448,
      "Price": 5100,
      "Name": "Dye of CON (Con+1 Dex-3)",
      "Count": -1
    },
    {
      "ItemId": 4449,
      "Price": 5100,
      "Name": "Dye of DEX (Dex+1 Str-3)",
      "Count": -1
    },
    {
      "ItemId": 4450,
      "Price": 5100,
      "Name": "Dye of DEX (Dex+1 Con-3)",
      "Count": -1
    },
    {
      "ItemId": 4451,
      "Price": 5100,
      "Name": "Dye of INT (Int+1 Men-3)",
      "Count": -1
    },
    {
      "ItemId": 4452,
      "Price": 5100,
      "Name": "Dye of INT (Int+1 Wit-3)",
      "Count": -1
    },
    {
      "ItemId": 4453,
      "Price": 5100,
      "Name": "Dye of MEN (Men+1 Int-3)",
      "Count": -1
    },
    {
      "ItemId": 4454,
      "Price": 5100,
      "Name": "Dye of MEN (Men+1 Wit-3)",
      "Count": -1
    },
    {
      "ItemId": 4455,
      "Price": 5100,
      "Name": "Dye of WIT (Wit+1 Int-3)",
      "Count": -1
    },
    {
      "ItemId": 4456,
      "Price": 5100,
      "Name": "Dye of WIT (Wit+1 Men-3)",
      "Count": -1
    },
    {
      "ItemId": 4457,
      "Price": 12000,
      "Name": "Dye of STR (Str+1 Con-2)",
      "Count": -1
    },
    {
      "ItemId": 4458,
      "Price": 12000,
      "Name": "Dye of STR (Str+1 Dex-2)",
      "Count": -1
    },
    {
      "ItemId": 4459,
      "Price": 12000,
      "Name": "Dye of CON (Con+1 Str-2)",
      "Count": -1
    },
    {
      "ItemId": 4460,
      "Price": 12000,
      "Name": "Dye of CON (Con+1 Dex-2)",
      "Count": -1
    },
    {
      "ItemId": 4461,
      "Price": 12000,
      "Name": "Dye of DEX (Dex+1 Str-2)",
      "Count": -1
    },
    {
      "ItemId": 4462,
      "Price": 12000,
      "Name": "Dye of DEX (Dex+1 Con-2)",
      "Count": -1
    },
    {
      "ItemId": 4463,
      "Price": 12000,
      "Name": "Dye of INT (Int+1 Men-2)",
      "Count": -1
    },
    {
      "ItemId": 4464,
      "Price": 12000,
      "Name": "Dye of INT (Int+1 Wit-2)",
      "Count": -1
    },
    {
      "ItemId": 4465,
      "Price": 12000,
      "Name": "Dye of MEN (Men+1 Int-2)",
      "Count": -1
    },
    {
      "ItemId": 4466,
      "Price": 12000,
      "Name": "Dye of MEN (Men+1 Wit-2)",
      "Count": -1
    },
    {
      "ItemId": 4467,
      "Price": 12000,
      "Name": "Dye of WIT (Wit+1 Int-2)",
      "Count": -1
    },
    {
      "ItemId": 4468,
      "Price": 12000,
      "Name": "Dye of WIT (Wit+1 Men-2)",
      "Count": -1
    },
    {
      "ItemId": 4481,
      "Price": 12000,
      "Name": "Greater Dye of STR (Str+1 Con-3)",
      "Count": -1
    },
    {
      "ItemId": 4482,
      "Price": 12000,
      "Name": "Greater Dye of STR (Str+1 Dex-3)",
      "Count": -1
    },
    {
      "ItemId": 4483,
      "Price": 12000,
      "Name": "Greater Dye of CON(Con+1 Str-3)",
      "Count": -1
    },
    {
      "ItemId": 4484,
      "Price": 12000,
      "Name": "Greater Dye of CON(Con+1 Dex-3)",
      "Count": -1
    },
    {
      "ItemId": 4485,
      "Price": 12000,
      "Name": "Greater Dye of DEX (Dex+1 Str-3)",
      "Count": -1
    },
    {
      "ItemId": 4486,
      "Price": 12000,
      "Name": "Greater Dye of DEX (Dex+1 Con-3)",
      "Count": -1
    },
    {
      "ItemId": 4487,
      "Price": 12000,
      "Name": "Greater Dye of INT (Int+1 Men-3)",
      "Count": -1
    },
    {
      "ItemId": 4488,
      "Price": 12000,
      "Name": "Greater Dye of INT (Int+1 Wit-3)",
      "Count": -1
    },
    {
      "ItemId": 4489,
      "Price": 12000,
      "Name": "Greater Dye of MEN (Men+1 Int-3)",
      "Count": -1
    },
    {
      "ItemId": 4490,
      "Price": 12000,
      "Name": "Greater Dye of MEN (Men+1 Wit-3)",
      "Count": -1
    },
    {
      "ItemId": 4491,
      "Price": 12000,
      "Name": "Greater Dye of WIT (Wit+1 Int-3)",
      "Count": -1
    },
    {
      "ItemId": 4492,
      "Price": 12000,
      "Name": "Greater Dye of WIT (Wit+1 Men-3)",
      "Count": -1
    },
    {
      "ItemId": 4493,
      "Price": 21000,
      "Name": "Greater Dye of STR (Str+1 Con-2)",
      "Count": -1
    },
    {
      "ItemId": 4494,
      "Price": 21000,
      "Name": "Greater Dye of STR (Str+1 Dex-2)",
      "Count": -1
    },
    {
      "ItemId": 4495,
      "Price": 21000,
      "Name": "Greater Dye of CON (Con+1 Str-2)",
      "Count": -1
    },
    {
      "ItemId": 4496,
      "Price": 21000,
      "Name": "Greater Dye of CON (Con+1 Dex-2)",
      "Count": -1
    },
    {
      "ItemId": 4497,
      "Price": 21000,
      "Name": "Greater Dye of DEX (Dex+1 Str-2)",
      "Count": -1
    },
    {
      "ItemId": 4498,
      "Price": 21000,
      "Name": "Greater Dye of DEX (Dex+1 Con-2)",
      "Count": -1
    },
    {
      "ItemId": 4499,
      "Price": 21000,
      "Name": "Greater Dye of INT (Int+1 Men-2)",
      "Count": -1
    },
    {
      "ItemId": 4500,
      "Price": 21000,
      "Name": "Greater Dye of INT (Int+1 Wit-2)",
      "Count": -1
    },
    {
      "ItemId": 4501,
      "Price": 21000,
      "Name": "Greater Dye of MEN (Men+1 Int-2)",
      "Count": -1
    },
    {
      "ItemId": 4502,
      "Price": 21000,
      "Name": "Greater Dye of MEN (Men+1 Wit-2)",
      "Count": -1
    },
    {
      "ItemId": 4503,
      "Price": 21000,
      "Name": "Greater Dye of WIT (Wit+1 Int-2)",
      "Count": -1
    },
    {
      "ItemId": 4504,
      "Price": 21000,
      "Name": "Greater Dye of WIT (Wit+1 Men-2)",
      "Count": -1
    },
    {
      "ItemId": 4505,
      "Price": 24600,
      "Name": "Greater Dye of STR (Str+2 Con-4)",
      "Count": -1
    },
    {
      "ItemId": 4506,
      "Price": 24600,
      "Name": "Greater Dye of STR (Str+2 Dex-4)",
      "Count": -1
    },
    {
      "ItemId": 4507,
      "Price": 24600,
      "Name": "Greater Dye of CON (Con+2 Str-4)",
      "Count": -1
    },
    {
      "ItemId": 4508,
      "Price": 24600,
      "Name": "Greater Dye of CON (Con+2 Dex-4)",
      "Count": -1
    },
    {
      "ItemId": 4509,
      "Price": 24600,
      "Name": "Greater Dye of DEX (Dex+2 Str-4)",
      "Count": -1
    },
    {
      "ItemId": 4510,
      "Price": 24600,
      "Name": "Greater Dye of DEX (Dex+2 Con-4)",
      "Count": -1
    },
    {
      "ItemId": 4511,
      "Price": 24600,
      "Name": "Greater Dye of INT (Int+2 Men-4)",
      "Count": -1
    },
    {
      "ItemId": 4512,
      "Price": 24600,
      "Name": "Greater Dye of INT (Int+2 Wit-4)",
      "Count": -1
    },
    {
      "ItemId": 4513,
      "Price": 24600,
      "Name": "Greater Dye of MEN (Men+2 Int-4)",
      "Count": -1
    },
    {
      "ItemId": 4514,
      "Price": 24600,
      "Name": "Greater Dye of MEN (Men+2 Wit-4)",
      "Count": -1
    },
    {
      "ItemId": 4515,
      "Price": 24600,
      "Name": "Greater Dye of WIT (Wit+2 Int-4)",
      "Count": -1
    },
    {
      "ItemId": 4516,
      "Price": 24600,
      "Name": "Greater Dye of WIT (Wit+2 Men-4)",
      "Count": -1
    },
    {
      "ItemId": 4517,
      "Price": 27000,
      "Name": "Greater Dye of STR (Str+2 Con-3)",
      "Count": -1
    },
    {
      "ItemId": 4518,
      "Price": 27000,
      "Name": "Greater Dye of STR (Str+2 Dex-3)",
      "Count": -1
    },
    {
      "ItemId": 4519,
      "Price": 27000,
      "Name": "Greater Dye of CON (Con+2 Str-3)",
      "Count": -1
    },
    {
      "ItemId": 4520,
      "Price": 27000,
      "Name": "Greater Dye of CON (Con+2 Dex-3)",
      "Count": -1
    },
    {
      "ItemId": 4521,
      "Price": 27000,
      "Name": "Greater Dye of DEX (Dex+2 Str-3)",
      "Count": -1
    },
    {
      "ItemId": 4522,
      "Price": 27000,
      "Name": "Greater Dye of DEX (Dex+2 Con-3)",
      "Count": -1
    },
    {
      "ItemId": 4523,
      "Price": 27000,
      "Name": "Greater Dye of INT (Int+2 Men-3)",
      "Count": -1
    },
    {
      "ItemId": 4524,
      "Price": 27000,
      "Name": "Greater Dye of INT (Int+2 Wit-3)",
      "Count": -1
    },
    {
      "ItemId": 4525,
      "Price": 27000,
      "Name": "Greater Dye of MEN (Men+2 Int-3)",
      "Count": -1
    },
    {
      "ItemId": 4526,
      "Price": 27000,
      "Name": "Greater Dye of MEN (Men+2 Wit-3)",
      "Count": -1
    },
    {
      "ItemId": 4527,
      "Price": 27000,
      "Name": "Greater Dye of WIT (Wit+2 Int-3)",
      "Count": -1
    },
    {
      "ItemId": 4528,
      "Price": 27000,
      "Name": "Greater Dye of WIT (Wit+2 Men-3)",
      "Count": -1
    },
    {
      "ItemId": 4529,
      "Price": 30000,
      "Name": "Greater Dye of STR (Str+3 Con-5)",
      "Count": -1
    },
    {
      "ItemId": 4530,
      "Price": 30000,
      "Name": "Greater Dye of STR (Str+3 Dex-5)",
      "Count": -1
    },
    {
      "ItemId": 4531,
      "Price": 30000,
      "Name": "Greater Dye of CON (Con+3 Str-5)",
      "Count": -1
    },
    {
      "ItemId": 4532,
      "Price": 30000,
      "Name": "Greater Dye of CON (Con+3 Dex-5)",
      "Count": -1
    },
    {
      "ItemId": 4533,
      "Price": 30000,
      "Name": "Greater Dye of DEX (Dex+3 Str-5)",
      "Count": -1
    },
    {
      "ItemId": 4534,
      "Price": 30000,
      "Name": "Greater Dye of DEX (Dex+3 Con-5)",
      "Count": -1
    },
    {
      "ItemId": 4535,
      "Price": 30000,
      "Name": "Greater Dye of INT (Int+3 Men-5)",
      "Count": -1
    },
    {
      "ItemId": 4536,
      "Price": 30000,
      "Name": "Greater Dye of INT (Int+3 Wit-5)",
      "Count": -1
    },
    {
      "ItemId": 4537,
      "Price": 30000,
      "Name": "Greater Dye of MEN (Men+3 Int-5)",
      "Count": -1
    },
    {
      "ItemId": 4538,
      "Price": 30000,
      "Name": "Greater Dye of MEN (Men+3 Wit-5)",
      "Count": -1
    },
    {
      "ItemId": 4539,
      "Price": 30000,
      "Name": "Greater Dye of WIT (Wit+3 Int-5)",
      "Count": -1
    },
    {
      "ItemId": 4540,
      "Price": 30000,
      "Name": "Greater Dye of WIT (Wit+3 Men-5)",
      "Count": -1
    },
    {
      "ItemId": 4541,
      "Price": 30000,
      "Name": "Greater Dye of STR (Str+3 Con-4)",
      "Count": -1
    },
    {
      "ItemId": 4542,
      "Price": 30000,
      "Name": "Greater Dye of STR (Str+3 Dex-4)",
      "Count": -1
    },
    {
      "ItemId": 4543,
      "Price": 30000,
      "Name": "Greater Dye of CON (Con+3 Str-4)",
      "Count": -1
    },
    {
      "ItemId": 4544,
      "Price": 30000,
      "Name": "Greater Dye of CON (Con+3 Dex-4)",
      "Count": -1
    },
    {
      "ItemId": 4545,
      "Price": 30000,
      "Name": "Greater Dye of DEX (Dex+3 Str-4)",
      "Count": -1
    },
    {
      "ItemId": 4546,
      "Price": 30000,
      "Name": "Greater Dye of DEX (Dex+3 Con-4)",
      "Count": -1
    },
    {
      "ItemId": 4547,
      "Price": 30000,
      "Name": "Greater Dye of INT (Int+3 Men-4)",
      "Count": -1
    },
    {
      "ItemId": 4548,
      "Price": 30000,
      "Name": "Greater Dye of INT (Int+3 Wit-4)",
      "Count": -1
    },
    {
      "ItemId": 4549,
      "Price": 30000,
      "Name": "Greater Dye of MEN (Men+3 Int-4)",
      "Count": -1
    },
    {
      "ItemId": 4550,
      "Price": 30000,
      "Name": "Greater Dye of MEN (Men+3 Wit-4)",
      "Count": -1
    },
    {
      "ItemId": 4551,
      "Price": 30000,
      "Name": "Greater Dye of WIT (Wit+3 Int-4)",
      "Count": -1
    },
    {
      "ItemId": 4552,
      "Price": 30000,
      "Name": "Greater Dye of WIT (Wit+3 Men-4)",
      "Count": -1
    },
    {
      "ItemId": 4565,
      "Price": 36000,
      "Name": "Greater Dye of STR (Str+4 Con-6)",
      "Count": -1
    },
    {
      "ItemId": 4566,
      "Price": 36000,
      "Name": "Greater Dye of STR (Str+4 Dex-6)",
      "Count": -1
    },
    {
      "ItemId": 4567,
      "Price": 36000,
      "Name": "Greater Dye of CON (Con+4 Str-6)",
      "Count": -1
    },
    {
      "ItemId": 4568,
      "Price": 36000,
      "Name": "Greater Dye of CON (Con+4 Dex-6)",
      "Count": -1
    },
    {
      "ItemId": 4569,
      "Price": 36000,
      "Name": "Greater Dye of DEX (Dex+4 Str-6)",
      "Count": -1
    },
    {
      "ItemId": 4570,
      "Price": 36000,
      "Name": "Greater Dye of DEX (Dex+4 Con-6)",
      "Count": -1
    },
    {
      "ItemId": 4571,
      "Price": 36000,
      "Name": "Greater Dye of INT (Int+4 Men-6)",
      "Count": -1
    },
    {
      "ItemId": 4572,
      "Price": 36000,
      "Name": "Greater Dye of INT (Int+4 Wit-6)",
      "Count": -1
    },
    {
      "ItemId": 4573,
      "Price": 36000,
      "Name": "Greater Dye of MEN (Men+4 Int-6)",
      "Count": -1
    },
    {
      "ItemId": 4574,
      "Price": 36000,
      "Name": "Greater Dye of MEN (Men+4 Wit-6)",
      "Count": -1
    },
    {
      "ItemId": 4575,
      "Price": 36000,
      "Name": "Greater Dye of WIT (Wit+4 Int-6)",
      "Count": -1
    },
    {
      "ItemId": 4576,
      "Price": 36000,
      "Name": "Greater Dye of WIT (Wit+4 Men-6)",
      "Count": -1
    },
    {
      "ItemId": 4577,
      "Price": 36000,
      "Name": "Greater Dye of STR (Str+4 Con-5)",
      "Count": -1
    },
    {
      "ItemId": 4578,
      "Price": 36000,
      "Name": "Greater Dye of STR (Str+4 Dex-5)",
      "Count": -1
    },
    {
      "ItemId": 4579,
      "Price": 36000,
      "Name": "Greater Dye of CON (Con+4 Str-5)",
      "Count": -1
    },
    {
      "ItemId": 4580,
      "Price": 36000,
      "Name": "Greater Dye of CON (Con+4 Dex-5)",
      "Count": -1
    },
    {
      "ItemId": 4581,
      "Price": 36000,
      "Name": "Greater Dye of DEX (Dex+4 Str-5)",
      "Count": -1
    },
    {
      "ItemId": 4582,
      "Price": 36000,
      "Name": "Greater Dye of DEX (Dex+4 Con-5)",
      "Count": -1
    },
    {
      "ItemId": 4583,
      "Price": 36000,
      "Name": "Greater Dye of INT (Int+4 Men-5)",
      "Count": -1
    },
    {
      "ItemId": 4584,
      "Price": 36000,
      "Name": "Greater Dye of INT (Int+4 Wit-5)",
      "Count": -1
    },
    {
      "ItemId": 4585,
      "Price": 36000,
      "Name": "Greater Dye of MEN (Men+4 Int-5)",
      "Count": -1
    },
    {
      "ItemId": 4586,
      "Price": 36000,
      "Name": "Greater Dye of MEN (Men+4 Wit-5)",
      "Count": -1
    },
    {
      "ItemId": 4587,
      "Price": 36000,
      "Name": "Greater Dye of WIT (Wit+4 Int-5)",
      "Count": -1
    },
    {
      "ItemId": 4588,
      "Price": 36000,
      "Name": "Greater Dye of WIT (Wit+4 Men-5)",
      "Count": -1
    }
  ]
}