{
  "ShopId": 9006,
  "Items": [
    {
      "ItemId": 15,
      "Price": 0,
      "Name": "Short Spear",
      "Count": -1
    },
    {
      "ItemId": 16,
      "Price": 0,
      "Name": "Long Spear",
      "Count": -1
    },
    {
      "ItemId": 1302,
      "Price": 0,
      "Name": "Bec de Corbin",
      "Count": -1
    },
    {
      "ItemId": 1303,
      "Price": 0,
      "Name": "Lance",
      "Count": -1
    },
    {
      "ItemId": 3026,
      "Price": 0,
      "Name": "Talins Spear",
      "Count": -1
    },
    {
      "ItemId": 5817,
      "Price": 0,
      "Name": "Chrono Campana",
      "Count": -1
    }
  ]
}