{
  "ShopId": 9007,
  "Items": [
    {
      "ItemId": 4,
      "Price": 0,
      "Name": "Club",
      "Count": -1
    },
    {
      "ItemId": 5,
      "Price": 0,
      "Name": "Mace",
      "Count": -1
    },
    {
      "ItemId": 6,
      "Price": 0,
      "Name": "Apprentice's Wand",
      "Count": -1
    },
    {
      "ItemId": 7,
      "Price": 0,
      "Name": "Apprentice's Rod",
      "Count": -1
    },
    {
      "ItemId": 87,
      "Price": 0,
      "Name": "Iron Hammer",
      "Count": -1
    },
    {
      "ItemId": 152,
      "Price": 0,
      "Name": "Heavy Chisel",
      "Count": -1
    },
    {
      "ItemId": 153,
      "Price": 0,
      "Name": "Sickle",
      "Count": -1
    },
    {
      "ItemId": 154,
      "Price": 0,
      "Name": "Dwarven Mace",
      "Count": -1
    },
    {
      "ItemId": 155,
      "Price": 0,
      "Name": "Buzdygan",
      "Count": -1
    },
    {
      "ItemId": 747,
      "Price": 0,
      "Name": "Wand of Adept",
      "Count": -1
    },
    {
      "ItemId": 748,
      "Price": 0,
      "Name": "Gallint's Oak Wand",
      "Count": -1
    },
    {
      "ItemId": 1300,
      "Price": 0,
      "Name": "Apprentice's Rod",
      "Count": -1
    },
    {
      "ItemId": 1301,
      "Price": 0,
      "Name": "Big Hammer",
      "Count": -1
    },
    {
      "ItemId": 1511,
      "Price": 0,
      "Name": "Silversmith Hammer",
      "Count": -1
    },
    {
      "ItemId": 2370,
      "Price": 0,
      "Name": "Guild Member's Club",
      "Count": -1
    },
    {
      "ItemId": 2501,
      "Price": 0,
      "Name": "Bone Club",
      "Count": -1
    },
    {
      "ItemId": 4221,
      "Price": 0,
      "Name": "Ubiquitous Axe",
      "Count": -1
    },
    {
      "ItemId": 7817,
      "Price": 0,
      "Name": "Apprentice Adventurer's Bone Club",
      "Count": -1
    }
  ]
}