{
  "ShopId": 9008,
  "Items": [
    {
      "ItemId": 8,
      "Price": 0,
      "Name": "Willow Staff",
      "Count": -1
    },
    {
      "ItemId": 9,
      "Price": 0,
      "Name": "Cedar Staff",
      "Count": -1
    },
    {
      "ItemId": 176,
      "Price": 0,
      "Name": "Journeyman's Staff",
      "Count": -1
    },
    {
      "ItemId": 177,
      "Price": 0,
      "Name": "Mage Staff",
      "Count": -1
    },
    {
      "ItemId": 744,
      "Price": 0,
      "Name": "Staff of Sentinel",
      "Count": -1
    },
    {
      "ItemId": 754,
      "Price": 0,
      "Name": "Red Sunset Staff",
      "Count": -1
    },
    {
      "ItemId": 1304,
      "Price": 0,
      "Name": "Conjuror's Staff",
      "Count": -1
    },
    {
      "ItemId": 2373,
      "Price": 0,
      "Name": "Eldritch Staff",
      "Count": -1
    },
    {
      "ItemId": 6355,
      "Price": 0,
      "Name": "Mage Staff - for Beginners",
      "Count": -1
    },
    {
      "ItemId": 6716,
      "Price": 0,
      "Name": "Monster Only(Silenos Shaman)",
      "Count": -1
    },
    {
      "ItemId": 6718,
      "Price": 0,
      "Name": "Monster Only(Einhasad Shaman)",
      "Count": -1
    },
    {
      "ItemId": 7058,
      "Price": 0,
      "Name": "Chrono Darbuka",
      "Count": -1
    },
    {
      "ItemId": 7816,
      "Price": 0,
      "Name": "Apprentice Adventurer's Staff",
      "Count": -1
    }
  ]
}