{
  "ShopId": 9013,
  "Items": [
    {
      "ItemId": 274,
      "Price": 0,
      "Name": "Strengthened Bow",
      "Count": -1
    },
    {
      "ItemId": 275,
      "Price": 0,
      "Name": "Long Bow",
      "Count": -1
    },
    {
      "ItemId": 276,
      "Price": 0,
      "Name": "Elven Bow",
      "Count": -1
    },
    {
      "ItemId": 277,
      "Price": 0,
      "Name": "Dark Elven Bow",
      "Count": -1
    },
    {
      "ItemId": 278,
      "Price": 0,
      "Name": "Gastraphetes",
      "Count": -1
    },
    {
      "ItemId": 279,
      "Price": 0,
      "Name": "Strengthened Long Bow",
      "Count": -1
    },
    {
      "ItemId": 280,
      "Price": 0,
      "Name": "Light Crossbow",
      "Count": -1
    },
    {
      "ItemId": 7823,
      "Price": 0,
      "Name": "Traveler's Dark Elven Bow",
      "Count": -1
    },
    {
      "ItemId": 7824,
      "Price": 0,
      "Name": "Traveler's Long Bow",
      "Count": -1
    },
    {
      "ItemId": 1341,
      "Price": 0,
      "Name": "Bone Arrow",
      "Count": -1
    }
  ]
}