{
  "ShopId": 9029,
  "Items": [
    {
      "ItemId": 2566,
      "Price": 0,
      "Name": "Stormbringer*Caliburs",
      "Count": -1
    },
    {
      "ItemId": 2567,
      "Price": 0,
      "Name": "Stormbringer*Sword of Limit",
      "Count": -1
    },
    {
      "ItemId": 2568,
      "Price": 0,
      "Name": "Stormbringer*Sword of Delusion",
      "Count": -1
    },
    {
      "ItemId": 2569,
      "Price": 0,
      "Name": "Stormbringer*Sword of Nightmare",
      "Count": -1
    },
    {
      "ItemId": 2570,
      "Price": 0,
      "Name": "Stormbringer*Tsurugi",
      "Count": -1
    },
    {
      "ItemId": 2571,
      "Price": 0,
      "Name": "Stormbringer*Samurai Long sword",
      "Count": -1
    },
    {
      "ItemId": 2576,
      "Price": 0,
      "Name": "Shamshir*Caliburs",
      "Count": -1
    },
    {
      "ItemId": 2577,
      "Price": 0,
      "Name": "Shamshir*Sword of Limit",
      "Count": -1
    },
    {
      "ItemId": 2578,
      "Price": 0,
      "Name": "Shamshir*Sword of Delusion",
      "Count": -1
    },
    {
      "ItemId": 2579,
      "Price": 0,
      "Name": "Shamshir*Sword of Nightmare",
      "Count": -1
    },
    {
      "ItemId": 2580,
      "Price": 0,
      "Name": "Shamshir*Tsurugi",
      "Count": -1
    },
    {
      "ItemId": 2581,
      "Price": 0,
      "Name": "Shamshir*Samurai Long Sword",
      "Count": -1
    },
    {
      "ItemId": 2585,
      "Price": 0,
      "Name": "Katana*Caliburs",
      "Count": -1
    },
    {
      "ItemId": 2586,
      "Price": 0,
      "Name": "Katana*Sword of Limit",
      "Count": -1
    },
    {
      "ItemId": 2587,
      "Price": 0,
      "Name": "Katana*Sword of Delusion",
      "Count": -1
    },
    {
      "ItemId": 2588,
      "Price": 0,
      "Name": "Katana*Sword of Nightmare",
      "Count": -1
    },
    {
      "ItemId": 2589,
      "Price": 0,
      "Name": "Katana*Tsurugi",
      "Count": -1
    },
    {
      "ItemId": 2590,
      "Price": 0,
      "Name": "Katana*Samurai Long Sword",
      "Count": -1
    },
    {
      "ItemId": 2593,
      "Price": 0,
      "Name": "Spirit Sword*Caliburs",
      "Count": -1
    },
    {
      "ItemId": 2594,
      "Price": 0,
      "Name": "Spirit Sword*Sword of Limit",
      "Count": -1
    },
    {
      "ItemId": 2595,
      "Price": 0,
      "Name": "Spirit Sword*Sword of Delusion",
      "Count": -1
    },
    {
      "ItemId": 2596,
      "Price": 0,
      "Name": "Spirit Sword*Sword of Nightmare",
      "Count": -1
    },
    {
      "ItemId": 2597,
      "Price": 0,
      "Name": "Spirit Sword*Tsurugi",
      "Count": -1
    },
    {
      "ItemId": 2598,
      "Price": 0,
      "Name": "Spirit Sword*Samurai Long Sword",
      "Count": -1
    },
    {
      "ItemId": 2600,
      "Price": 0,
      "Name": "Raid Sword*Caliburs",
      "Count": -1
    },
    {
      "ItemId": 2601,
      "Price": 0,
      "Name": "Raid Sword*Sword of Limit",
      "Count": -1
    },
    {
      "ItemId": 2602,
      "Price": 0,
      "Name": "Raid Sword*Sword of Delusion",
      "Count": -1
    },
    {
      "ItemId": 2603,
      "Price": 0,
      "Name": "Raid Sword*Sword of Nightmare",
      "Count": -1
    },
    {
      "ItemId": 2604,
      "Price": 0,
      "Name": "Raid Sword*Tsurugi",
      "Count": -1
    },
    {
      "ItemId": 2605,
      "Price": 0,
      "Name": "Raid Sword*Samurai Long Sword",
      "Count": -1
    },
    {
      "ItemId": 2606,
      "Price": 0,
      "Name": "Caliburs*Caliburs",
      "Count": -1
    },
    {
      "ItemId": 2607,
      "Price": 0,
      "Name": "Caliburs*Sword of Limit",
      "Count": -1
    },
    {
      "ItemId": 2608,
      "Price": 0,
      "Name": "Caliburs*Sword of Delusion",
      "Count": -1
    },
    {
      "ItemId": 2609,
      "Price": 0,
      "Name": "Caliburs*Sword of Nightmare",
      "Count": -1
    },
    {
      "ItemId": 2610,
      "Price": 0,
      "Name": "Caliburs*Tsurugi",
      "Count": -1
    },
    {
      "ItemId": 2611,
      "Price": 0,
      "Name": "Caliburs*Samurai Long Sword",
      "Count": -1
    },
    {
      "ItemId": 2612,
      "Price": 0,
      "Name": "Sword of Limit*Sword of Limit",
      "Count": -1
    },
    {
      "ItemId": 2613,
      "Price": 0,
      "Name": "Sword of Limit*Sword of Delusion",
      "Count": -1
    },
    {
      "ItemId": 2614,
      "Price": 0,
      "Name": "Sword of Limit*Sword of Nightmare",
      "Count": -1
    },
    {
      "ItemId": 2615,
      "Price": 0,
      "Name": "Sword of Limit*Tsurugi",
      "Count": -1
    },
    {
      "ItemId": 2616,
      "Price": 0,
      "Name": "Sword of Limit*Samurai Long Sword",
      "Count": -1
    },
    {
      "ItemId": 2617,
      "Price": 0,
      "Name": "Sword of Delusion*Sword of Delusion",
      "Count": -1
    },
    {
      "ItemId": 2618,
      "Price": 0,
      "Name": "Sword of Delusion*Sword of Nightmare",
      "Count": -1
    },
    {
      "ItemId": 2619,
      "Price": 0,
      "Name": "Sword of Delusion*Tsurugi",
      "Count": -1
    },
    {
      "ItemId": 2620,
      "Price": 0,
      "Name": "Sword of Delusion*Samurai Long Sword",
      "Count": -1
    },
    {
      "ItemId": 2621,
      "Price": 0,
      "Name": "Sword of Nightmare*Sword of Nightmare",
      "Count": -1
    },
    {
      "ItemId": 2622,
      "Price": 0,
      "Name": "Sword of Nightmare*Tsurugi",
      "Count": -1
    },
    {
      "ItemId": 2623,
      "Price": 0,
      "Name": "Sword of Nightmare*Samurai Long Sword",
      "Count": -1
    },
    {
      "ItemId": 2624,
      "Price": 0,
      "Name": "Tsurugi*Tsurugi",
      "Count": -1
    },
    {
      "ItemId": 2625,
      "Price": 0,
      "Name": "Tsurugi*Samurai Long Sword",
      "Count": -1
    },
    {
      "ItemId": 2626,
      "Price": 0,
      "Name": "Samurai Long Sword*Samurai Long Sword",
      "Count": -1
    },
    {
      "ItemId": 6722,
      "Price": 0,
      "Name": "Monster Only(Ahrimanes)",
      "Count": -1
    }
  ]
}