{
  "ShopId": 9036,
  "Items": [
    {
      "ItemId": 80,
      "Price": 0,
      "Name": "Tallum Blade",
      "Count": -1
    },
    {
      "ItemId": 85,
      "Price": 0,
      "Name": "Phantom Sword",
      "Count": -1
    },
    {
      "ItemId": 147,
      "Price": 0,
      "Name": "Tear of Darkness",
      "Count": -1
    },
    {
      "ItemId": 149,
      "Price": 0,
      "Name": "Sword of Life",
      "Count": -1
    },
    {
      "ItemId": 150,
      "Price": 0,
      "Name": "Elemental Sword",
      "Count": -1
    },
    {
      "ItemId": 151,
      "Price": 0,
      "Name": "Sword of Miracles",
      "Count": -1
    },
    {
      "ItemId": 2500,
      "Price": 0,
      "Name": "Dark Legion's Edge",
      "Count": -1
    },
    {
      "ItemId": 4720,
      "Price": 0,
      "Name": "Tallum Blade - Health",
      "Count": -1
    },
    {
      "ItemId": 4721,
      "Price": 0,
      "Name": "Tallum Blade - Rsk. Evasion",
      "Count": -1
    },
    {
      "ItemId": 4722,
      "Price": 0,
      "Name": "Tallum Blade - Rsk. Haste",
      "Count": -1
    },
    {
      "ItemId": 5635,
      "Price": 0,
      "Name": "Tallum Blade - Critical Poison",
      "Count": -1
    },
    {
      "ItemId": 5636,
      "Price": 0,
      "Name": "Tallum Blade - Haste",
      "Count": -1
    },
    {
      "ItemId": 5637,
      "Price": 0,
      "Name": "Tallum Blade - Anger",
      "Count": -1
    },
    {
      "ItemId": 5638,
      "Price": 0,
      "Name": "Elemental Sword - Magic Power",
      "Count": -1
    },
    {
      "ItemId": 5639,
      "Price": 0,
      "Name": "Elemental Sword - Magic Paralyze",
      "Count": -1
    },
    {
      "ItemId": 5640,
      "Price": 0,
      "Name": "Elemental Sword - Empower",
      "Count": -1
    },
    {
      "ItemId": 5641,
      "Price": 0,
      "Name": "Sword of Miracles - Magic Power",
      "Count": -1
    },
    {
      "ItemId": 5642,
      "Price": 0,
      "Name": "Sword of Miracles - Magic Silence",
      "Count": -1
    },
    {
      "ItemId": 5643,
      "Price": 0,
      "Name": "Sword of Miracles - Acumen",
      "Count": -1
    },
    {
      "ItemId": 5647,
      "Price": 0,
      "Name": "Dark Legion's Edge - Critical Damage",
      "Count": -1
    },
    {
      "ItemId": 5648,
      "Price": 0,
      "Name": "Dark Legion's Edge - Health",
      "Count": -1
    },
    {
      "ItemId": 5649,
      "Price": 0,
      "Name": "Dark Legion's Edge - Rsk. Focus",
      "Count": -1
    }
  ]
}