{
  "ShopId": 9037,
  "Items": [
    {
      "ItemId": 81,
      "Price": 0,
      "Name": "Dragon Slayer",
      "Count": -1
    },
    {
      "ItemId": 5644,
      "Price": 0,
      "Name": "Dragon Slayer - Health",
      "Count": -1
    },
    {
      "ItemId": 5645,
      "Price": 0,
      "Name": "Dragon Slayer - Critical Bleed",
      "Count": -1
    },
    {
      "ItemId": 5646,
      "Price": 0,
      "Name": "Dragon Slayer - Critical Drain",
      "Count": -1
    }
  ]
}