{
  "ShopId": 9053,
  "Items": [
    {
      "ItemId": 214,
      "Price": 0,
      "Name": "The Staff",
      "Count": -1
    },
    {
      "ItemId": 6366,
      "Price": 0,
      "Name": "Imperial Staff",
      "Count": -1
    },
    {
      "ItemId": 6369,
      "Price": 0,
      "Name": "Dragon Hunter Axe",
      "Count": -1
    },
    {
      "ItemId": 6587,
      "Price": 0,
      "Name": "Imperial Staff - Empower",
      "Count": -1
    },
    {
      "ItemId": 6588,
      "Price": 0,
      "Name": "Imperial Staff - MP Regeneration",
      "Count": -1
    },
    {
      "ItemId": 6589,
      "Price": 0,
      "Name": "Imperial Staff - Magic Hold",
      "Count": -1
    },
    {
      "ItemId": 6596,
      "Price": 0,
      "Name": "Dragon Hunter Axe - HP Regeneration",
      "Count": -1
    },
    {
      "ItemId": 6597,
      "Price": 0,
      "Name": "Dragon Hunter Axe - Health",
      "Count": -1
    },
    {
      "ItemId": 6598,
      "Price": 0,
      "Name": "Dragon Hunter Axe - HP Drain",
      "Count": -1
    },
    {
      "ItemId": 6615,
      "Price": 0,
      "Name": "Infinity Crusher",
      "Count": -1
    },
    {
      "ItemId": 6616,
      "Price": 0,
      "Name": "Infinity Scepter",
      "Count": -1
    }
  ]
}