{
  "ShopId": 9054,
  "Items": [
    {
      "ItemId": 504,
      "Price": 0,
      "Name": "Dragon Helmet",
      "Count": -1
    },
    {
      "ItemId": 2420,
      "Price": 0,
      "Name": "Dragon Headgear",
      "Count": -1
    },
    {
      "ItemId": 2421,
      "Price": 0,
      "Name": "The Hood",
      "Count": -1
    },
    {
      "ItemId": 6378,
      "Price": 0,
      "Name": "Imperial Crusader Helmet",
      "Count": -1
    },
    {
      "ItemId": 6382,
      "Price": 0,
      "Name": "Draconic Leather Helmet",
      "Count": -1
    },
    {
      "ItemId": 6386,
      "Price": 0,
      "Name": "Major Arcana Circlet",
      "Count": -1
    },
    {
      "ItemId": 6679,
      "Price": 0,
      "Name": "Sealed Imperial Crusader Helmet",
      "Count": -1
    },
    {
      "ItemId": 6683,
      "Price": 0,
      "Name": "Sealed Draconic Leather Helmet",
      "Count": -1
    },
    {
      "ItemId": 6687,
      "Price": 0,
      "Name": "Sealed Major Arcana Circlet",
      "Count": -1
    }
  ]
}