{
  "ShopId": 9069,
  "Items": [
    {
      "ItemId": 641,
      "Price": 0,
      "Name": "Dark Crystal Shield",
      "Count": -1
    },
    {
      "ItemId": 2498,
      "Price": 0,
      "Name": "Shield of Nightmare",
      "Count": -1
    },
    {
      "ItemId": 5292,
      "Price": 0,
      "Name": "Sealed Dark Crystal Shield",
      "Count": -1
    },
    {
      "ItemId": 5315,
      "Price": 0,
      "Name": "Sealed Shield of Nightmare",
      "Count": -1
    }
  ]
}