{
  "ShopId": 9071,
  "Items": [
    {
      "ItemId": 490,
      "Price": 0,
      "Name": "Tattoo of Blood",
      "Count": -1
    },
    {
      "ItemId": 491,
      "Price": 0,
      "Name": "Tattoo of Absolute",
      "Count": -1
    },
    {
      "ItemId": 684,
      "Price": 0,
      "Name": "Underwear of Rule",
      "Count": -1
    },
    {
      "ItemId": 2410,
      "Price": 0,
      "Name": "Nightmarish Tattoo",
      "Count": -1
    }
  ]
}