{
  "ShopId": 9075,
  "Items": [
    {
      "ItemId": 383,
      "Price": 0,
      "Name": "Zubei's Gaiters",
      "Count": -1
    },
    {
      "ItemId": 384,
      "Price": 0,
      "Name": "Wolf Gaiters",
      "Count": -1
    },
    {
      "ItemId": 385,
      "Price": 0,
      "Name": "Gaiters of Victory",
      "Count": -1
    },
    {
      "ItemId": 386,
      "Price": 0,
      "Name": "Gaiters of Valor",
      "Count": -1
    },
    {
      "ItemId": 387,
      "Price": 0,
      "Name": "Elven Crystal Gaiters",
      "Count": -1
    },
    {
      "ItemId": 421,
      "Price": 0,
      "Name": "Prairie Leather Gaiters",
      "Count": -1
    },
    {
      "ItemId": 422,
      "Price": 0,
      "Name": "Gaiters of The Underworld",
      "Count": -1
    },
    {
      "ItemId": 423,
      "Price": 0,
      "Name": "Guardian's Leather Gaiters",
      "Count": -1
    },
    {
      "ItemId": 424,
      "Price": 0,
      "Name": "Marksman's Leather Gaiters",
      "Count": -1
    },
    {
      "ItemId": 474,
      "Price": 0,
      "Name": "Stockings of Mana",
      "Count": -1
    },
    {
      "ItemId": 475,
      "Price": 0,
      "Name": "Paradia Stockings",
      "Count": -1
    },
    {
      "ItemId": 476,
      "Price": 0,
      "Name": "Inferno Stockings",
      "Count": -1
    },
    {
      "ItemId": 477,
      "Price": 0,
      "Name": "Stockings of Solar Eclipse",
      "Count": -1
    },
    {
      "ItemId": 478,
      "Price": 0,
      "Name": "Stockings of Summoning",
      "Count": -1
    },
    {
      "ItemId": 479,
      "Price": 0,
      "Name": "Elemental Stockings",
      "Count": -1
    },
    {
      "ItemId": 480,
      "Price": 0,
      "Name": "Stockings of Phantom",
      "Count": -1
    },
    {
      "ItemId": 481,
      "Price": 0,
      "Name": "Stockings of Grace",
      "Count": -1
    },
    {
      "ItemId": 482,
      "Price": 0,
      "Name": "Phoenix Stockings",
      "Count": -1
    },
    {
      "ItemId": 483,
      "Price": 0,
      "Name": "Cerberus Stockings",
      "Count": -1
    },
    {
      "ItemId": 484,
      "Price": 0,
      "Name": "Stockings of Aid",
      "Count": -1
    },
    {
      "ItemId": 2379,
      "Price": 0,
      "Name": "Avadon Gaiters",
      "Count": -1
    },
    {
      "ItemId": 2380,
      "Price": 0,
      "Name": "Blue Wolf Gaiters",
      "Count": -1
    },
    {
      "ItemId": 2388,
      "Price": 0,
      "Name": "Zubei's Leather Gaiters",
      "Count": -1
    },
    {
      "ItemId": 2402,
      "Price": 0,
      "Name": "Stockings of Zubei",
      "Count": -1
    },
    {
      "ItemId": 2403,
      "Price": 0,
      "Name": "Blue Wolf Stockings",
      "Count": -1
    },
    {
      "ItemId": 2404,
      "Price": 0,
      "Name": "Stockings of Doom",
      "Count": -1
    }
  ]
}