{
  "ShopId": 9080,
  "Items": [
    {
      "ItemId": 488,
      "Price": 0,
      "Name": "Tattoo of Flame",
      "Count": -1
    },
    {
      "ItemId": 493,
      "Price": 0,
      "Name": "Tattoo of Avadon",
      "Count": -1
    },
    {
      "ItemId": 494,
      "Price": 0,
      "Name": "Tattoo of Doom",
      "Count": -1
    },
    {
      "ItemId": 495,
      "Price": 0,
      "Name": "Tattoo of Pledge",
      "Count": -1
    },
    {
      "ItemId": 496,
      "Price": 0,
      "Name": "Tattoo of Divine",
      "Count": -1
    },
    {
      "ItemId": 683,
      "Price": 0,
      "Name": "Holy Undergarment Set",
      "Count": -1
    }
  ]
}