{
  "ShopId": 9082,
  "Items": [
    {
      "ItemId": 354,
      "Price": 0,
      "Name": "Chain Mail Shirt",
      "Count": -1
    },
    {
      "ItemId": 355,
      "Price": 0,
      "Name": "Dwarven Chain Mail Shirt",
      "Count": -1
    },
    {
      "ItemId": 397,
      "Price": 0,
      "Name": "Mithril Shirt",
      "Count": -1
    },
    {
      "ItemId": 398,
      "Price": 0,
      "Name": "Plated Leather",
      "Count": -1
    },
    {
      "ItemId": 399,
      "Price": 0,
      "Name": "Rind Leather Armor",
      "Count": -1
    },
    {
      "ItemId": 400,
      "Price": 0,
      "Name": "Theca Leather Armor",
      "Count": -1
    },
    {
      "ItemId": 439,
      "Price": 0,
      "Name": "Karmian Tunic",
      "Count": -1
    },
    {
      "ItemId": 441,
      "Price": 0,
      "Name": "Demon's Tunic",
      "Count": -1
    },
    {
      "ItemId": 442,
      "Price": 0,
      "Name": "Divine Tunic",
      "Count": -1
    }
  ]
}