{
  "ShopId": 91,
  "Items": [
    {
      "ItemId": 2505,
      "Price": 14000,
      "Name": "Iron Canine",
      "Count": -1
    },
    {
      "ItemId": 3439,
      "Price": 34000,
      "Name": "Shining Canine",
      "Count": -1
    },
    {
      "ItemId": 3902,
      "Price": 61000,
      "Name": "Ghost Canine",
      "Count": -1
    },
    {
      "ItemId": 3903,
      "Price": 100000,
      "Name": "Mithril Canine",
      "Count": -1
    },
    {
      "ItemId": 3904,
      "Price": 160000,
      "Name": "Sylvan Canine",
      "Count": -1
    },
    {
      "ItemId": 3905,
      "Price": 240000,
      "Name": "Orikarukon Canine",
      "Count": -1
    },
    {
      "ItemId": 3906,
      "Price": 350000,
      "Name": "Fang of Saltydog",
      "Count": -1
    },
    {
      "ItemId": 2506,
      "Price": 7000,
      "Name": "Wolf's Leather Armor",
      "Count": -1
    },
    {
      "ItemId": 3891,
      "Price": 18000,
      "Name": "Wolf's Hide Armor",
      "Count": -1
    },
    {
      "ItemId": 3892,
      "Price": 32000,
      "Name": "Wolf's Hard Leather Mail",
      "Count": -1
    },
    {
      "ItemId": 3893,
      "Price": 55000,
      "Name": "Wolf's Wooden Armor",
      "Count": -1
    },
    {
      "ItemId": 3894,
      "Price": 87000,
      "Name": "Wolf's Ring Mail",
      "Count": -1
    },
    {
      "ItemId": 3895,
      "Price": 130000,
      "Name": "Wolf's Bone Armor",
      "Count": -1
    },
    {
      "ItemId": 3896,
      "Price": 200000,
      "Name": "Wolf's Scale Male",
      "Count": -1
    },
    {
      "ItemId": 2515,
      "Price": 100,
      "Name": "Food For Wolves",
      "Count": -1
    },
    {
      "ItemId": 3920,
      "Price": 310000,
      "Name": "Viperbite",
      "Count": -1
    },
    {
      "ItemId": 3921,
      "Price": 420000,
      "Name": "Shadow Fang",
      "Count": -1
    },
    {
      "ItemId": 3922,
      "Price": 570000,
      "Name": "Alya Fang",
      "Count": -1
    },
    {
      "ItemId": 3923,
      "Price": 760000,
      "Name": "Torturer",
      "Count": -1
    },
    {
      "ItemId": 5187,
      "Price": 2300000,
      "Name": "Serpentine Grinder",
      "Count": -1
    },
    {
      "ItemId": 5188,
      "Price": 3400000,
      "Name": "Fang of Dahak",
      "Count": -1
    },
    {
      "ItemId": 3913,
      "Price": 310000,
      "Name": "Hatchling's Scale Mail",
      "Count": -1
    },
    {
      "ItemId": 3914,
      "Price": 420000,
      "Name": "Hatchling's Brigandine",
      "Count": -1
    },
    {
      "ItemId": 3915,
      "Price": 570000,
      "Name": "Hatchling's Bronze Coat",
      "Count": -1
    },
    {
      "ItemId": 3916,
      "Price": 760000,
      "Name": "Hatchling's Steel Coat",
      "Count": -1
    },
    {
      "ItemId": 5182,
      "Price": 2300000,
      "Name": "Hatchling's Gorgon Coat",
      "Count": -1
    },
    {
      "ItemId": 5183,
      "Price": 3400000,
      "Name": "Hatchling's Ophidian Plate",
      "Count": -1
    },
    {
      "ItemId": 4038,
      "Price": 150,
      "Name": "Food For Hatchling",
      "Count": -1
    },
    {
      "ItemId": 5176,
      "Price": 1600000,
      "Name": "Serpentine Spike",
      "Count": -1
    },
    {
      "ItemId": 5177,
      "Price": 2300000,
      "Name": "Drake Horn",
      "Count": -1
    },
    {
      "ItemId": 5178,
      "Price": 3400000,
      "Name": "Assult Alicorn",
      "Count": -1
    },
    {
      "ItemId": 5170,
      "Price": 1600000,
      "Name": "Mithril Panzer Coat",
      "Count": -1
    },
    {
      "ItemId": 5171,
      "Price": 2300000,
      "Name": "Brigadine Panzer Coat",
      "Count": -1
    },
    {
      "ItemId": 5172,
      "Price": 3400000,
      "Name": "Draconic Panzer Coat",
      "Count": -1
    },
    {
      "ItemId": 5168,
      "Price": 200,
      "Name": "Food for Strider",
      "Count": -1
    },
    {
      "ItemId": 6645,
      "Price": 20,
      "Name": "Beast Soulshot",
      "Count": -1
    },
    {
      "ItemId": 6646,
      "Price": 40,
      "Name": "Beast Spiritshot",
      "Count": -1
    },
    {
      "ItemId": 6647,
      "Price": 100,
      "Name": "Blessed Beast Spiritshot",
      "Count": -1
    },
    {
      "ItemId": 7582,
      "Price": 100,
      "Name": "Baby Spice",
      "Count": -1
    },
    {
      "ItemId": 8541,
      "Price": 200000,
      "Name": "Little Harness",
      "Count": -1
    }
  ]
}