{
  "ShopId": 9103,
  "Items": [
    {
      "ItemId": 48,
      "Price": 0,
      "Name": "Short Gloves",
      "Count": -1
    },
    {
      "ItemId": 49,
      "Price": 0,
      "Name": "Gloves",
      "Count": -1
    },
    {
      "ItemId": 50,
      "Price": 0,
      "Name": "Leather Gloves",
      "Count": -1
    },
    {
      "ItemId": 51,
      "Price": 0,
      "Name": "Bracer",
      "Count": -1
    },
    {
      "ItemId": 990,
      "Price": 0,
      "Name": "Mandragora Essence",
      "Count": -1
    },
    {
      "ItemId": 991,
      "Price": 0,
      "Name": "Royen's Key",
      "Count": -1
    },
    {
      "ItemId": 992,
      "Price": 0,
      "Name": "Shilen's 1st Mark",
      "Count": -1
    },
    {
      "ItemId": 993,
      "Price": 0,
      "Name": "Shilen's 2nd Mark",
      "Count": -1
    },
    {
      "ItemId": 994,
      "Price": 0,
      "Name": "Eye of Abyss",
      "Count": -1
    },
    {
      "ItemId": 995,
      "Price": 0,
      "Name": "Wanted Poster",
      "Count": -1
    },
    {
      "ItemId": 996,
      "Price": 0,
      "Name": "Alex's Dagger",
      "Count": -1
    },
    {
      "ItemId": 997,
      "Price": 0,
      "Name": "Pinter's Bill",
      "Count": -1
    },
    {
      "ItemId": 998,
      "Price": 0,
      "Name": "Book of Aklantoth - Part 1",
      "Count": -1
    },
    {
      "ItemId": 999,
      "Price": 0,
      "Name": "Book of Aklantoth - Part 2",
      "Count": -1
    },
    {
      "ItemId": 1000,
      "Price": 0,
      "Name": "Book of Aklantoth - Part 3",
      "Count": -1
    },
    {
      "ItemId": 1119,
      "Price": 0,
      "Name": "Short Leather Gloves",
      "Count": -1
    },
    {
      "ItemId": 1318,
      "Price": 0,
      "Name": "Gloves",
      "Count": -1
    },
    {
      "ItemId": 1319,
      "Price": 0,
      "Name": "Leather Gloves",
      "Count": -1
    },
    {
      "ItemId": 1320,
      "Price": 0,
      "Name": "Crafted Leather Gloves",
      "Count": -1
    },
    {
      "ItemId": 1321,
      "Price": 0,
      "Name": "Rip Gauntlets",
      "Count": -1
    },
    {
      "ItemId": 1322,
      "Price": 0,
      "Name": "Bracer",
      "Count": -1
    },
    {
      "ItemId": 4226,
      "Price": 0,
      "Name": "Dream Gloves",
      "Count": -1
    },
    {
      "ItemId": 4230,
      "Price": 0,
      "Name": "Ubiquitous Gloves",
      "Count": -1
    }
  ]
}