{
  "ShopId": 9105,
  "Items": [
    {
      "ItemId": 18,
      "Price": 0,
      "Name": "Leather Shield",
      "Count": -1
    },
    {
      "ItemId": 19,
      "Price": 0,
      "Name": "Small Shield",
      "Count": -1
    },
    {
      "ItemId": 20,
      "Price": 0,
      "Name": "Buckler",
      "Count": -1
    },
    {
      "ItemId": 102,
      "Price": 0,
      "Name": "Round Shield",
      "Count": -1
    },
    {
      "ItemId": 625,
      "Price": 0,
      "Name": "Bone Shield",
      "Count": -1
    },
    {
      "ItemId": 945,
      "Price": 0,
      "Name": "Skeleton Buckler",
      "Count": -1
    },
    {
      "ItemId": 1328,
      "Price": 0,
      "Name": "Shield of Grace",
      "Count": -1
    },
    {
      "ItemId": 1329,
      "Price": 0,
      "Name": "Shield of Victory",
      "Count": -1
    },
    {
      "ItemId": 1330,
      "Price": 0,
      "Name": "Zubei's Shield",
      "Count": -1
    },
    {
      "ItemId": 1331,
      "Price": 0,
      "Name": "Otherworldly Shield",
      "Count": -1
    },
    {
      "ItemId": 1332,
      "Price": 0,
      "Name": "Knight's Shield",
      "Count": -1
    },
    {
      "ItemId": 4222,
      "Price": 0,
      "Name": "Dream Shield",
      "Count": -1
    },
    {
      "ItemId": 4223,
      "Price": 0,
      "Name": "Ubiquitous Shield",
      "Count": -1
    },
    {
      "ItemId": 6721,
      "Price": 0,
      "Name": "Monster Only(Shield of Imperial Warlord Zombie)",
      "Count": -1
    },
    {
      "ItemId": 6902,
      "Price": 0,
      "Name": "Pledge Shield",
      "Count": -1
    },
    {
      "ItemId": 6918,
      "Price": 0,
      "Name": "Monster Only (Shield of Silenos)",
      "Count": -1
    },
    {
      "ItemId": 6919,
      "Price": 0,
      "Name": "Monster Only (Shield of Ketra Orc)",
      "Count": -1
    },
    {
      "ItemId": 7014,
      "Price": 0,
      "Name": "Monster Only (Shield of Dark Dragon)",
      "Count": -1
    },
    {
      "ItemId": 7015,
      "Price": 0,
      "Name": "Shield of Castle Pledge",
      "Count": -1
    }
  ]
}