{
  "ShopId": 9107,
  "Items": [
    {
      "ItemId": 55,
      "Price": 0,
      "Name": "Cotton Undergarment",
      "Count": -1
    },
    {
      "ItemId": 56,
      "Price": 0,
      "Name": "Wool Undergarment",
      "Count": -1
    },
    {
      "ItemId": 485,
      "Price": 0,
      "Name": "Tattoo of Power",
      "Count": -1
    },
    {
      "ItemId": 675,
      "Price": 0,
      "Name": "Silk Yarn Undergarment Set",
      "Count": -1
    },
    {
      "ItemId": 676,
      "Price": 0,
      "Name": "Pure White Undergarment Set",
      "Count": -1
    }
  ]
}