{
  "ShopId": 9114,
  "Items": [
    {
      "ItemId": 2383,
      "Price": 0,
      "Name": "Majestic Plate Armor",
      "Count": -1
    },
    {
      "ItemId": 2395,
      "Price": 0,
      "Name": "Majestic Leather Armor",
      "Count": -1
    },
    {
      "ItemId": 2409,
      "Price": 0,
      "Name": "Majestic Robe",
      "Count": -1
    },
    {
      "ItemId": 2419,
      "Price": 0,
      "Name": "Majestic Circlet",
      "Count": -1
    },
    {
      "ItemId": 5316,
      "Price": 0,
      "Name": "Sealed Majestic Plate Armor",
      "Count": -1
    },
    {
      "ItemId": 5317,
      "Price": 0,
      "Name": "Sealed Majestic Circlet",
      "Count": -1
    },
    {
      "ItemId": 5318,
      "Price": 0,
      "Name": "Sealed Majestic Gauntlets",
      "Count": -1
    },
    {
      "ItemId": 5319,
      "Price": 0,
      "Name": "Sealed Majestic Boots",
      "Count": -1
    },
    {
      "ItemId": 5323,
      "Price": 0,
      "Name": "Sealed Majestic Leather Armor",
      "Count": -1
    },
    {
      "ItemId": 5329,
      "Price": 0,
      "Name": "Sealed Majestic Robe",
      "Count": -1
    },
    {
      "ItemId": 5774,
      "Price": 0,
      "Name": "Majestic Gauntlets - Heavy Armor",
      "Count": -1
    },
    {
      "ItemId": 5775,
      "Price": 0,
      "Name": "Majestic Gauntlets - Light Armor",
      "Count": -1
    },
    {
      "ItemId": 5776,
      "Price": 0,
      "Name": "Majestic Gauntlets - Robe",
      "Count": -1
    },
    {
      "ItemId": 5786,
      "Price": 0,
      "Name": "Majestic Boots - Heavy Armor",
      "Count": -1
    },
    {
      "ItemId": 5787,
      "Price": 0,
      "Name": "Majestic Boots - Light Armor",
      "Count": -1
    },
    {
      "ItemId": 5788,
      "Price": 0,
      "Name": "Majestic Boots - Robe",
      "Count": -1
    }
  ]
}