{
  "ShopId": 9124,
  "Items": [
    {
      "ItemId": 6847,
      "Price": 0,
      "Name": null,
      "Count": -1
    },
    {
      "ItemId": 6848,
      "Price": 0,
      "Name": null,
      "Count": -1
    },
    {
      "ItemId": 6849,
      "Price": 0,
      "Name": null,
      "Count": -1
    },
    {
      "ItemId": 6850,
      "Price": 0,
      "Name": null,
      "Count": -1
    },
    {
      "ItemId": 6851,
      "Price": 0,
      "Name": null,
      "Count": -1
    },
    {
      "ItemId": 6852,
      "Price": 0,
      "Name": null,
      "Count": -1
    },
    {
      "ItemId": 6853,
      "Price": 0,
      "Name": null,
      "Count": -1
    },
    {
      "ItemId": 6854,
      "Price": 0,
      "Name": null,
      "Count": -1
    },
    {
      "ItemId": 6855,
      "Price": 0,
      "Name": null,
      "Count": -1
    },
    {
      "ItemId": 6856,
      "Price": 0,
      "Name": null,
      "Count": -1
    },
    {
      "ItemId": 6857,
      "Price": 0,
      "Name": null,
      "Count": -1
    },
    {
      "ItemId": 6858,
      "Price": 0,
      "Name": null,
      "Count": -1
    },
    {
      "ItemId": 6859,
      "Price": 0,
      "Name": null,
      "Count": -1
    },
    {
      "ItemId": 6860,
      "Price": 0,
      "Name": null,
      "Count": -1
    },
    {
      "ItemId": 6861,
      "Price": 0,
      "Name": null,
      "Count": -1
    },
    {
      "ItemId": 6862,
      "Price": 0,
      "Name": null,
      "Count": -1
    },
    {
      "ItemId": 6863,
      "Price": 0,
      "Name": null,
      "Count": -1
    },
    {
      "ItemId": 6864,
      "Price": 0,
      "Name": null,
      "Count": -1
    },
    {
      "ItemId": 6865,
      "Price": 0,
      "Name": null,
      "Count": -1
    },
    {
      "ItemId": 6866,
      "Price": 0,
      "Name": null,
      "Count": -1
    },
    {
      "ItemId": 6867,
      "Price": 0,
      "Name": null,
      "Count": -1
    },
    {
      "ItemId": 6868,
      "Price": 0,
      "Name": null,
      "Count": -1
    },
    {
      "ItemId": 6869,
      "Price": 0,
      "Name": null,
      "Count": -1
    },
    {
      "ItemId": 6870,
      "Price": 0,
      "Name": null,
      "Count": -1
    },
    {
      "ItemId": 6871,
      "Price": 0,
      "Name": null,
      "Count": -1
    },
    {
      "ItemId": 6872,
      "Price": 0,
      "Name": null,
      "Count": -1
    },
    {
      "ItemId": 6873,
      "Price": 0,
      "Name": null,
      "Count": -1
    },
    {
      "ItemId": 6874,
      "Price": 0,
      "Name": null,
      "Count": -1
    },
    {
      "ItemId": 6875,
      "Price": 0,
      "Name": null,
      "Count": -1
    },
    {
      "ItemId": 6876,
      "Price": 0,
      "Name": null,
      "Count": -1
    },
    {
      "ItemId": 6877,
      "Price": 0,
      "Name": null,
      "Count": -1
    },
    {
      "ItemId": 6878,
      "Price": 0,
      "Name": null,
      "Count": -1
    },
    {
      "ItemId": 6879,
      "Price": 0,
      "Name": null,
      "Count": -1
    },
    {
      "ItemId": 6880,
      "Price": 0,
      "Name": null,
      "Count": -1
    },
    {
      "ItemId": 6881,
      "Price": 0,
      "Name": null,
      "Count": -1
    },
    {
      "ItemId": 6882,
      "Price": 0,
      "Name": null,
      "Count": -1
    },
    {
      "ItemId": 6883,
      "Price": 0,
      "Name": null,
      "Count": -1
    },
    {
      "ItemId": 6884,
      "Price": 0,
      "Name": null,
      "Count": -1
    },
    {
      "ItemId": 6885,
      "Price": 0,
      "Name": null,
      "Count": -1
    },
    {
      "ItemId": 6886,
      "Price": 0,
      "Name": null,
      "Count": -1
    },
    {
      "ItemId": 6887,
      "Price": 0,
      "Name": null,
      "Count": -1
    },
    {
      "ItemId": 6888,
      "Price": 0,
      "Name": null,
      "Count": -1
    },
    {
      "ItemId": 6889,
      "Price": 0,
      "Name": null,
      "Count": -1
    },
    {
      "ItemId": 6890,
      "Price": 0,
      "Name": null,
      "Count": -1
    },
    {
      "ItemId": 6891,
      "Price": 0,
      "Name": null,
      "Count": -1
    },
    {
      "ItemId": 6892,
      "Price": 0,
      "Name": null,
      "Count": -1
    },
    {
      "ItemId": 6893,
      "Price": 0,
      "Name": null,
      "Count": -1
    },
    {
      "ItemId": 6894,
      "Price": 0,
      "Name": null,
      "Count": -1
    },
    {
      "ItemId": 6895,
      "Price": 0,
      "Name": null,
      "Count": -1
    },
    {
      "ItemId": 6896,
      "Price": 0,
      "Name": null,
      "Count": -1
    },
    {
      "ItemId": 6897,
      "Price": 0,
      "Name": null,
      "Count": -1
    },
    {
      "ItemId": 6898,
      "Price": 0,
      "Name": null,
      "Count": -1
    },
    {
      "ItemId": 6899,
      "Price": 0,
      "Name": null,
      "Count": -1
    },
    {
      "ItemId": 6900,
      "Price": 0,
      "Name": null,
      "Count": -1
    },
    {
      "ItemId": 6901,
      "Price": 0,
      "Name": null,
      "Count": -1
    },
    {
      "ItemId": 6920,
      "Price": 0,
      "Name": null,
      "Count": -1
    },
    {
      "ItemId": 6921,
      "Price": 0,
      "Name": null,
      "Count": -1
    },
    {
      "ItemId": 6922,
      "Price": 0,
      "Name": null,
      "Count": -1
    },
    {
      "ItemId": 6923,
      "Price": 0,
      "Name": null,
      "Count": -1
    },
    {
      "ItemId": 6924,
      "Price": 0,
      "Name": null,
      "Count": -1
    },
    {
      "ItemId": 6925,
      "Price": 0,
      "Name": null,
      "Count": -1
    },
    {
      "ItemId": 6926,
      "Price": 0,
      "Name": null,
      "Count": -1
    },
    {
      "ItemId": 6927,
      "Price": 0,
      "Name": null,
      "Count": -1
    },
    {
      "ItemId": 6928,
      "Price": 0,
      "Name": null,
      "Count": -1
    },
    {
      "ItemId": 6929,
      "Price": 0,
      "Name": null,
      "Count": -1
    },
    {
      "ItemId": 6930,
      "Price": 0,
      "Name": null,
      "Count": -1
    },
    {
      "ItemId": 6931,
      "Price": 0,
      "Name": null,
      "Count": -1
    },
    {
      "ItemId": 6932,
      "Price": 0,
      "Name": null,
      "Count": -1
    },
    {
      "ItemId": 6933,
      "Price": 0,
      "Name": null,
      "Count": -1
    },
    {
      "ItemId": 6934,
      "Price": 0,
      "Name": null,
      "Count": -1
    },
    {
      "ItemId": 6935,
      "Price": 0,
      "Name": null,
      "Count": -1
    },
    {
      "ItemId": 6936,
      "Price": 0,
      "Name": null,
      "Count": -1
    },
    {
      "ItemId": 6937,
      "Price": 0,
      "Name": null,
      "Count": -1
    },
    {
      "ItemId": 6938,
      "Price": 0,
      "Name": null,
      "Count": -1
    },
    {
      "ItemId": 6939,
      "Price": 0,
      "Name": null,
      "Count": -1
    },
    {
      "ItemId": 6940,
      "Price": 0,
      "Name": null,
      "Count": -1
    },
    {
      "ItemId": 6941,
      "Price": 0,
      "Name": null,
      "Count": -1
    },
    {
      "ItemId": 6942,
      "Price": 0,
      "Name": null,
      "Count": -1
    },
    {
      "ItemId": 6943,
      "Price": 0,
      "Name": null,
      "Count": -1
    },
    {
      "ItemId": 6944,
      "Price": 0,
      "Name": null,
      "Count": -1
    },
    {
      "ItemId": 6945,
      "Price": 0,
      "Name": null,
      "Count": -1
    },
    {
      "ItemId": 6946,
      "Price": 0,
      "Name": null,
      "Count": -1
    },
    {
      "ItemId": 6947,
      "Price": 0,
      "Name": null,
      "Count": -1
    },
    {
      "ItemId": 6948,
      "Price": 0,
      "Name": null,
      "Count": -1
    },
    {
      "ItemId": 6949,
      "Price": 0,
      "Name": null,
      "Count": -1
    },
    {
      "ItemId": 6950,
      "Price": 0,
      "Name": null,
      "Count": -1
    },
    {
      "ItemId": 6951,
      "Price": 0,
      "Name": null,
      "Count": -1
    },
    {
      "ItemId": 6952,
      "Price": 0,
      "Name": null,
      "Count": -1
    },
    {
      "ItemId": 6953,
      "Price": 0,
      "Name": null,
      "Count": -1
    },
    {
      "ItemId": 6954,
      "Price": 0,
      "Name": null,
      "Count": -1
    },
    {
      "ItemId": 6955,
      "Price": 0,
      "Name": null,
      "Count": -1
    },
    {
      "ItemId": 6956,
      "Price": 0,
      "Name": null,
      "Count": -1
    },
    {
      "ItemId": 6957,
      "Price": 0,
      "Name": null,
      "Count": -1
    },
    {
      "ItemId": 6958,
      "Price": 0,
      "Name": null,
      "Count": -1
    },
    {
      "ItemId": 6959,
      "Price": 0,
      "Name": null,
      "Count": -1
    },
    {
      "ItemId": 6960,
      "Price": 0,
      "Name": null,
      "Count": -1
    },
    {
      "ItemId": 6961,
      "Price": 0,
      "Name": null,
      "Count": -1
    },
    {
      "ItemId": 6962,
      "Price": 0,
      "Name": null,
      "Count": -1
    },
    {
      "ItemId": 6963,
      "Price": 0,
      "Name": null,
      "Count": -1
    },
    {
      "ItemId": 6964,
      "Price": 0,
      "Name": null,
      "Count": -1
    },
    {
      "ItemId": 6965,
      "Price": 0,
      "Name": null,
      "Count": -1
    },
    {
      "ItemId": 6966,
      "Price": 0,
      "Name": null,
      "Count": -1
    },
    {
      "ItemId": 6967,
      "Price": 0,
      "Name": null,
      "Count": -1
    },
    {
      "ItemId": 6968,
      "Price": 0,
      "Name": null,
      "Count": -1
    },
    {
      "ItemId": 6969,
      "Price": 0,
      "Name": null,
      "Count": -1
    },
    {
      "ItemId": 6970,
      "Price": 0,
      "Name": null,
      "Count": -1
    },
    {
      "ItemId": 6971,
      "Price": 0,
      "Name": null,
      "Count": -1
    },
    {
      "ItemId": 6972,
      "Price": 0,
      "Name": null,
      "Count": -1
    },
    {
      "ItemId": 6973,
      "Price": 0,
      "Name": null,
      "Count": -1
    },
    {
      "ItemId": 6974,
      "Price": 0,
      "Name": null,
      "Count": -1
    },
    {
      "ItemId": 6975,
      "Price": 0,
      "Name": null,
      "Count": -1
    },
    {
      "ItemId": 6976,
      "Price": 0,
      "Name": null,
      "Count": -1
    },
    {
      "ItemId": 6977,
      "Price": 0,
      "Name": null,
      "Count": -1
    },
    {
      "ItemId": 6978,
      "Price": 0,
      "Name": null,
      "Count": -1
    },
    {
      "ItemId": 6979,
      "Price": 0,
      "Name": null,
      "Count": -1
    },
    {
      "ItemId": 6980,
      "Price": 0,
      "Name": null,
      "Count": -1
    },
    {
      "ItemId": 6981,
      "Price": 0,
      "Name": null,
      "Count": -1
    },
    {
      "ItemId": 6982,
      "Price": 0,
      "Name": null,
      "Count": -1
    },
    {
      "ItemId": 6983,
      "Price": 0,
      "Name": null,
      "Count": -1
    },
    {
      "ItemId": 6984,
      "Price": 0,
      "Name": null,
      "Count": -1
    },
    {
      "ItemId": 6985,
      "Price": 0,
      "Name": null,
      "Count": -1
    },
    {
      "ItemId": 6986,
      "Price": 0,
      "Name": null,
      "Count": -1
    },
    {
      "ItemId": 6987,
      "Price": 0,
      "Name": null,
      "Count": -1
    },
    {
      "ItemId": 6988,
      "Price": 0,
      "Name": null,
      "Count": -1
    },
    {
      "ItemId": 6989,
      "Price": 0,
      "Name": null,
      "Count": -1
    },
    {
      "ItemId": 6990,
      "Price": 0,
      "Name": null,
      "Count": -1
    },
    {
      "ItemId": 6991,
      "Price": 0,
      "Name": null,
      "Count": -1
    },
    {
      "ItemId": 6992,
      "Price": 0,
      "Name": null,
      "Count": -1
    },
    {
      "ItemId": 6993,
      "Price": 0,
      "Name": null,
      "Count": -1
    },
    {
      "ItemId": 6994,
      "Price": 0,
      "Name": null,
      "Count": -1
    },
    {
      "ItemId": 6995,
      "Price": 0,
      "Name": null,
      "Count": -1
    },
    {
      "ItemId": 6996,
      "Price": 0,
      "Name": null,
      "Count": -1
    },
    {
      "ItemId": 6997,
      "Price": 0,
      "Name": null,
      "Count": -1
    },
    {
      "ItemId": 6998,
      "Price": 0,
      "Name": null,
      "Count": -1
    },
    {
      "ItemId": 6999,
      "Price": 0,
      "Name": null,
      "Count": -1
    },
    {
      "ItemId": 7000,
      "Price": 0,
      "Name": null,
      "Count": -1
    },
    {
      "ItemId": 7001,
      "Price": 0,
      "Name": null,
      "Count": -1
    },
    {
      "ItemId": 7002,
      "Price": 0,
      "Name": null,
      "Count": -1
    },
    {
      "ItemId": 7003,
      "Price": 0,
      "Name": null,
      "Count": -1
    },
    {
      "ItemId": 7004,
      "Price": 0,
      "Name": null,
      "Count": -1
    },
    {
      "ItemId": 7005,
      "Price": 0,
      "Name": null,
      "Count": -1
    },
    {
      "ItemId": 7006,
      "Price": 0,
      "Name": null,
      "Count": -1
    },
    {
      "ItemId": 7007,
      "Price": 0,
      "Name": null,
      "Count": -1
    },
    {
      "ItemId": 7008,
      "Price": 0,
      "Name": null,
      "Count": -1
    },
    {
      "ItemId": 7009,
      "Price": 0,
      "Name": null,
      "Count": -1
    },
    {
      "ItemId": 7010,
      "Price": 0,
      "Name": null,
      "Count": -1
    },
    {
      "ItemId": 7011,
      "Price": 0,
      "Name": null,
      "Count": -1
    },
    {
      "ItemId": 7012,
      "Price": 0,
      "Name": null,
      "Count": -1
    },
    {
      "ItemId": 7013,
      "Price": 0,
      "Name": null,
      "Count": -1
    },
    {
      "ItemId": 7580,
      "Price": 0,
      "Name": null,
      "Count": -1
    },
    {
      "ItemId": 7581,
      "Price": 0,
      "Name": null,
      "Count": -1
    },
    {
      "ItemId": 7689,
      "Price": 0,
      "Name": null,
      "Count": -1
    },
    {
      "ItemId": 7690,
      "Price": 0,
      "Name": null,
      "Count": -1
    },
    {
      "ItemId": 7691,
      "Price": 0,
      "Name": null,
      "Count": -1
    },
    {
      "ItemId": 7692,
      "Price": 0,
      "Name": null,
      "Count": -1
    },
    {
      "ItemId": 7693,
      "Price": 0,
      "Name": null,
      "Count": -1
    },
    {
      "ItemId": 7699,
      "Price": 0,
      "Name": null,
      "Count": -1
    },
    {
      "ItemId": 7700,
      "Price": 0,
      "Name": null,
      "Count": -1
    }
  ]
}