{
  "ShopId": 9300,
  "Items": [
    {
      "ItemId": 6657,
      "Price": 0,
      "Name": "Necklace of Valakas",
      "Count": -1
    },
    {
      "ItemId": 8191,
      "Price": 0,
      "Name": "Frintezza's Necklace",
      "Count": -1
    },
    {
      "ItemId": 6656,
      "Price": 0,
      "Name": "Earring of Antharas",
      "Count": -1
    },
    {
      "ItemId": 6659,
      "Price": 0,
      "Name": "Zaken's Earring",
      "Count": -1
    },
    {
      "ItemId": 6661,
      "Price": 0,
      "Name": "Earring of Orfen",
      "Count": -1
    },
    {
      "ItemId": 6658,
      "Price": 0,
      "Name": "Ring of Baium",
      "Count": -1
    },
    {
      "ItemId": 6660,
      "Price": 0,
      "Name": "Ring of Queen Ant",
      "Count": -1
    },
    {
      "ItemId": 6662,
      "Price": 0,
      "Name": "Ring of Core",
      "Count": -1
    }
  ]
}