﻿{
  "Table": "skill_spellbooks",
  "Items":
  [
    {
      "SkillId": 2,
      "ItemId": 1512
    },
    {
      "SkillId": 10,
      "ItemId": 3039
    },
    {
      "SkillId": 13,
      "ItemId": 3940
    },
    {
      "SkillId": 15,
      "ItemId": 1513
    },
    {
      "SkillId": 21,
      "ItemId": 1377
    },
    {
      "SkillId": 22,
      "ItemId": 3040
    },
    {
      "SkillId": 25,
      "ItemId": 3038
    },
    {
      "SkillId": 33,
      "ItemId": 3041
    },
    {
      "SkillId": 44,
      "ItemId": 3432
    },
    {
      "SkillId": 45,
      "ItemId": 1378
    },
    {
      "SkillId": 46,
      "ItemId": 3042
    },
    {
      "SkillId": 49,
      "ItemId": 3043
    },
    {
      "SkillId": 58,
      "ItemId": 1096
    },
    {
      "SkillId": 61,
      "ItemId": 1379
    },
    {
      "SkillId": 65,
      "ItemId": 3044
    },
    {
      "SkillId": 67,
      "ItemId": 3045
    },
    {
      "SkillId": 69,
      "ItemId": 3046
    },
    {
      "SkillId": 70,
      "ItemId": 1097
    },
    {
      "SkillId": 72,
      "ItemId": 3047
    },
    {
      "SkillId": 77,
      "ItemId": 1095
    },
    {
      "SkillId": 86,
      "ItemId": 3048
    },
    {
      "SkillId": 91,
      "ItemId": 1294
    },
    {
      "SkillId": 102,
      "ItemId": 1380
    },
    {
      "SkillId": 103,
      "ItemId": 3049
    },
    {
      "SkillId": 105,
      "ItemId": 1381
    },
    {
      "SkillId": 115,
      "ItemId": 1382
    },
    {
      "SkillId": 122,
      "ItemId": 3050
    },
    {
      "SkillId": 123,
      "ItemId": 3051
    },
    {
      "SkillId": 127,
      "ItemId": 3052
    },
    {
      "SkillId": 129,
      "ItemId": 1383
    },
    {
      "SkillId": 230,
      "ItemId": 1384
    },
    {
      "SkillId": 262,
      "ItemId": 3053
    },
    {
      "SkillId": 278,
      "ItemId": 3054
    },
    {
      "SkillId": 279,
      "ItemId": 3055
    },
    {
      "SkillId": 283,
      "ItemId": 3056
    },
    {
      "SkillId": 289,
      "ItemId": 4203
    },
    {
      "SkillId": 299,
      "ItemId": 4915
    },
    {
      "SkillId": 301,
      "ItemId": 4921
    },
    {
      "SkillId": 438,
      "ItemId": 8877
    },
    {
      "SkillId": 448,
      "ItemId": 8909
    },
    {
      "SkillId": 449,
      "ItemId": 8890
    },
    {
      "SkillId": 454,
      "ItemId": 8892
    },
    {
      "SkillId": 455,
      "ItemId": 8893
    },
    {
      "SkillId": 456,
      "ItemId": 8894
    },
    {
      "SkillId": 457,
      "ItemId": 8895
    },
    {
      "SkillId": 458,
      "ItemId": 8896
    },
    {
      "SkillId": 459,
      "ItemId": 8897
    },
    {
      "SkillId": 460,
      "ItemId": 8898
    },
    {
      "SkillId": 1002,
      "ItemId": 1518
    },
    {
      "SkillId": 1003,
      "ItemId": 1519
    },
    {
      "SkillId": 1004,
      "ItemId": 3103
    },
    {
      "SkillId": 1005,
      "ItemId": 1520
    },
    {
      "SkillId": 1006,
      "ItemId": 1521
    },
    {
      "SkillId": 1007,
      "ItemId": 1522
    },
    {
      "SkillId": 1008,
      "ItemId": 3104
    },
    {
      "SkillId": 1009,
      "ItemId": 1523
    },
    {
      "SkillId": 1010,
      "ItemId": 1524
    },
    {
      "SkillId": 1011,
      "ItemId": 1152
    },
    {
      "SkillId": 1012,
      "ItemId": 1053
    },
    {
      "SkillId": 1013,
      "ItemId": 1385
    },
    {
      "SkillId": 1015,
      "ItemId": 1050
    },
    {
      "SkillId": 1016,
      "ItemId": 1514
    },
    {
      "SkillId": 1018,
      "ItemId": 3072
    },
    {
      "SkillId": 1020,
      "ItemId": 3068
    },
    {
      "SkillId": 1027,
      "ItemId": 1054
    },
    {
      "SkillId": 1028,
      "ItemId": 3073
    },
    {
      "SkillId": 1031,
      "ItemId": 1386
    },
    {
      "SkillId": 1032,
      "ItemId": 3094
    },
    {
      "SkillId": 1033,
      "ItemId": 1387
    },
    {
      "SkillId": 1034,
      "ItemId": 3069
    },
    {
      "SkillId": 1035,
      "ItemId": 1388
    },
    {
      "SkillId": 1036,
      "ItemId": 3095
    },
    {
      "SkillId": 1040,
      "ItemId": 1058
    },
    {
      "SkillId": 1042,
      "ItemId": 3070
    },
    {
      "SkillId": 1043,
      "ItemId": 1389
    },
    {
      "SkillId": 1044,
      "ItemId": 1390
    },
    {
      "SkillId": 1045,
      "ItemId": 3096
    },
    {
      "SkillId": 1047,
      "ItemId": 4207
    },
    {
      "SkillId": 1048,
      "ItemId": 3097
    },
    {
      "SkillId": 1049,
      "ItemId": 3071
    },
    {
      "SkillId": 1050,
      "ItemId": 3098
    },
    {
      "SkillId": 1056,
      "ItemId": 3079
    },
    {
      "SkillId": 1059,
      "ItemId": 1391
    },
    {
      "SkillId": 1062,
      "ItemId": 1392
    },
    {
      "SkillId": 1064,
      "ItemId": 3064
    },
    {
      "SkillId": 1068,
      "ItemId": 1048
    },
    {
      "SkillId": 1069,
      "ItemId": 1394
    },
    {
      "SkillId": 1071,
      "ItemId": 3082
    },
    {
      "SkillId": 1072,
      "ItemId": 3080
    },
    {
      "SkillId": 1073,
      "ItemId": 1515
    },
    {
      "SkillId": 1074,
      "ItemId": 3074
    },
    {
      "SkillId": 1075,
      "ItemId": 1397
    },
    {
      "SkillId": 1077,
      "ItemId": 1398
    },
    {
      "SkillId": 1078,
      "ItemId": 1399
    },
    {
      "SkillId": 1085,
      "ItemId": 1401
    },
    {
      "SkillId": 1086,
      "ItemId": 3099
    },
    {
      "SkillId": 1087,
      "ItemId": 1402
    },
    {
      "SkillId": 1090,
      "ItemId": 1525
    },
    {
      "SkillId": 1092,
      "ItemId": 1526
    },
    {
      "SkillId": 1095,
      "ItemId": 1527
    },
    {
      "SkillId": 1096,
      "ItemId": 1528
    },
    {
      "SkillId": 1097,
      "ItemId": 1529
    },
    {
      "SkillId": 1099,
      "ItemId": 1530
    },
    {
      "SkillId": 1100,
      "ItemId": 1531
    },
    {
      "SkillId": 1101,
      "ItemId": 1532
    },
    {
      "SkillId": 1102,
      "ItemId": 1533
    },
    {
      "SkillId": 1104,
      "ItemId": 3105
    },
    {
      "SkillId": 1105,
      "ItemId": 1534
    },
    {
      "SkillId": 1107,
      "ItemId": 1535
    },
    {
      "SkillId": 1108,
      "ItemId": 3106
    },
    {
      "SkillId": 1111,
      "ItemId": 1403
    },
    {
      "SkillId": 1126,
      "ItemId": 1404
    },
    {
      "SkillId": 1127,
      "ItemId": 1405
    },
    {
      "SkillId": 1128,
      "ItemId": 1667
    },
    {
      "SkillId": 1129,
      "ItemId": 3057
    },
    {
      "SkillId": 1139,
      "ItemId": 3091
    },
    {
      "SkillId": 1140,
      "ItemId": 3092
    },
    {
      "SkillId": 1141,
      "ItemId": 3093
    },
    {
      "SkillId": 1144,
      "ItemId": 1406
    },
    {
      "SkillId": 1145,
      "ItemId": 1407
    },
    {
      "SkillId": 1146,
      "ItemId": 1408
    },
    {
      "SkillId": 1147,
      "ItemId": 1051
    },
    {
      "SkillId": 1148,
      "ItemId": 3065
    },
    {
      "SkillId": 1151,
      "ItemId": 1516
    },
    {
      "SkillId": 1154,
      "ItemId": 3058
    },
    {
      "SkillId": 1155,
      "ItemId": 3059
    },
    {
      "SkillId": 1156,
      "ItemId": 3060
    },
    {
      "SkillId": 1157,
      "ItemId": 1517
    },
    {
      "SkillId": 1159,
      "ItemId": 3066
    },
    {
      "SkillId": 1160,
      "ItemId": 1409
    },
    {
      "SkillId": 1163,
      "ItemId": 3061
    },
    {
      "SkillId": 1164,
      "ItemId": 1056
    },
    {
      "SkillId": 1167,
      "ItemId": 1410
    },
    {
      "SkillId": 1168,
      "ItemId": 1055
    },
    {
      "SkillId": 1169,
      "ItemId": 3062
    },
    {
      "SkillId": 1170,
      "ItemId": 3063
    },
    {
      "SkillId": 1171,
      "ItemId": 3075
    },
    {
      "SkillId": 1172,
      "ItemId": 1411
    },
    {
      "SkillId": 1174,
      "ItemId": 3083
    },
    {
      "SkillId": 1175,
      "ItemId": 1370
    },
    {
      "SkillId": 1176,
      "ItemId": 3089
    },
    {
      "SkillId": 1178,
      "ItemId": 1371
    },
    {
      "SkillId": 1181,
      "ItemId": 1052
    },
    {
      "SkillId": 1182,
      "ItemId": 1412
    },
    {
      "SkillId": 1183,
      "ItemId": 3084
    },
    {
      "SkillId": 1184,
      "ItemId": 1049
    },
    {
      "SkillId": 1189,
      "ItemId": 1413
    },
    {
      "SkillId": 1191,
      "ItemId": 1414
    },
    {
      "SkillId": 1201,
      "ItemId": 1415
    },
    {
      "SkillId": 1204,
      "ItemId": 1098
    },
    {
      "SkillId": 1206,
      "ItemId": 1099
    },
    {
      "SkillId": 1208,
      "ItemId": 1536
    },
    {
      "SkillId": 1209,
      "ItemId": 1537
    },
    {
      "SkillId": 1210,
      "ItemId": 3107
    },
    {
      "SkillId": 1213,
      "ItemId": 3108
    },
    {
      "SkillId": 1217,
      "ItemId": 3429
    },
    {
      "SkillId": 1218,
      "ItemId": 3430
    },
    {
      "SkillId": 1219,
      "ItemId": 3431
    },
    {
      "SkillId": 1220,
      "ItemId": 1372
    },
    {
      "SkillId": 1222,
      "ItemId": 1416
    },
    {
      "SkillId": 1223,
      "ItemId": 1417
    },
    {
      "SkillId": 1224,
      "ItemId": 1418
    },
    {
      "SkillId": 1225,
      "ItemId": 1668
    },
    {
      "SkillId": 1226,
      "ItemId": 1669
    },
    {
      "SkillId": 1227,
      "ItemId": 1670
    },
    {
      "SkillId": 1228,
      "ItemId": 1671
    },
    {
      "SkillId": 1229,
      "ItemId": 1856
    },
    {
      "SkillId": 1230,
      "ItemId": 3076
    },
    {
      "SkillId": 1231,
      "ItemId": 3081
    },
    {
      "SkillId": 1232,
      "ItemId": 3077
    },
    {
      "SkillId": 1233,
      "ItemId": 3078
    },
    {
      "SkillId": 1234,
      "ItemId": 3067
    },
    {
      "SkillId": 1235,
      "ItemId": 3085
    },
    {
      "SkillId": 1236,
      "ItemId": 3086
    },
    {
      "SkillId": 1237,
      "ItemId": 3087
    },
    {
      "SkillId": 1238,
      "ItemId": 3088
    },
    {
      "SkillId": 1239,
      "ItemId": 3090
    },
    {
      "SkillId": 1240,
      "ItemId": 3100
    },
    {
      "SkillId": 1242,
      "ItemId": 3101
    },
    {
      "SkillId": 1243,
      "ItemId": 3102
    },
    {
      "SkillId": 1244,
      "ItemId": 3115
    },
    {
      "SkillId": 1245,
      "ItemId": 3114
    },
    {
      "SkillId": 1246,
      "ItemId": 3109
    },
    {
      "SkillId": 1247,
      "ItemId": 3110
    },
    {
      "SkillId": 1248,
      "ItemId": 3111
    },
    {
      "SkillId": 1249,
      "ItemId": 3112
    },
    {
      "SkillId": 1250,
      "ItemId": 3113
    },
    {
      "SkillId": 1251,
      "ItemId": 3116
    },
    {
      "SkillId": 1252,
      "ItemId": 3117
    },
    {
      "SkillId": 1253,
      "ItemId": 3118
    },
    {
      "SkillId": 1254,
      "ItemId": 3941
    },
    {
      "SkillId": 1256,
      "ItemId": 3943
    },
    {
      "SkillId": 1257,
      "ItemId": 3944
    },
    {
      "SkillId": 1258,
      "ItemId": 4200
    },
    {
      "SkillId": 1259,
      "ItemId": 4201
    },
    {
      "SkillId": 1260,
      "ItemId": 4204
    },
    {
      "SkillId": 1261,
      "ItemId": 4205
    },
    {
      "SkillId": 1262,
      "ItemId": 4206
    },
    {
      "SkillId": 1263,
      "ItemId": 4208
    },
    {
      "SkillId": 1264,
      "ItemId": 4906
    },
    {
      "SkillId": 1265,
      "ItemId": 4907
    },
    {
      "SkillId": 1266,
      "ItemId": 4908
    },
    {
      "SkillId": 1267,
      "ItemId": 4909
    },
    {
      "SkillId": 1268,
      "ItemId": 4910
    },
    {
      "SkillId": 1269,
      "ItemId": 4911
    },
    {
      "SkillId": 1271,
      "ItemId": 4912
    },
    {
      "SkillId": 1272,
      "ItemId": 4913
    },
    {
      "SkillId": 1273,
      "ItemId": 4914
    },
    {
      "SkillId": 1274,
      "ItemId": 4916
    },
    {
      "SkillId": 1275,
      "ItemId": 4917
    },
    {
      "SkillId": 1276,
      "ItemId": 4918
    },
    {
      "SkillId": 1277,
      "ItemId": 4919
    },
    {
      "SkillId": 1278,
      "ItemId": 4920
    },
    {
      "SkillId": 1279,
      "ItemId": 4922
    },
    {
      "SkillId": 1280,
      "ItemId": 4923
    },
    {
      "SkillId": 1281,
      "ItemId": 4924
    },
    {
      "SkillId": 1282,
      "ItemId": 4925
    },
    {
      "SkillId": 1283,
      "ItemId": 4926
    },
    {
      "SkillId": 1284,
      "ItemId": 4927
    },
    {
      "SkillId": 1285,
      "ItemId": 4928
    },
    {
      "SkillId": 1286,
      "ItemId": 4929
    },
    {
      "SkillId": 1287,
      "ItemId": 4930
    },
    {
      "SkillId": 1288,
      "ItemId": 4931
    },
    {
      "SkillId": 1289,
      "ItemId": 4932
    },
    {
      "SkillId": 1290,
      "ItemId": 4933
    },
    {
      "SkillId": 1291,
      "ItemId": 4934
    },
    {
      "SkillId": 1292,
      "ItemId": 5013
    },
    {
      "SkillId": 1293,
      "ItemId": 5014
    },
    {
      "SkillId": 1294,
      "ItemId": 5015
    },
    {
      "SkillId": 1295,
      "ItemId": 5809
    },
    {
      "SkillId": 1296,
      "ItemId": 5810
    },
    {
      "SkillId": 1298,
      "ItemId": 5811
    },
    {
      "SkillId": 1299,
      "ItemId": 5812
    },
    {
      "SkillId": 1300,
      "ItemId": 5813
    },
    {
      "SkillId": 1301,
      "ItemId": 5814
    },
    {
      "SkillId": 1303,
      "ItemId": 5815
    },
    {
      "SkillId": 1304,
      "ItemId": 5816
    },
    {
      "SkillId": 1305,
      "ItemId": 6350
    },
    {
      "SkillId": 1306,
      "ItemId": 6351
    },
    {
      "SkillId": 1307,
      "ItemId": 6352
    },
    {
      "SkillId": 1308,
      "ItemId": 6395
    },
    {
      "SkillId": 1309,
      "ItemId": 6396
    },
    {
      "SkillId": 1310,
      "ItemId": 6397
    },
    {
      "SkillId": 1311,
      "ItemId": 6398
    },
    {
      "SkillId": 1328,
      "ItemId": 7638
    },
    {
      "SkillId": 1329,
      "ItemId": 7639
    },
    {
      "SkillId": 1330,
      "ItemId": 7640
    },
    {
      "SkillId": 1331,
      "ItemId": 7641
    },
    {
      "SkillId": 1332,
      "ItemId": 7642
    },
    {
      "SkillId": 1333,
      "ItemId": 7643
    },
    {
      "SkillId": 1334,
      "ItemId": 7644
    },
    {
      "SkillId": 1335,
      "ItemId": 7645
    },
    {
      "SkillId": 1336,
      "ItemId": 7646
    },
    {
      "SkillId": 1337,
      "ItemId": 7647
    },
    {
      "SkillId": 1338,
      "ItemId": 7648
    },
    {
      "SkillId": 1339,
      "ItemId": 7649
    },
    {
      "SkillId": 1340,
      "ItemId": 7650
    },
    {
      "SkillId": 1341,
      "ItemId": 7651
    },
    {
      "SkillId": 1342,
      "ItemId": 7652
    },
    {
      "SkillId": 1343,
      "ItemId": 7653
    },
    {
      "SkillId": 1344,
      "ItemId": 7654
    },
    {
      "SkillId": 1345,
      "ItemId": 7655
    },
    {
      "SkillId": 1346,
      "ItemId": 7656
    },
    {
      "SkillId": 1347,
      "ItemId": 7657
    },
    {
      "SkillId": 1348,
      "ItemId": 7658
    },
    {
      "SkillId": 1349,
      "ItemId": 7659
    },
    {
      "SkillId": 1350,
      "ItemId": 7660
    },
    {
      "SkillId": 1351,
      "ItemId": 7661
    },
    {
      "SkillId": 1352,
      "ItemId": 7662
    },
    {
      "SkillId": 1353,
      "ItemId": 7663
    },
    {
      "SkillId": 1354,
      "ItemId": 7664
    },
    {
      "SkillId": 1355,
      "ItemId": 7665
    },
    {
      "SkillId": 1356,
      "ItemId": 7666
    },
    {
      "SkillId": 1357,
      "ItemId": 7667
    },
    {
      "SkillId": 1358,
      "ItemId": 7668
    },
    {
      "SkillId": 1359,
      "ItemId": 7669
    },
    {
      "SkillId": 1360,
      "ItemId": 7670
    },
    {
      "SkillId": 1361,
      "ItemId": 7671
    },
    {
      "SkillId": 1362,
      "ItemId": 7672
    },
    {
      "SkillId": 1363,
      "ItemId": 7673
    },
    {
      "SkillId": 1364,
      "ItemId": 7674
    },
    {
      "SkillId": 1365,
      "ItemId": 7675
    },
    {
      "SkillId": 1366,
      "ItemId": 7676
    },
    {
      "SkillId": 1367,
      "ItemId": 7835
    },
    {
      "SkillId": 1380,
      "ItemId": 8380
    },
    {
      "SkillId": 1381,
      "ItemId": 8381
    },
    {
      "SkillId": 1382,
      "ItemId": 8382
    },
    {
      "SkillId": 1383,
      "ItemId": 8383
    },
    {
      "SkillId": 1384,
      "ItemId": 8384
    },
    {
      "SkillId": 1385,
      "ItemId": 8385
    },
    {
      "SkillId": 1386,
      "ItemId": 8386
    },
    {
      "SkillId": 1387,
      "ItemId": 8387
    },
    {
      "SkillId": 1388,
      "ItemId": 8388
    },
    {
      "SkillId": 1389,
      "ItemId": 8389
    },
    {
      "SkillId": 1390,
      "ItemId": 8390
    },
    {
      "SkillId": 1391,
      "ItemId": 8391
    },
    {
      "SkillId": 1392,
      "ItemId": 8392
    },
    {
      "SkillId": 1393,
      "ItemId": 8393
    },
    {
      "SkillId": 1394,
      "ItemId": 8394
    },
    {
      "SkillId": 1395,
      "ItemId": 8395
    },
    {
      "SkillId": 1396,
      "ItemId": 8396
    },
    {
      "SkillId": 1397,
      "ItemId": 8397
    },
    {
      "SkillId": 1398,
      "ItemId": 8398
    },
    {
      "SkillId": 1399,
      "ItemId": 8399
    },
    {
      "SkillId": 1400,
      "ItemId": 8400
    },
    {
      "SkillId": 1401,
      "ItemId": 8401
    },
    {
      "SkillId": 1402,
      "ItemId": 8402
    },
    {
      "SkillId": 1403,
      "ItemId": 8616
    },
    {
      "SkillId": 1404,
      "ItemId": 8617
    },
    {
      "SkillId": 1406,
      "ItemId": 8878
    },
    {
      "SkillId": 1407,
      "ItemId": 8879
    },
    {
      "SkillId": 1408,
      "ItemId": 8880
    },
    {
      "SkillId": 1409,
      "ItemId": 8881
    },
    {
      "SkillId": 1410,
      "ItemId": 8882
    },
    {
      "SkillId": 1411,
      "ItemId": 8883
    },
    {
      "SkillId": 1412,
      "ItemId": 8884
    },
    {
      "SkillId": 1413,
      "ItemId": 8885
    },
    {
      "SkillId": 1414,
      "ItemId": 8886
    },
    {
      "SkillId": 1415,
      "ItemId": 8887
    },
    {
      "SkillId": 1416,
      "ItemId": 8888
    },
    {
      "SkillId": 1417,
      "ItemId": 8891
    },
    {
      "SkillId": 1418,
      "ItemId": 8945
    },
    {
      "SkillId": 1419,
      "ItemId": 8899
    },
    {
      "SkillId": 1420,
      "ItemId": 8900
    },
    {
      "SkillId": 1421,
      "ItemId": 8901
    },
    {
      "SkillId": 1422,
      "ItemId": 8902
    },
    {
      "SkillId": 1423,
      "ItemId": 8903
    },
    {
      "SkillId": 1424,
      "ItemId": 8904
    },
    {
      "SkillId": 1425,
      "ItemId": 8905
    },
    {
      "SkillId": 1426,
      "ItemId": 8906
    },
    {
      "SkillId": 1427,
      "ItemId": 8907
    },
    {
      "SkillId": 1428,
      "ItemId": 8908
    },
    {
      "SkillId": 1429,
      "ItemId": 8889
    },
    {
      "SkillId": 1430,
      "ItemId": 8946
    }
  ]
}